%!PS-Adobe-3.0 EPSF-3.0
%%Creator: cairo 1.14.2 (http://cairographics.org)
%%CreationDate: Mon Oct  8 09:05:15 2018
%%Pages: 1
%%DocumentData: Clean7Bit
%%LanguageLevel: 2
%%BoundingBox: 0 0 512 512
%%EndComments
%%BeginProlog
save
50 dict begin
/q { gsave } bind def
/Q { grestore } bind def
/cm { 6 array astore concat } bind def
/w { setlinewidth } bind def
/J { setlinecap } bind def
/j { setlinejoin } bind def
/M { setmiterlimit } bind def
/d { setdash } bind def
/m { moveto } bind def
/l { lineto } bind def
/c { curveto } bind def
/h { closepath } bind def
/re { exch dup neg 3 1 roll 5 3 roll moveto 0 rlineto
      0 exch rlineto 0 rlineto closepath } bind def
/S { stroke } bind def
/f { fill } bind def
/f* { eofill } bind def
/n { newpath } bind def
/W { clip } bind def
/W* { eoclip } bind def
/BT { } bind def
/ET { } bind def
/pdfmark where { pop globaldict /?pdfmark /exec load put }
    { globaldict begin /?pdfmark /pop load def /pdfmark
    /cleartomark load def end } ifelse
/BDC { mark 3 1 roll /BDC pdfmark } bind def
/EMC { mark /EMC pdfmark } bind def
/cairo_store_point { /cairo_point_y exch def /cairo_point_x exch def } def
/Tj { show currentpoint cairo_store_point } bind def
/TJ {
  {
    dup
    type /stringtype eq
    { show } { -0.001 mul 0 cairo_font_matrix dtransform rmoveto } ifelse
  } forall
  currentpoint cairo_store_point
} bind def
/cairo_selectfont { cairo_font_matrix aload pop pop pop 0 0 6 array astore
    cairo_font exch selectfont cairo_point_x cairo_point_y moveto } bind def
/Tf { pop /cairo_font exch def /cairo_font_matrix where
      { pop cairo_selectfont } if } bind def
/Td { matrix translate cairo_font_matrix matrix concatmatrix dup
      /cairo_font_matrix exch def dup 4 get exch 5 get cairo_store_point
      /cairo_font where { pop cairo_selectfont } if } bind def
/Tm { 2 copy 8 2 roll 6 array astore /cairo_font_matrix exch def
      cairo_store_point /cairo_font where { pop cairo_selectfont } if } bind def
/g { setgray } bind def
/rg { setrgbcolor } bind def
/d1 { setcachedevice } bind def
%%EndProlog
%%BeginSetup
%%EndSetup
%%Page: 1 1
%%BeginPageSetup
%%PageBoundingBox: 0 0 512 512
%%EndPageSetup
q 0 0 512 512 rectclip q
0 g
502 108 m 394 108 l 394 298 l 394 303.523 389.523 308 384 308 c 342.5 308
 l 336.977 308 332.5 303.523 332.5 298 c 332.5 292.477 336.977 288 342.5
 288 c 374 288 l 374 20 l 138 20 l 138 288 l 260.75 288 l 266.273 288 270.75
 292.477 270.75 298 c 270.75 303.523 266.273 308 260.75 308 c 128 308 l 
122.477 308 118 303.523 118 298 c 118 108 l 98 108 l 98 176 l 98 181.523
 93.523 186 88 186 c 10 186 l 4.477 186 0 181.523 0 176 c 0 10 l 0 4.477
 4.477 0 10 0 c 502 0 l 507.523 0 512 4.477 512 10 c 512 98 l 512 103.523
 507.523 108 502 108 c h
20 166 m 78 166 l 78 108 l 20 108 l h
20 88 m 118 88 l 118 20 l 20 20 l h
492 20 m 394 20 l 394 88 l 492 88 l h
492 20 m f
54 64 m 51.371 64 48.789 62.93 46.93 61.07 c 45.07 59.211 44 56.629 44 
54 c 44 51.371 45.07 48.789 46.93 46.93 c 48.789 45.07 51.371 44 54 44 c
 56.629 44 59.211 45.07 61.07 46.93 c 62.93 48.789 64 51.371 64 54 c 64 
56.629 62.93 59.211 61.07 61.07 c 59.211 62.93 56.629 64 54 64 c h
54 64 m f
446.68 46.93 m 448.539 45.07 451.121 44 453.75 44 c 456.379 44 458.961 
45.07 460.82 46.93 c 462.68 48.789 463.75 51.371 463.75 54 c 463.75 56.629
 462.68 59.211 460.82 61.07 c 458.961 62.93 456.379 64 453.75 64 c 451.121
 64 448.539 62.93 446.68 61.07 c 444.82 59.211 443.75 56.629 443.75 54 c
 443.75 51.371 444.82 48.789 446.68 46.93 c h
446.68 46.93 m f
302.75 308 m 300.121 308 297.539 306.93 295.68 305.07 c 293.82 303.211 
292.75 300.629 292.75 298 c 292.75 295.371 293.82 292.789 295.68 290.93 
c 297.539 289.07 300.121 288 302.75 288 c 305.379 288 307.961 289.07 309.82
 290.93 c 311.68 292.789 312.75 295.371 312.75 298 c 312.75 300.629 311.68
 303.211 309.82 305.07 c 307.961 306.93 305.379 308 302.75 308 c h
302.75 308 m f
185.516 174.668 m 202.055 174.668 215.516 188.125 215.516 204.668 c 215.516
 221.211 202.055 234.668 185.516 234.668 c 168.973 234.668 155.516 221.211
 155.516 204.668 c 155.516 188.125 168.973 174.668 185.516 174.668 c h
185.516 214.668 m 191.027 214.668 195.516 210.18 195.516 204.668 c 195.516
 199.152 191.027 194.668 185.516 194.668 c 180 194.668 175.516 199.152 175.516
 204.668 c 175.516 210.18 180 214.668 185.516 214.668 c h
185.516 214.668 m f
256 234.668 m 239.457 234.668 226 221.211 226 204.668 c 226 188.125 239.457
 174.668 256 174.668 c 272.543 174.668 286 188.125 286 204.668 c 286 221.211
 272.543 234.668 256 234.668 c h
256 194.668 m 250.484 194.668 246 199.152 246 204.668 c 246 210.18 250.484
 214.668 256 214.668 c 261.516 214.668 266 210.18 266 204.668 c 266 199.152
 261.516 194.668 256 194.668 c h
256 194.668 m f
296.484 204.668 m 296.484 188.125 309.945 174.668 326.484 174.668 c 343.027
 174.668 356.484 188.125 356.484 204.668 c 356.484 221.211 343.027 234.668
 326.484 234.668 c 309.945 234.668 296.484 221.207 296.484 204.668 c h
326.484 214.668 m 332 214.668 336.484 210.18 336.484 204.668 c 336.484 
199.152 332 194.668 326.484 194.668 c 320.973 194.668 316.484 199.152 316.484
 204.668 c 316.484 210.18 320.973 214.668 326.484 214.668 c h
326.484 214.668 m f
155.387 138 m 155.387 98 l 155.387 92.477 159.863 88 165.387 88 c 346.613
 88 l 352.137 88 356.613 92.477 356.613 98 c 356.613 138 l 356.613 143.523
 352.137 148 346.613 148 c 165.387 148 l 159.863 148 155.387 143.523 155.387
 138 c h
175.387 128 m 336.613 128 l 336.613 108 l 175.387 108 l h
175.387 128 m f
88.07 446.93 m 89.93 448.789 91 451.371 91 454 c 91 456.629 89.93 459.211
 88.07 461.07 c 86.211 462.93 83.629 464 81 464 c 78.371 464 75.789 462.93
 73.93 461.07 c 72.07 459.211 71 456.629 71 454 c 71 451.371 72.07 448.789
 73.93 446.93 c 75.789 445.07 78.371 444 81 444 c 83.629 444 86.211 445.07
 88.07 446.93 c h
88.07 446.93 m f
502 436 m 507.523 436 512 440.477 512 446 c 512 502 l 512 507.523 507.523
 512 502 512 c 10 512 l 4.477 512 0 507.523 0 502 c 0 454 l 0 448.477 4.477
 444 10 444 c 41 444 l 46.523 444 51 448.477 51 454 c 51 459.523 46.523 
464 41 464 c 20 464 l 20 492 l 420 492 l 420 464 l 123.668 464 l 118.145
 464 113.668 459.523 113.668 454 c 113.668 448.477 118.145 444 123.668 444
 c 420.199 444 l 421.129 439.438 425.16 436 430 436 c 456 436 l 456 302.145
 l 422.93 269.07 l 421.055 267.195 420 264.652 420 262 c 420 226 l 420 220.477
 424.477 216 430 216 c 435.523 216 440 220.477 440 226 c 440 257.859 l 466
 283.859 l 492 257.859 l 492 226 l 492 220.477 496.477 216 502 216 c 507.523
 216 512 220.477 512 226 c 512 262 l 512 264.652 510.945 267.195 509.07 
269.07 c 476 302.145 l 476 436 l h
440 492 m 492 492 l 492 456 l 440 456 l h
440 492 m f
473.07 466.93 m 474.93 468.789 476 471.371 476 474 c 476 476.629 474.93
 479.211 473.07 481.07 c 471.211 482.93 468.629 484 466 484 c 463.371 484
 460.789 482.93 458.93 481.07 c 457.07 479.211 456 476.629 456 474 c 456
 471.371 457.07 468.789 458.93 466.93 c 460.789 465.07 463.371 464 466 464
 c 468.629 464 471.211 465.07 473.07 466.93 c h
473.07 466.93 m f
Q Q
showpage
%%Trailer
end restore
%%EOF
