%!PS-Adobe-3.0 EPSF-3.0
%%Creator: cairo 1.14.2 (http://cairographics.org)
%%CreationDate: Mon Oct  8 09:05:15 2018
%%Pages: 1
%%DocumentData: Clean7Bit
%%LanguageLevel: 2
%%BoundingBox: 0 0 512 512
%%EndComments
%%BeginProlog
save
50 dict begin
/q { gsave } bind def
/Q { grestore } bind def
/cm { 6 array astore concat } bind def
/w { setlinewidth } bind def
/J { setlinecap } bind def
/j { setlinejoin } bind def
/M { setmiterlimit } bind def
/d { setdash } bind def
/m { moveto } bind def
/l { lineto } bind def
/c { curveto } bind def
/h { closepath } bind def
/re { exch dup neg 3 1 roll 5 3 roll moveto 0 rlineto
      0 exch rlineto 0 rlineto closepath } bind def
/S { stroke } bind def
/f { fill } bind def
/f* { eofill } bind def
/n { newpath } bind def
/W { clip } bind def
/W* { eoclip } bind def
/BT { } bind def
/ET { } bind def
/pdfmark where { pop globaldict /?pdfmark /exec load put }
    { globaldict begin /?pdfmark /pop load def /pdfmark
    /cleartomark load def end } ifelse
/BDC { mark 3 1 roll /BDC pdfmark } bind def
/EMC { mark /EMC pdfmark } bind def
/cairo_store_point { /cairo_point_y exch def /cairo_point_x exch def } def
/Tj { show currentpoint cairo_store_point } bind def
/TJ {
  {
    dup
    type /stringtype eq
    { show } { -0.001 mul 0 cairo_font_matrix dtransform rmoveto } ifelse
  } forall
  currentpoint cairo_store_point
} bind def
/cairo_selectfont { cairo_font_matrix aload pop pop pop 0 0 6 array astore
    cairo_font exch selectfont cairo_point_x cairo_point_y moveto } bind def
/Tf { pop /cairo_font exch def /cairo_font_matrix where
      { pop cairo_selectfont } if } bind def
/Td { matrix translate cairo_font_matrix matrix concatmatrix dup
      /cairo_font_matrix exch def dup 4 get exch 5 get cairo_store_point
      /cairo_font where { pop cairo_selectfont } if } bind def
/Tm { 2 copy 8 2 roll 6 array astore /cairo_font_matrix exch def
      cairo_store_point /cairo_font where { pop cairo_selectfont } if } bind def
/g { setgray } bind def
/rg { setrgbcolor } bind def
/d1 { setcachedevice } bind def
%%EndProlog
%%BeginSetup
%%EndSetup
%%Page: 1 1
%%BeginPageSetup
%%PageBoundingBox: 0 0 512 512
%%EndPageSetup
q 0 0 512 512 rectclip q
0 g
502 310 m 465.148 310 l 460.102 329.594 452.359 348.266 442.055 365.688
 c 468.133 391.766 l 472.035 395.668 472.035 402 468.133 405.906 c 405.906
 468.133 l 404.031 470.008 401.488 471.062 398.836 471.062 c 396.184 471.062
 393.641 470.008 391.766 468.133 c 365.688 442.059 l 348.266 452.359 329.594
 460.105 310 465.148 c 310 502 l 310 507.523 305.523 512 300 512 c 212 512
 l 206.477 512 202 507.523 202 502 c 202 465.215 l 182.371 460.188 163.672
 452.453 146.215 442.152 c 120.234 468.133 l 118.359 470.008 115.816 471.059
 113.164 471.059 c 110.512 471.059 107.969 470.008 106.094 468.133 c 43.867
 405.906 l 39.965 402 39.965 395.668 43.867 391.762 c 69.785 365.848 l 59.434
 348.375 51.656 329.648 46.598 310 c 10 310 l 4.477 310 0 305.523 0 300 
c 0 10 l 0 4.477 4.477 0 10 0 c 300 0 l 305.523 0 310 4.477 310 10 c 310
 46.598 l 329.648 51.656 348.375 59.434 365.848 69.785 c 391.766 43.867 
l 393.641 41.992 396.184 40.938 398.836 40.938 c 401.488 40.938 404.031 
41.992 405.906 43.867 c 468.133 106.094 l 472.035 110 472.035 116.332 468.133
 120.234 c 442.152 146.215 l 452.453 163.672 460.188 182.375 465.215 202
 c 502 202 l 507.523 202 512 206.477 512 212 c 512 300 l 512 305.523 507.523
 310 502 310 c h
212 20 m 20 20 l 20 220.418 l 67.559 220.418 l 67.559 123.246 l 67.559 
119.199 69.996 115.551 73.738 114.004 c 77.484 112.457 81.785 113.32 84.645
 116.191 c 132.246 163.992 l 179.848 116.191 l 181.762 114.27 184.324 113.246
 186.934 113.246 c 188.219 113.246 189.516 113.496 190.75 114.008 c 194.492
 115.551 196.934 119.199 196.934 123.25 c 196.934 220.418 l 244.488 220.418
 l 244.488 20 l h
176.934 220.418 m 176.934 147.461 l 139.328 185.223 l 137.453 187.105 134.902
 188.164 132.242 188.164 c 129.586 188.164 127.035 187.105 125.156 185.223
 c 87.555 147.461 l 87.555 220.418 l h
206 256 m 206 283.57 228.43 306 256 306 c 283.57 306 306 283.57 306 256
 c 306 231.324 288.027 210.777 264.488 206.734 c 264.488 230.418 l 264.488
 235.941 260.008 240.418 254.488 240.418 c 208.488 240.418 l 206.844 245.422
 206 250.645 206 256 c h
492 222 m 457.305 222 l 452.598 222 448.531 218.719 447.531 214.117 c 442.59
 191.309 433.688 169.781 421.082 150.129 c 418.543 146.172 419.102 140.98
 422.426 137.656 c 446.922 113.164 l 398.836 65.082 l 374.398 89.52 l 371.066
 92.852 365.867 93.406 361.91 90.855 c 342.246 78.191 320.699 69.246 297.871
 64.266 c 293.277 63.266 290.004 59.199 290.004 54.496 c 290.004 20 l 264.488
 20 l 264.488 108.57 l 341.984 112.98 403.684 177.418 403.684 256 c 403.684
 288.879 393.109 320 373.102 345.996 c 353.734 371.164 326.312 389.715 295.891
 398.23 c 290.574 399.719 285.055 396.613 283.566 391.297 c 282.078 385.977
 285.18 380.457 290.5 378.969 c 345.363 363.613 383.684 313.047 383.684 
256 c 383.684 188.449 330.949 132.992 264.488 128.609 c 264.488 186.531 
l 299.094 190.738 326 220.277 326 256 c 326 294.598 294.598 326 256 326 
c 217.402 326 186 294.598 186 256 c 186 250.703 186.602 245.496 187.758 
240.418 c 129.27 240.418 l 128.645 245.57 128.32 250.789 128.32 256 c 128.32
 312.066 164.219 361.023 217.656 377.824 c 222.926 379.484 225.852 385.098
 224.195 390.363 c 222.539 395.633 216.926 398.562 211.656 396.906 c 182.324
 387.684 156 368.961 137.531 344.188 c 118.422 318.555 108.32 288.059 108.32
 256 c 108.32 250.801 108.598 245.582 109.141 240.418 c 20 240.418 l 20 
290 l 54.496 290 l 59.199 290 63.266 293.273 64.27 297.867 c 69.246 320.695
 78.191 342.242 90.859 361.91 c 93.406 365.867 92.852 371.066 89.523 374.395
 c 65.082 398.836 l 113.164 446.918 l 137.656 422.426 l 140.984 419.102 
146.176 418.543 150.129 421.078 c 169.781 433.688 191.312 442.586 214.117
 447.531 c 218.719 448.527 222 452.598 222 457.305 c 222 492 l 290 492 l
 290 457.25 l 290 452.547 293.277 448.48 297.871 447.48 c 320.645 442.512
 342.141 433.598 361.766 420.984 c 365.723 418.441 370.918 419 374.242 422.324
 c 398.84 446.922 l 446.922 398.836 l 422.328 374.242 l 419 370.918 418.441
 365.723 420.984 361.766 c 433.598 342.141 442.512 320.645 447.48 297.867
 c 448.48 293.277 452.551 290 457.25 290 c 492 290 l h
492 222 m f
256.375 403.68 m 256 403.68 l 250.477 403.68 246 399.203 246 393.68 c 246
 388.156 250.477 383.68 256 383.68 c 256.375 383.68 l 261.898 383.68 266.375
 388.156 266.375 393.68 c 266.375 399.203 261.898 403.68 256.375 403.68 
c h
256.375 403.68 m f
211.082 101.332 m 159.082 101.332 l 153.562 101.332 149.082 96.855 149.082
 91.332 c 149.082 85.809 153.562 81.332 159.082 81.332 c 211.082 81.332 
l 216.605 81.332 221.082 85.809 221.082 91.332 c 221.082 96.855 216.605 
101.332 211.082 101.332 c h
211.082 101.332 m f
211.082 62.668 m 132.242 62.668 l 126.723 62.668 122.242 58.191 122.242
 52.668 c 122.242 47.145 126.723 42.668 132.242 42.668 c 211.082 42.668 
l 216.605 42.668 221.082 47.145 221.082 52.668 c 221.082 58.191 216.605 
62.668 211.082 62.668 c h
211.082 62.668 m f
86.422 62.672 m 83.777 62.672 81.211 61.602 79.352 59.738 c 77.48 57.879
 76.422 55.301 76.422 52.672 c 76.422 50.031 77.48 47.461 79.352 45.602 
c 81.211 43.73 83.781 42.672 86.422 42.672 c 89.051 42.672 91.621 43.73 
93.488 45.602 c 95.348 47.461 96.422 50.039 96.422 52.672 c 96.422 55.301
 95.352 57.879 93.488 59.738 c 91.629 61.602 89.051 62.672 86.422 62.672
 c h
86.422 62.672 m f
Q Q
showpage
%%Trailer
end restore
%%EOF
