%!PS-Adobe-3.0 EPSF-3.0
%%Creator: cairo 1.14.2 (http://cairographics.org)
%%CreationDate: Mon Oct  8 09:05:15 2018
%%Pages: 1
%%DocumentData: Clean7Bit
%%LanguageLevel: 2
%%BoundingBox: 0 0 512 512
%%EndComments
%%BeginProlog
save
50 dict begin
/q { gsave } bind def
/Q { grestore } bind def
/cm { 6 array astore concat } bind def
/w { setlinewidth } bind def
/J { setlinecap } bind def
/j { setlinejoin } bind def
/M { setmiterlimit } bind def
/d { setdash } bind def
/m { moveto } bind def
/l { lineto } bind def
/c { curveto } bind def
/h { closepath } bind def
/re { exch dup neg 3 1 roll 5 3 roll moveto 0 rlineto
      0 exch rlineto 0 rlineto closepath } bind def
/S { stroke } bind def
/f { fill } bind def
/f* { eofill } bind def
/n { newpath } bind def
/W { clip } bind def
/W* { eoclip } bind def
/BT { } bind def
/ET { } bind def
/pdfmark where { pop globaldict /?pdfmark /exec load put }
    { globaldict begin /?pdfmark /pop load def /pdfmark
    /cleartomark load def end } ifelse
/BDC { mark 3 1 roll /BDC pdfmark } bind def
/EMC { mark /EMC pdfmark } bind def
/cairo_store_point { /cairo_point_y exch def /cairo_point_x exch def } def
/Tj { show currentpoint cairo_store_point } bind def
/TJ {
  {
    dup
    type /stringtype eq
    { show } { -0.001 mul 0 cairo_font_matrix dtransform rmoveto } ifelse
  } forall
  currentpoint cairo_store_point
} bind def
/cairo_selectfont { cairo_font_matrix aload pop pop pop 0 0 6 array astore
    cairo_font exch selectfont cairo_point_x cairo_point_y moveto } bind def
/Tf { pop /cairo_font exch def /cairo_font_matrix where
      { pop cairo_selectfont } if } bind def
/Td { matrix translate cairo_font_matrix matrix concatmatrix dup
      /cairo_font_matrix exch def dup 4 get exch 5 get cairo_store_point
      /cairo_font where { pop cairo_selectfont } if } bind def
/Tm { 2 copy 8 2 roll 6 array astore /cairo_font_matrix exch def
      cairo_store_point /cairo_font where { pop cairo_selectfont } if } bind def
/g { setgray } bind def
/rg { setrgbcolor } bind def
/d1 { setcachedevice } bind def
%%EndProlog
%%BeginSetup
%%EndSetup
%%Page: 1 1
%%BeginPageSetup
%%PageBoundingBox: 0 0 512 512
%%EndPageSetup
q 0 0 512 512 rectclip q
0 g
116 460 m 113.371 460 110.789 458.93 108.93 457.07 c 107.07 455.211 106
 452.629 106 450 c 106 447.371 107.07 444.789 108.93 442.93 c 110.789 441.07
 113.371 440 116 440 c 118.629 440 121.211 441.07 123.07 442.93 c 124.93
 444.789 126 447.371 126 450 c 126 452.629 124.93 455.211 123.07 457.07 
c 121.211 458.93 118.629 460 116 460 c h
116 460 m f
338.602 460 m 335.969 460 333.391 458.93 331.531 457.07 c 329.672 455.211
 328.602 452.629 328.602 450 c 328.602 447.371 329.672 444.789 331.531 442.93
 c 333.391 441.07 335.969 440 338.602 440 c 341.238 440 343.809 441.07 345.672
 442.93 c 347.539 444.789 348.602 447.371 348.602 450 c 348.602 452.629 
347.539 455.211 345.672 457.07 c 343.809 458.93 341.238 460 338.602 460 
c h
338.602 460 m f
482.137 253.809 m 482.137 290.5 l 499.293 294.938 512 310.547 512 329.07
 c 512 340.301 507.32 350.449 499.82 357.699 c 386.844 488.887 l 385.992
 489.941 385.109 490.969 384.191 491.965 c 383.949 492.246 l 383.684 492.555
 383.398 492.84 383.102 493.109 c 371.824 504.746 356.051 512 338.602 512
 c 116 512 l 108.695 512 101.688 510.723 95.176 508.391 c 95.027 508.344
 94.875 508.305 94.727 508.25 c 6.508 475.371 l 2.594 473.91 0 470.176 0
 466 c 0 362 l 0 358.773 1.555 355.75 4.176 353.871 c 5.895 352.637 7.938
 352 10 352 c 11.082 352 12.168 352.176 13.215 352.531 c 117.652 388 l 335.09
 388 l 446.035 299.043 l 446.883 298.305 447.762 297.598 448.668 296.934
 c 448.703 296.906 l 448.988 296.676 449.285 296.473 449.586 296.277 c 453.355
 293.676 457.586 291.703 462.137 290.516 c 462.137 253.809 l 435.203 226.875
 l 433.328 225 432.273 222.457 432.273 219.805 c 432.273 193.996 l 432.273
 188.473 436.75 183.996 442.273 183.996 c 447.797 183.996 452.273 188.473
 452.273 193.996 c 452.273 215.66 l 472.137 235.523 l 492 215.66 l 492 195.871
 l 492 190.348 496.477 185.871 502 185.871 c 507.523 185.871 512 190.348
 512 195.871 c 512 219.805 l 512 222.453 510.945 225 509.07 226.875 c h
472.168 309.234 m 467.93 309.234 464.004 310.586 460.777 312.859 c 458.949
 314.324 l 454.902 317.957 452.336 323.211 452.336 329.07 c 452.336 340.004
 461.23 348.902 472.168 348.902 c 483.102 348.902 492 340.004 492 329.07
 c 492 318.133 483.102 309.234 472.168 309.234 c h
74 450 m 74 473.16 92.84 492 116 492 c 139.16 492 158 473.16 158 450 c 
158 426.84 139.16 408 116 408 c 92.84 408 74 426.84 74 450 c h
161.555 492 m 293.047 492 l 282.848 480.945 276.602 466.191 276.602 450
 c 276.602 433.809 282.848 419.055 293.047 408 c 161.555 408 l 171.754 419.055
 178 433.809 178 450 c 178 466.191 171.754 480.945 161.555 492 c h
296.602 450 m 296.602 473.16 315.445 492 338.602 492 c 350.645 492 361.512
 486.898 369.18 478.75 c 371.594 475.945 l 377.227 468.797 380.602 459.789
 380.602 450 c 380.602 426.84 361.762 408 338.602 408 c 315.445 408 296.602
 426.84 296.602 450 c h
400.168 442.766 m 464.434 368.145 l 448.156 364.926 435.41 351.766 432.82
 335.273 c 361.547 392.422 l 382.262 400.703 397.488 419.84 400.168 442.766
 c h
20 459.055 m 58.617 473.449 l 55.648 466.211 54 458.297 54 450 c 54 427.852
 65.684 408.391 83.199 397.422 c 20 375.957 l h
20 459.055 m f
393 324 m 27 324 l 12.113 324 0 311.887 0 297 c 0 27 l 0 12.113 12.113 
0 27 0 c 393 0 l 407.887 0 420 12.113 420 27 c 420 297 l 420 311.887 407.887
 324 393 324 c h
400 27 m 400 23.141 396.859 20 393 20 c 27 20 l 23.141 20 20 23.141 20 
27 c 20 297 l 20 300.859 23.141 304 27 304 c 393 304 l 396.859 304 400 300.859
 400 297 c h
400 27 m f
292.328 60 m 289.699 60 287.121 58.93 285.262 57.07 c 283.398 55.211 282.328
 52.629 282.328 50 c 282.328 47.371 283.398 44.789 285.262 42.93 c 287.121
 41.07 289.699 40 292.328 40 c 294.969 40 297.539 41.07 299.398 42.93 c 
301.27 44.789 302.328 47.371 302.328 50 c 302.328 52.629 301.27 55.211 299.398
 57.07 c 297.539 58.93 294.969 60 292.328 60 c h
292.328 60 m f
370 284 m 50 284 l 44.477 284 40 279.523 40 274 c 40 50 l 40 44.477 44.477
 40 50 40 c 244.332 40 l 249.855 40 254.332 44.477 254.332 50 c 254.332 
55.523 249.855 60 244.332 60 c 60 60 l 60 264 l 360 264 l 360 60 l 333.332
 60 l 327.809 60 323.332 55.523 323.332 50 c 323.332 44.477 327.809 40 333.332
 40 c 370 40 l 375.523 40 380 44.477 380 50 c 380 274 l 380 279.523 375.523
 284 370 284 c h
370 284 m f
89 208 m 203.5 208 l 209.023 208 213.5 212.477 213.5 218 c 213.5 223.523
 209.023 228 203.5 228 c 89 228 l 83.477 228 79 223.523 79 218 c 79 212.477
 83.477 208 89 208 c h
89 208 m f
191 162 m 191 167.523 186.523 172 181 172 c 89 172 l 83.477 172 79 167.523
 79 162 c 79 156.477 83.477 152 89 152 c 181 152 l 186.523 152 191 156.477
 191 162 c h
191 162 m f
89 116 m 83.477 116 79 111.523 79 106 c 79 100.477 83.477 96 89 96 c 146.832
 96 l 152.355 96 156.832 100.477 156.832 106 c 156.832 111.523 152.355 116
 146.832 116 c h
89 116 m f
326.648 208 m 332.172 208 336.648 212.477 336.648 218 c 336.648 223.523
 332.172 228 326.648 228 c 280.074 228 l 274.551 228 270.074 223.523 270.074
 218 c 270.074 212.477 274.551 208 280.074 208 c h
326.648 208 m f
217.301 162 m 217.301 156.477 221.777 152 227.301 152 c 326.648 152 l 332.172
 152 336.648 156.477 336.648 162 c 336.648 167.523 332.172 172 326.648 172
 c 227.301 172 l 221.777 172 217.301 167.523 217.301 162 c h
217.301 162 m f
189.168 96 m 326.648 96 l 332.172 96 336.648 100.477 336.648 106 c 336.648
 111.523 332.172 116 326.648 116 c 189.168 116 l 183.645 116 179.168 111.523
 179.168 106 c 179.168 100.477 183.645 96 189.168 96 c h
189.168 96 m f
249.57 210.93 m 251.43 212.789 252.5 215.371 252.5 218 c 252.5 220.629 
251.43 223.211 249.57 225.07 c 247.711 226.93 245.129 228 242.5 228 c 239.871
 228 237.289 226.93 235.43 225.07 c 233.57 223.211 232.5 220.629 232.5 218
 c 232.5 215.371 233.57 212.789 235.43 210.93 c 237.289 209.07 239.871 208
 242.5 208 c 245.129 208 247.711 209.07 249.57 210.93 c h
249.57 210.93 m f
472.172 339.07 m 469.539 339.07 466.961 338 465.102 336.141 c 463.23 334.281
 462.172 331.699 462.172 329.07 c 462.172 326.43 463.23 323.859 465.102 
322 c 466.961 320.141 469.531 319.07 472.172 319.07 c 474.801 319.07 477.379
 320.141 479.238 322 c 481.102 323.859 482.172 326.441 482.172 329.07 c 
482.172 331.699 481.102 334.281 479.238 336.141 c 477.379 338 474.801 339.07
 472.172 339.07 c h
472.172 339.07 m f
Q Q
showpage
%%Trailer
end restore
%%EOF
