%!PS-Adobe-3.0 EPSF-3.0
%%Creator: cairo 1.14.2 (http://cairographics.org)
%%CreationDate: Mon Oct  8 09:05:15 2018
%%Pages: 1
%%DocumentData: Clean7Bit
%%LanguageLevel: 2
%%BoundingBox: 0 0 512 512
%%EndComments
%%BeginProlog
save
50 dict begin
/q { gsave } bind def
/Q { grestore } bind def
/cm { 6 array astore concat } bind def
/w { setlinewidth } bind def
/J { setlinecap } bind def
/j { setlinejoin } bind def
/M { setmiterlimit } bind def
/d { setdash } bind def
/m { moveto } bind def
/l { lineto } bind def
/c { curveto } bind def
/h { closepath } bind def
/re { exch dup neg 3 1 roll 5 3 roll moveto 0 rlineto
      0 exch rlineto 0 rlineto closepath } bind def
/S { stroke } bind def
/f { fill } bind def
/f* { eofill } bind def
/n { newpath } bind def
/W { clip } bind def
/W* { eoclip } bind def
/BT { } bind def
/ET { } bind def
/pdfmark where { pop globaldict /?pdfmark /exec load put }
    { globaldict begin /?pdfmark /pop load def /pdfmark
    /cleartomark load def end } ifelse
/BDC { mark 3 1 roll /BDC pdfmark } bind def
/EMC { mark /EMC pdfmark } bind def
/cairo_store_point { /cairo_point_y exch def /cairo_point_x exch def } def
/Tj { show currentpoint cairo_store_point } bind def
/TJ {
  {
    dup
    type /stringtype eq
    { show } { -0.001 mul 0 cairo_font_matrix dtransform rmoveto } ifelse
  } forall
  currentpoint cairo_store_point
} bind def
/cairo_selectfont { cairo_font_matrix aload pop pop pop 0 0 6 array astore
    cairo_font exch selectfont cairo_point_x cairo_point_y moveto } bind def
/Tf { pop /cairo_font exch def /cairo_font_matrix where
      { pop cairo_selectfont } if } bind def
/Td { matrix translate cairo_font_matrix matrix concatmatrix dup
      /cairo_font_matrix exch def dup 4 get exch 5 get cairo_store_point
      /cairo_font where { pop cairo_selectfont } if } bind def
/Tm { 2 copy 8 2 roll 6 array astore /cairo_font_matrix exch def
      cairo_store_point /cairo_font where { pop cairo_selectfont } if } bind def
/g { setgray } bind def
/rg { setrgbcolor } bind def
/d1 { setcachedevice } bind def
%%EndProlog
%%BeginSetup
%%EndSetup
%%Page: 1 1
%%BeginPageSetup
%%PageBoundingBox: 0 0 512 512
%%EndPageSetup
q 0 0 512 512 rectclip q
0 g
502 178 m 394 178 l 394 202 l 441.586 202 l 447.109 202 451.586 206.477
 451.586 212 c 451.586 217.523 447.109 222 441.586 222 c 394 222 l 394 246
 l 502 246 l 507.523 246 512 250.477 512 256 c 512 261.523 507.523 266 502
 266 c 394 266 l 394 341 l 394 359.746 378.746 375 360 375 c 342.699 375
 l 371.703 433.562 l 373.238 436.66 373.062 440.336 371.238 443.273 c 369.414
 446.211 366.199 448 362.742 448 c 333.129 448 l 333.129 480 l 333.129 485.523
 328.648 490 323.129 490 c 269.129 490 l 263.605 490 259.129 485.523 259.129
 480 c 259.129 448 l 249.5 448 l 249.5 502 l 249.5 507.523 245.023 512 239.5
 512 c 185.5 512 l 179.977 512 175.5 507.523 175.5 502 c 175.5 448 l 149.512
 448 l 146.055 448 142.84 446.211 141.016 443.273 c 139.191 440.336 139.016
 436.66 140.551 433.562 c 169.555 375 l 152 375 l 133.254 375 118 359.746
 118 341 c 118 266 l 10 266 l 4.477 266 0 261.523 0 256 c 0 250.477 4.477
 246 10 246 c 118 246 l 118 222 l 70.668 222 l 65.145 222 60.668 217.523
 60.668 212 c 60.668 206.477 65.145 202 70.668 202 c 118 202 l 118 178 l
 10 178 l 4.477 178 0 173.523 0 168 c 0 162.477 4.477 158 10 158 c 118 158
 l 118 157 l 118 138.254 133.254 123 152 123 c 162 123 l 162 73.086 l 140.359
 68.773 124 49.637 124 26.75 c 124 10 l 124 4.477 128.477 0 134 0 c 378 
0 l 383.523 0 388 4.477 388 10 c 388 26.75 l 388 49.637 371.641 68.773 350
 73.086 c 350 123 l 360 123 l 378.746 123 394 138.254 394 157 c 394 158 
l 502 158 l 507.523 158 512 162.477 512 168 c 512 173.523 507.523 178 502
 178 c h
279.129 470 m 313.129 470 l 313.129 448 l 279.129 448 l h
195.5 492 m 229.5 492 l 229.5 448 l 195.5 448 l h
165.625 428 m 346.629 428 l 320.383 375 l 191.871 375 l h
368 26.75 m 368 20 l 144 20 l 144 26.75 l 144 41.777 156.223 54 171.25 
54 c 340.75 54 l 355.777 54 368 41.777 368 26.75 c h
330 74 m 182 74 l 182 123 l 330 123 l h
374 157 m 374 149.281 367.719 143 360 143 c 152 143 l 144.281 143 138 149.281
 138 157 c 138 341 l 138 348.719 144.281 355 152 355 c 360 355 l 367.719
 355 374 348.719 374 341 c h
374 157 m f
335.961 314.707 m 304.406 314.707 l 300.277 326.348 289.164 334.707 276.125
 334.707 c 263.09 334.707 251.973 326.348 247.848 314.707 c 172 314.707 
l 166.477 314.707 162 310.23 162 304.707 c 162 299.184 166.477 294.707 172
 294.707 c 247.848 294.707 l 251.977 283.066 263.09 274.707 276.129 274.707
 c 289.164 274.707 300.277 283.066 304.406 294.707 c 335.961 294.707 l 341.484
 294.707 345.961 299.184 345.961 304.707 c 345.961 310.23 341.484 314.707
 335.961 314.707 c h
276.129 294.707 m 270.613 294.707 266.129 299.191 266.129 304.707 c 266.129
 310.223 270.613 314.707 276.129 314.707 c 281.641 314.707 286.129 310.223
 286.129 304.707 c 286.129 299.191 281.641 294.707 276.129 294.707 c h
276.129 294.707 m f
335.961 204.625 m 304.406 204.625 l 300.277 216.266 289.164 224.625 276.125
 224.625 c 263.09 224.625 251.973 216.266 247.848 204.625 c 172 204.625 
l 166.477 204.625 162 200.148 162 194.625 c 162 189.102 166.477 184.625 
172 184.625 c 247.848 184.625 l 251.977 172.984 263.09 164.625 276.129 164.625
 c 289.164 164.625 300.277 172.984 304.406 184.625 c 335.961 184.625 l 341.484
 184.625 345.961 189.102 345.961 194.625 c 345.961 200.148 341.484 204.625
 335.961 204.625 c h
276.129 184.625 m 270.613 184.625 266.129 189.109 266.129 194.625 c 266.129
 200.141 270.613 204.625 276.129 204.625 c 281.641 204.625 286.129 200.141
 286.129 194.625 c 286.129 189.109 281.641 184.625 276.129 184.625 c h
276.129 184.625 m f
343.031 242.59 m 344.891 244.449 345.961 247.031 345.961 249.672 c 345.961
 252.301 344.891 254.879 343.031 256.738 c 341.172 258.602 338.59 259.672
 335.961 259.672 c 333.328 259.672 330.75 258.602 328.891 256.738 c 327.031
 254.879 325.961 252.301 325.961 249.672 c 325.961 247.031 327.031 244.449
 328.891 242.59 c 330.75 240.73 333.328 239.672 335.961 239.672 c 338.59
 239.672 341.172 240.73 343.031 242.59 c h
343.031 242.59 m f
172 239.664 m 194.969 239.664 l 199.098 228.027 210.215 219.664 223.25 
219.664 c 236.285 219.664 247.402 228.027 251.531 239.664 c 301.336 239.664
 l 306.855 239.664 311.336 244.145 311.336 249.664 c 311.336 255.188 306.855
 259.664 301.336 259.664 c 251.531 259.664 l 247.402 271.305 236.285 279.664
 223.25 279.664 c 210.215 279.664 199.098 271.305 194.969 259.664 c 172 
259.664 l 166.477 259.664 162 255.188 162 249.664 c 162 244.145 166.477 
239.664 172 239.664 c h
223.25 259.664 m 228.766 259.664 233.25 255.18 233.25 249.664 c 233.25 
244.152 228.766 239.664 223.25 239.664 c 217.734 239.664 213.25 244.152 
213.25 249.664 c 213.25 255.18 217.734 259.664 223.25 259.664 c h
223.25 259.664 m f
44.07 204.93 m 45.93 206.789 47 209.371 47 212 c 47 214.629 45.93 217.211
 44.07 219.07 c 42.211 220.93 39.629 222 37 222 c 34.371 222 31.789 220.93
 29.93 219.07 c 28.07 217.211 27 214.629 27 212 c 27 209.371 28.07 206.789
 29.93 204.93 c 31.789 203.07 34.371 202 37 202 c 39.629 202 42.211 203.07
 44.07 204.93 c h
44.07 204.93 m f
468.18 219.07 m 466.32 217.211 465.25 214.629 465.25 212 c 465.25 209.371
 466.32 206.789 468.18 204.93 c 470.039 203.07 472.621 202 475.25 202 c 
477.891 202 480.461 203.07 482.328 204.93 c 484.191 206.789 485.25 209.371
 485.25 212 c 485.25 214.629 484.191 217.211 482.328 219.07 c 480.461 220.93
 477.891 222 475.25 222 c 472.621 222 470.039 220.93 468.18 219.07 c h
468.18 219.07 m f
Q Q
showpage
%%Trailer
end restore
%%EOF
