%!PS-Adobe-3.0 EPSF-3.0
%%Creator: cairo 1.14.2 (http://cairographics.org)
%%CreationDate: Mon Oct  8 09:05:15 2018
%%Pages: 1
%%DocumentData: Clean7Bit
%%LanguageLevel: 2
%%BoundingBox: 0 0 512 512
%%EndComments
%%BeginProlog
save
50 dict begin
/q { gsave } bind def
/Q { grestore } bind def
/cm { 6 array astore concat } bind def
/w { setlinewidth } bind def
/J { setlinecap } bind def
/j { setlinejoin } bind def
/M { setmiterlimit } bind def
/d { setdash } bind def
/m { moveto } bind def
/l { lineto } bind def
/c { curveto } bind def
/h { closepath } bind def
/re { exch dup neg 3 1 roll 5 3 roll moveto 0 rlineto
      0 exch rlineto 0 rlineto closepath } bind def
/S { stroke } bind def
/f { fill } bind def
/f* { eofill } bind def
/n { newpath } bind def
/W { clip } bind def
/W* { eoclip } bind def
/BT { } bind def
/ET { } bind def
/pdfmark where { pop globaldict /?pdfmark /exec load put }
    { globaldict begin /?pdfmark /pop load def /pdfmark
    /cleartomark load def end } ifelse
/BDC { mark 3 1 roll /BDC pdfmark } bind def
/EMC { mark /EMC pdfmark } bind def
/cairo_store_point { /cairo_point_y exch def /cairo_point_x exch def } def
/Tj { show currentpoint cairo_store_point } bind def
/TJ {
  {
    dup
    type /stringtype eq
    { show } { -0.001 mul 0 cairo_font_matrix dtransform rmoveto } ifelse
  } forall
  currentpoint cairo_store_point
} bind def
/cairo_selectfont { cairo_font_matrix aload pop pop pop 0 0 6 array astore
    cairo_font exch selectfont cairo_point_x cairo_point_y moveto } bind def
/Tf { pop /cairo_font exch def /cairo_font_matrix where
      { pop cairo_selectfont } if } bind def
/Td { matrix translate cairo_font_matrix matrix concatmatrix dup
      /cairo_font_matrix exch def dup 4 get exch 5 get cairo_store_point
      /cairo_font where { pop cairo_selectfont } if } bind def
/Tm { 2 copy 8 2 roll 6 array astore /cairo_font_matrix exch def
      cairo_store_point /cairo_font where { pop cairo_selectfont } if } bind def
/g { setgray } bind def
/rg { setrgbcolor } bind def
/d1 { setcachedevice } bind def
%%EndProlog
%%BeginSetup
%%EndSetup
%%Page: 1 1
%%BeginPageSetup
%%PageBoundingBox: 0 0 512 512
%%EndPageSetup
q 0 0 512 512 rectclip q
0 g
498.816 321.609 m 498.516 322.02 498.195 322.414 497.824 322.785 c 433.281
 387.328 l 429.379 391.234 423.047 391.234 419.141 387.328 c 415.234 383.422
 415.234 377.09 419.141 373.184 c 453.684 338.641 l 430.098 335.754 411.355
 317.016 408.461 293.434 c 293.785 408.109 l 296.129 408.863 l 318.434 412.805
 335.863 431.004 338.641 453.688 c 367.105 425.219 l 369.059 423.266 371.617
 422.289 374.176 422.289 c 376.734 422.289 379.297 423.266 381.246 425.219
 c 385.152 429.125 385.152 435.457 381.246 439.363 c 323.871 496.738 l 323.617
 496.992 323.352 497.227 323.078 497.449 c 313.734 506.449 301.039 512 287.07
 512 c 279.805 512 272.883 510.496 266.598 507.793 c 266.52 507.758 266.434
 507.734 266.355 507.695 c 266.355 507.695 136.004 449.84 133.16 448.148
 c 132.754 447.934 132.363 447.695 132 447.43 c 119.609 439.535 111.363 
425.684 111.363 409.934 c 111.363 388.867 126.102 371.191 145.805 366.645
 c 145.805 340.555 l 112.863 313.027 l 110.59 311.129 109.277 308.316 109.277
 305.355 c 109.277 291.477 l 109.277 288.824 110.332 286.281 112.207 284.406
 c 116.422 280.191 l 116.422 236.332 l 116.422 230.809 120.898 226.332 126.422
 226.332 c 184.52 226.332 l 190.043 226.332 194.52 230.809 194.52 236.332
 c 194.52 279.523 l 199.402 284.406 l 201.277 286.281 202.332 288.824 202.332
 291.477 c 202.332 305.352 l 202.332 308.316 201.02 311.125 198.746 313.027
 c 165.805 340.555 l 165.805 366.641 l 168.82 367.34 171.719 368.34 174.465
 369.613 c 272.402 401.207 l 408.059 265.551 l 408.059 20 l 315.805 20 l
 315.805 150.777 l 363.527 217.164 l 365.719 220.211 366.02 224.223 364.309
 227.562 c 362.598 230.898 359.16 233 355.41 233 c 205.41 233 l 202.191 
233 199.168 231.449 197.289 228.836 c 155.805 171.133 l 114.324 228.836 
l 112.445 231.449 109.422 233 106.203 233 c 10.203 233 l 6.453 233 3.016
 230.898 1.305 227.562 c -0.406 224.223 -0.105 220.207 2.086 217.164 c 49.809
 150.777 l 49.809 20 l 10 20 l 4.477 20 0 15.523 0 10 c 0 4.477 4.477 0 
10 0 c 502 0 l 507.523 0 512 4.477 512 10 c 512 287.07 l 512 300.32 507.008
 312.422 498.816 321.609 c h
319.039 460.027 m 319.039 442.398 304.699 428.059 287.07 428.059 c 269.441
 428.059 255.098 442.398 255.098 460.027 c 255.098 477.656 269.441 492 287.07
 492 c 304.699 492 319.039 477.656 319.039 460.027 c h
131.363 409.934 m 131.363 418.59 135.895 426.203 142.703 430.547 c 149.246
 433.469 l 151.336 434.055 153.531 434.371 155.805 434.371 c 169.277 434.371
 180.242 423.406 180.242 409.934 c 180.242 396.457 169.277 385.496 155.805
 385.496 c 142.328 385.496 131.363 396.457 131.363 409.934 c h
174.52 246.332 m 136.422 246.332 l 136.422 273.664 l 174.52 273.664 l h
182.328 295.621 m 180.375 293.664 l 131.23 293.664 l 129.277 295.621 l 
129.277 300.68 l 155.805 322.848 l 182.328 300.68 l h
198.73 398.461 m 199.711 402.121 200.242 405.965 200.242 409.934 c 200.242
 425.527 192.156 439.266 179.969 447.195 c 236.621 472.508 l 235.633 468.508
 235.098 464.332 235.098 460.031 c 235.098 445.742 240.895 432.785 250.258
 423.383 c 250.348 423.281 250.434 423.176 250.531 423.078 c 256.512 417.102
 l h
460.027 319.039 m 477.656 319.039 492 304.699 492 287.07 c 492 269.441 
477.656 255.098 460.027 255.098 c 442.398 255.098 428.059 269.441 428.059
 287.07 c 428.059 304.699 442.398 319.039 460.027 319.039 c h
428.059 246.141 m 436.883 239.23 447.977 235.098 460.027 235.098 c 472.078
 235.098 483.176 239.23 492 246.141 c 492 20 l 428.059 20 l h
210.531 213 m 335.902 213 l 300.676 164 l 175.309 164 l h
101.074 213 m 136.297 164 l 64.93 164 l 29.703 213 l h
69.805 144 m 145.805 144 l 145.805 20 l 69.805 20 l h
275.832 20 m 275.832 57.5 l 275.832 63.023 271.355 67.5 265.832 67.5 c 
260.309 67.5 255.832 63.023 255.832 57.5 c 255.832 20 l 165.801 20 l 165.801
 144 l 295.801 144 l 295.801 20 l h
275.832 20 m f
400.73 395.73 m 403.371 395.73 405.941 396.801 407.809 398.66 c 409.672
 400.52 410.738 403.102 410.738 405.73 c 410.738 408.371 409.672 410.941
 407.809 412.801 c 405.941 414.672 403.371 415.73 400.73 415.73 c 398.102
 415.73 395.531 414.672 393.66 412.801 c 391.801 410.941 390.73 408.371 
390.73 405.73 c 390.73 403.102 391.801 400.52 393.66 398.66 c 395.531 396.801
 398.102 395.73 400.73 395.73 c h
400.73 395.73 m f
165.801 409.93 m 165.801 412.559 164.73 415.141 162.871 417 c 161.012 418.859
 158.441 419.93 155.801 419.93 c 153.172 419.93 150.59 418.859 148.73 417
 c 146.871 415.141 145.801 412.559 145.801 409.93 c 145.801 407.301 146.871
 404.719 148.73 402.859 c 150.59 401 153.172 399.93 155.801 399.93 c 158.441
 399.93 161.012 401 162.871 402.859 c 164.73 404.719 165.801 407.301 165.801
 409.93 c h
165.801 409.93 m f
287.07 450.031 m 289.699 450.031 292.281 451.102 294.141 452.961 c 296 
454.82 297.07 457.398 297.07 460.031 c 297.07 462.66 296 465.238 294.141
 467.102 c 292.281 468.961 289.699 470.031 287.07 470.031 c 284.441 470.031
 281.859 468.961 280 467.102 c 278.141 465.238 277.07 462.66 277.07 460.031
 c 277.07 457.398 278.141 454.82 280 452.961 c 281.859 451.102 284.441 450.031
 287.07 450.031 c h
287.07 450.031 m f
460.031 277.07 m 462.66 277.07 465.238 278.141 467.102 280 c 468.961 281.859
 470.031 284.441 470.031 287.07 c 470.031 289.699 468.961 292.281 467.102
 294.141 c 465.238 296 462.66 297.07 460.031 297.07 c 457.398 297.07 454.82
 296 452.961 294.141 c 451.102 292.281 450.031 289.699 450.031 287.07 c 
450.031 284.441 451.102 281.859 452.961 280 c 454.82 278.141 457.391 277.07
 460.031 277.07 c h
460.031 277.07 m f
265.832 104.863 m 260.309 104.863 255.832 100.387 255.832 94.863 c 255.832
 93.723 l 255.832 88.199 260.309 83.723 265.832 83.723 c 271.355 83.723 
275.832 88.199 275.832 93.723 c 275.832 94.863 l 275.832 100.387 271.355
 104.863 265.832 104.863 c h
265.832 104.863 m f
Q Q
showpage
%%Trailer
end restore
%%EOF
