%!PS-Adobe-3.0 EPSF-3.0
%%Creator: cairo 1.14.2 (http://cairographics.org)
%%CreationDate: Mon Oct  8 09:05:15 2018
%%Pages: 1
%%DocumentData: Clean7Bit
%%LanguageLevel: 2
%%BoundingBox: 0 0 512 512
%%EndComments
%%BeginProlog
save
50 dict begin
/q { gsave } bind def
/Q { grestore } bind def
/cm { 6 array astore concat } bind def
/w { setlinewidth } bind def
/J { setlinecap } bind def
/j { setlinejoin } bind def
/M { setmiterlimit } bind def
/d { setdash } bind def
/m { moveto } bind def
/l { lineto } bind def
/c { curveto } bind def
/h { closepath } bind def
/re { exch dup neg 3 1 roll 5 3 roll moveto 0 rlineto
      0 exch rlineto 0 rlineto closepath } bind def
/S { stroke } bind def
/f { fill } bind def
/f* { eofill } bind def
/n { newpath } bind def
/W { clip } bind def
/W* { eoclip } bind def
/BT { } bind def
/ET { } bind def
/pdfmark where { pop globaldict /?pdfmark /exec load put }
    { globaldict begin /?pdfmark /pop load def /pdfmark
    /cleartomark load def end } ifelse
/BDC { mark 3 1 roll /BDC pdfmark } bind def
/EMC { mark /EMC pdfmark } bind def
/cairo_store_point { /cairo_point_y exch def /cairo_point_x exch def } def
/Tj { show currentpoint cairo_store_point } bind def
/TJ {
  {
    dup
    type /stringtype eq
    { show } { -0.001 mul 0 cairo_font_matrix dtransform rmoveto } ifelse
  } forall
  currentpoint cairo_store_point
} bind def
/cairo_selectfont { cairo_font_matrix aload pop pop pop 0 0 6 array astore
    cairo_font exch selectfont cairo_point_x cairo_point_y moveto } bind def
/Tf { pop /cairo_font exch def /cairo_font_matrix where
      { pop cairo_selectfont } if } bind def
/Td { matrix translate cairo_font_matrix matrix concatmatrix dup
      /cairo_font_matrix exch def dup 4 get exch 5 get cairo_store_point
      /cairo_font where { pop cairo_selectfont } if } bind def
/Tm { 2 copy 8 2 roll 6 array astore /cairo_font_matrix exch def
      cairo_store_point /cairo_font where { pop cairo_selectfont } if } bind def
/g { setgray } bind def
/rg { setrgbcolor } bind def
/d1 { setcachedevice } bind def
%%EndProlog
%%BeginSetup
%%EndSetup
%%Page: 1 1
%%BeginPageSetup
%%PageBoundingBox: 0 0 512 512
%%EndPageSetup
q 0 0 512 512 rectclip q
0 g
512 482 m 512 498.543 498.543 512 482 512 c 174 512 l 157.457 512 144 498.543
 144 482 c 144 302.273 l 110.125 297.406 84 268.203 84 233 c 84 189.918 
l 84 170.344 92.086 152.633 105.078 139.918 c 71.332 139.918 l 32 139.918
 0 107.918 0 68.582 c 0 10 l 0 4.477 4.477 0 10 0 c 298 0 l 303.523 0 308
 4.477 308 10 c 308 68.582 l 308 107.914 276 139.914 236.668 139.914 c 202.922
 139.914 l 215.914 152.633 224 170.344 224 189.914 c 224 212 l 289.535 212
 l 289.34 211.66 l 288.012 209.363 287.652 206.637 288.34 204.074 c 289.027
 201.512 290.703 199.328 293 198 c 310.09 188.133 l 309.629 184.406 309.395
 180.645 309.395 176.883 c 309.395 173.121 309.629 169.359 310.09 165.633
 c 293 155.766 l 290.703 154.441 289.027 152.258 288.34 149.695 c 287.652
 147.133 288.016 144.402 289.34 142.105 c 314.488 98.547 l 317.25 93.762
 323.367 92.125 328.148 94.887 c 345.242 104.754 l 351.262 100.18 357.777
 96.41 364.727 93.488 c 364.727 73.77 l 364.727 68.246 369.203 63.77 374.727
 63.77 c 425.023 63.77 l 430.547 63.77 435.023 68.246 435.023 73.77 c 435.023
 93.488 l 441.973 96.41 448.488 100.18 454.508 104.754 c 471.602 94.887 
l 476.383 92.121 482.5 93.762 485.262 98.547 c 510.41 142.105 l 511.734 
144.402 512.098 147.133 511.41 149.695 c 510.723 152.258 509.047 154.441
 506.75 155.766 c 489.656 165.637 l 490.121 169.359 490.355 173.121 490.355
 176.883 c 490.355 180.645 490.121 184.406 489.656 188.133 c 506.75 198.004
 l 509.047 199.328 510.723 201.512 511.41 204.074 c 512.098 206.637 511.734
 209.367 510.41 211.66 c 504.406 222.059 l 509.246 227.488 512 234.555 512
 242 c h
154 283 m 179.309 283 200.289 264.098 203.559 239.668 c 104.441 239.668
 l 107.711 264.098 128.691 283 154 283 c h
201.594 219.668 m 197.945 212.551 190.531 207.668 182 207.668 c 126 207.668
 l 117.469 207.668 110.055 212.551 106.406 219.668 c h
115.445 119.918 m 139.859 95.504 l 118.746 74.395 l 73.227 119.918 l h
234.773 119.918 m 189.254 74.395 l 168.141 95.504 l 192.555 119.918 l h
164.27 119.918 m 154 109.645 l 143.73 119.918 l h
288 68.582 m 288 20 l 20 20 l 20 68.582 l 20 89.172 32.191 106.957 49.727
 115.133 c 111.676 53.18 l 113.629 51.227 116.188 50.25 118.746 50.25 c 
121.309 50.25 123.867 51.227 125.82 53.18 c 154 81.359 l 182.18 53.18 l 
184.133 51.227 186.691 50.25 189.254 50.25 c 191.812 50.25 194.371 51.227
 196.324 53.18 c 258.273 115.133 l 275.809 106.957 288 89.172 288 68.582
 c h
154 139.918 m 126.43 139.918 104 162.348 104 189.918 c 104 193.91 l 110.402
 189.953 117.938 187.668 126 187.668 c 182 187.668 l 190.062 187.668 197.598
 189.953 204 193.91 c 204 189.918 l 204 162.348 181.57 139.918 154 139.918
 c h
468.879 191.301 m 469.859 186.586 470.355 181.734 470.355 176.883 c 470.355
 172.031 469.859 167.184 468.879 162.469 c 468.004 158.242 469.934 153.93
 473.672 151.773 c 488.094 143.445 l 472.941 117.207 l 458.504 125.539 l
 454.762 127.703 450.059 127.215 446.84 124.336 c 439.539 117.809 431.152
 112.957 421.902 109.918 c 417.801 108.57 415.027 104.738 415.027 100.418
 c 415.027 83.77 l 384.727 83.77 l 384.727 100.418 l 384.727 104.738 381.953
 108.57 377.848 109.918 c 368.602 112.957 360.211 117.809 352.914 124.336
 c 349.695 127.215 344.988 127.703 341.246 125.539 c 326.809 117.207 l 311.66
 143.445 l 326.082 151.773 l 329.816 153.93 331.75 158.242 330.871 162.469
 c 329.891 167.184 329.395 172.031 329.395 176.883 c 329.395 181.734 329.891
 186.586 330.871 191.301 c 331.75 195.527 329.816 199.84 326.082 201.996
 c 311.66 210.32 l 326.809 236.562 l 341.246 228.227 l 344.988 226.066 349.691
 226.555 352.914 229.434 c 360.211 235.961 368.602 240.812 377.848 243.852
 c 381.953 245.199 384.727 249.031 384.727 253.352 c 384.727 270 l 415.027
 270 l 415.027 253.352 l 415.027 249.031 417.801 245.199 421.902 243.852
 c 431.152 240.812 439.539 235.961 446.84 229.434 c 450.059 226.555 454.762
 226.066 458.504 228.227 c 472.941 236.562 l 488.094 210.32 l 473.672 201.996
 l 469.934 199.84 468.004 195.527 468.879 191.301 c h
485.262 255.223 m 482.5 260.008 476.383 261.645 471.602 258.883 c 454.508
 249.016 l 448.492 253.586 441.973 257.355 435.027 260.277 c 435.027 270
 l 450.949 270 l 456.473 270 460.949 274.477 460.949 280 c 460.949 285.523
 456.473 290 450.949 290 c 286.824 290 l 281.301 290 276.824 285.523 276.824
 280 c 276.824 274.477 281.301 270 286.824 270 c 364.727 270 l 364.727 260.277
 l 357.777 257.355 351.262 253.586 345.242 249.016 c 328.152 258.883 l 323.367
 261.645 317.254 260.008 314.492 255.223 c 301.082 232 l 224 232 l 224 233
 l 224 268.203 197.875 297.406 164 302.273 c 164 482 l 164 487.516 168.484
 492 174 492 c 482 492 l 487.516 492 492 487.516 492 482 c 492 243.551 l
 h
485.262 255.223 m f
256 60 m 232.5 60 l 226.977 60 222.5 55.523 222.5 50 c 222.5 44.477 226.977
 40 232.5 40 c 256 40 l 261.523 40 266 44.477 266 50 c 266 55.523 261.523
 60 256 60 c h
256 60 m f
207.824 438 m 242.492 438 l 248.016 438 252.492 442.477 252.492 448 c 252.492
 453.523 248.016 458 242.492 458 c 207.824 458 l 202.301 458 197.824 453.523
 197.824 448 c 197.824 442.477 202.301 438 207.824 438 c h
207.824 438 m f
309.824 392 m 309.824 397.523 305.348 402 299.824 402 c 207.824 402 l 202.301
 402 197.824 397.523 197.824 392 c 197.824 386.477 202.301 382 207.824 382
 c 299.824 382 l 305.348 382 309.824 386.477 309.824 392 c h
309.824 392 m f
271 346 m 207.824 346 l 202.301 346 197.824 341.523 197.824 336 c 197.824
 330.477 202.301 326 207.824 326 c 271 326 l 276.523 326 281 330.477 281
 336 c 281 341.523 276.523 346 271 346 c h
271 346 m f
247 290 m 244.371 290 241.789 288.93 239.93 287.07 c 238.07 285.211 237
 282.629 237 280 c 237 277.371 238.07 274.789 239.93 272.93 c 241.789 271.07
 244.371 270 247 270 c 249.629 270 252.211 271.07 254.07 272.93 c 255.93
 274.789 257 277.371 257 280 c 257 282.629 255.93 285.211 254.07 287.07 
c 252.211 288.93 249.629 290 247 290 c h
247 290 m f
445.473 458 m 286.824 458 l 281.301 458 276.824 453.523 276.824 448 c 276.824
 442.477 281.301 438 286.824 438 c 445.473 438 l 450.996 438 455.473 442.477
 455.473 448 c 455.473 453.523 450.996 458 445.473 458 c h
445.473 458 m f
445.473 402 m 346.125 402 l 340.602 402 336.125 397.523 336.125 392 c 336.125
 386.477 340.602 382 346.125 382 c 445.473 382 l 450.996 382 455.473 386.477
 455.473 392 c 455.473 397.523 450.996 402 445.473 402 c h
445.473 402 m f
445.473 346 m 394.156 346 l 388.637 346 384.156 341.523 384.156 336 c 384.156
 330.477 388.637 326 394.156 326 c 445.473 326 l 450.996 326 455.473 330.477
 455.473 336 c 455.473 341.523 450.996 346 445.473 346 c h
445.473 346 m f
346.125 346 m 313.656 346 l 308.133 346 303.656 341.523 303.656 336 c 303.656
 330.477 308.133 326 313.656 326 c 346.125 326 l 351.648 326 356.125 330.477
 356.125 336 c 356.125 341.523 351.648 346 346.125 346 c h
346.125 346 m f
399.875 223.016 m 374.438 223.016 353.746 202.32 353.746 176.883 c 353.746
 151.445 374.438 130.754 399.875 130.754 c 425.312 130.754 446.008 151.445
 446.008 176.883 c 446.008 202.32 425.312 223.016 399.875 223.016 c h
399.875 150.754 m 385.469 150.754 373.746 162.477 373.746 176.883 c 373.746
 191.293 385.469 203.016 399.875 203.016 c 414.285 203.016 426.008 191.293
 426.008 176.883 c 426.008 162.477 414.285 150.754 399.875 150.754 c h
399.875 150.754 m f
Q Q
showpage
%%Trailer
end restore
%%EOF
