%!PS-Adobe-3.0 EPSF-3.0
%%Creator: cairo 1.14.2 (http://cairographics.org)
%%CreationDate: Mon Oct  8 09:05:15 2018
%%Pages: 1
%%DocumentData: Clean7Bit
%%LanguageLevel: 2
%%BoundingBox: 0 0 512 512
%%EndComments
%%BeginProlog
save
50 dict begin
/q { gsave } bind def
/Q { grestore } bind def
/cm { 6 array astore concat } bind def
/w { setlinewidth } bind def
/J { setlinecap } bind def
/j { setlinejoin } bind def
/M { setmiterlimit } bind def
/d { setdash } bind def
/m { moveto } bind def
/l { lineto } bind def
/c { curveto } bind def
/h { closepath } bind def
/re { exch dup neg 3 1 roll 5 3 roll moveto 0 rlineto
      0 exch rlineto 0 rlineto closepath } bind def
/S { stroke } bind def
/f { fill } bind def
/f* { eofill } bind def
/n { newpath } bind def
/W { clip } bind def
/W* { eoclip } bind def
/BT { } bind def
/ET { } bind def
/pdfmark where { pop globaldict /?pdfmark /exec load put }
    { globaldict begin /?pdfmark /pop load def /pdfmark
    /cleartomark load def end } ifelse
/BDC { mark 3 1 roll /BDC pdfmark } bind def
/EMC { mark /EMC pdfmark } bind def
/cairo_store_point { /cairo_point_y exch def /cairo_point_x exch def } def
/Tj { show currentpoint cairo_store_point } bind def
/TJ {
  {
    dup
    type /stringtype eq
    { show } { -0.001 mul 0 cairo_font_matrix dtransform rmoveto } ifelse
  } forall
  currentpoint cairo_store_point
} bind def
/cairo_selectfont { cairo_font_matrix aload pop pop pop 0 0 6 array astore
    cairo_font exch selectfont cairo_point_x cairo_point_y moveto } bind def
/Tf { pop /cairo_font exch def /cairo_font_matrix where
      { pop cairo_selectfont } if } bind def
/Td { matrix translate cairo_font_matrix matrix concatmatrix dup
      /cairo_font_matrix exch def dup 4 get exch 5 get cairo_store_point
      /cairo_font where { pop cairo_selectfont } if } bind def
/Tm { 2 copy 8 2 roll 6 array astore /cairo_font_matrix exch def
      cairo_store_point /cairo_font where { pop cairo_selectfont } if } bind def
/g { setgray } bind def
/rg { setrgbcolor } bind def
/d1 { setcachedevice } bind def
%%EndProlog
%%BeginSetup
%%EndSetup
%%Page: 1 1
%%BeginPageSetup
%%PageBoundingBox: 0 0 512 512
%%EndPageSetup
q 0 0 512 512 rectclip q
0 g
501.008 233 m 384.602 233 l 381.383 233 378.363 231.449 376.484 228.836
 c 335 171.133 l 293.516 228.836 l 291.637 231.449 288.617 233 285.398 233
 c 155.805 233 l 152.051 233 148.617 230.898 146.906 227.562 c 145.191 224.223
 145.492 220.207 147.684 217.164 c 195.406 150.777 l 195.406 10 l 195.406
 4.477 199.883 0 205.406 0 c 451.406 0 l 456.93 0 461.406 4.477 461.406 
10 c 461.406 150.777 l 509.129 217.164 l 511.32 220.211 511.621 224.223 
509.91 227.562 c 508.195 230.898 504.762 233 501.008 233 c h
280.27 213 m 315.496 164 l 210.531 164 l 175.309 213 l h
215.406 144 m 325 144 l 325 20 l 215.406 20 l h
441.406 20 m 421.5 20 l 421.5 64.668 l 421.5 70.191 417.023 74.668 411.5
 74.668 c 405.977 74.668 401.5 70.191 401.5 64.668 c 401.5 20 l 345 20 l
 345 144 l 441.406 144 l h
446.277 164 m 354.504 164 l 389.73 213 l 481.504 213 l h
446.277 164 m f
266.043 330 m 266.043 347.578 256.129 362.875 241.602 370.617 c 247.238
 376.254 l 249.113 378.129 250.168 380.676 250.168 383.324 c 250.168 484.672
 l 250.168 487.324 249.113 489.867 247.238 491.742 c 229.914 509.07 l 228.039
 510.945 225.492 512 222.844 512 c 173.496 512 l 170.844 512 168.301 510.945
 166.426 509.07 c 149.098 491.746 l 147.223 489.871 146.168 487.324 146.168
 484.676 c 146.168 383.328 l 146.168 380.676 147.223 378.133 149.098 376.258
 c 149.352 376 l 116.816 376 l 117.07 376.258 l 118.945 378.133 120 380.676
 120 383.328 c 120 484.672 l 120 487.324 118.945 489.867 117.07 491.742 
c 99.746 509.07 l 97.867 510.945 95.324 512 92.672 512 c 43.328 512 l 40.676
 512 38.133 510.945 36.258 509.07 c 18.93 491.746 l 17.055 489.867 16 487.324
 16 484.672 c 16 383.324 l 16 380.676 17.055 378.129 18.93 376.254 c 19.184
 376 l 10 376 l 4.477 376 0 371.523 0 366 c 0 360.477 4.477 356 10 356 c
 220.043 356 l 234.379 356 246.043 344.336 246.043 330 c 246.043 315.664
 234.379 304 220.043 304 c 10 304 l 4.477 304 0 299.523 0 294 c 0 288.477
 4.477 284 10 284 c 220.043 284 l 245.406 284 266.043 304.637 266.043 330
 c h
47.469 376 m 36 387.469 l 36 480.531 l 47.469 492 l 88.531 492 l 100 480.531
 l 100 387.469 l 88.531 376 l h
177.637 376 m 166.168 387.469 l 166.168 480.531 l 177.637 492 l 218.699
 492 l 230.168 480.531 l 230.168 387.469 l 218.699 376 l h
177.637 376 m f
10 320 m 176.543 320 l 182.066 320 186.543 324.477 186.543 330 c 186.543
 335.523 182.066 340 176.543 340 c 10 340 l 4.477 340 0 335.523 0 330 c 
0 324.477 4.477 320 10 320 c h
10 320 m f
225.109 322.93 m 226.969 324.789 228.039 327.371 228.039 330 c 228.039 
332.629 226.969 335.211 225.109 337.07 c 223.25 338.93 220.672 340 218.039
 340 c 215.41 340 212.828 338.93 210.969 337.07 c 209.109 335.211 208.039
 332.629 208.039 330 c 208.039 327.371 209.109 324.789 210.969 322.93 c 
212.828 321.07 215.41 320 218.039 320 c 220.672 320 223.25 321.07 225.109
 322.93 c h
225.109 322.93 m f
68 458.668 m 54.398 458.668 43.332 447.602 43.332 434 c 43.332 420.398 
54.398 409.332 68 409.332 c 81.602 409.332 92.668 420.398 92.668 434 c 92.668
 447.602 81.602 458.668 68 458.668 c h
68 429.332 m 65.426 429.332 63.332 431.426 63.332 434 c 63.332 436.574 
65.426 438.668 68 438.668 c 70.574 438.668 72.668 436.574 72.668 434 c 72.668
 431.426 70.574 429.332 68 429.332 c h
68 429.332 m f
198.168 458.668 m 184.566 458.668 173.5 447.602 173.5 434 c 173.5 420.398
 184.566 409.332 198.168 409.332 c 211.77 409.332 222.836 420.398 222.836
 434 c 222.836 447.602 211.77 458.668 198.168 458.668 c h
198.168 429.332 m 195.594 429.332 193.5 431.426 193.5 434 c 193.5 436.574
 195.594 438.668 198.168 438.668 c 200.742 438.668 202.836 436.574 202.836
 434 c 202.836 431.426 200.742 429.332 198.168 429.332 c h
198.168 429.332 m f
502 459.387 m 382.566 459.387 l 384.289 463.723 385.25 468.445 385.25 473.387
 c 385.25 478.324 384.316 483.043 382.637 487.387 c 502 487.387 l 507.523
 487.387 512 491.863 512 497.387 c 512 502.91 507.523 507.387 502 507.387
 c 365.059 507.387 l 359.742 510.258 353.684 511.891 347.25 511.891 c 326.297
 511.891 309.25 494.617 309.25 473.387 c 309.25 462.039 314.258 451.848 
322.168 444.879 c 322.168 417.84 l 288.57 384.215 l 285.445 381.086 284.746
 376.277 286.852 372.387 c 303.02 342.492 l 304.828 339.148 308.27 337.246
 311.824 337.246 c 313.43 337.246 315.062 337.637 316.574 338.453 c 321.434
 341.082 323.238 347.148 320.613 352.008 c 307.988 375.348 l 334.859 402.242
 l 359.641 402.242 l 386.512 375.348 l 373.887 352.008 l 371.262 347.148
 373.07 341.082 377.926 338.453 c 379.438 337.637 381.07 337.246 382.676
 337.246 c 386.23 337.246 389.672 339.148 391.48 342.492 c 407.648 372.387
 l 409.754 376.277 409.055 381.086 405.93 384.215 c 372.336 417.84 l 372.336
 439.387 l 502 439.387 l 507.523 439.387 512 443.863 512 449.387 c 512 454.91
 507.523 459.387 502 459.387 c h
347.25 491.891 m 357.008 491.891 365.25 483.418 365.25 473.387 c 365.25
 463.461 357.176 455.387 347.25 455.387 c 337.324 455.387 329.25 463.461
 329.25 473.387 c 329.25 483.418 337.492 491.891 347.25 491.891 c h
342.168 422.246 m 342.168 435.738 l 343.832 435.512 345.527 435.387 347.25
 435.387 c 348.977 435.387 350.668 435.512 352.332 435.738 c 352.332 422.246
 l h
342.168 422.246 m f
411.5 91.328 m 414.129 91.328 416.711 92.398 418.57 94.262 c 420.43 96.121
 421.5 98.699 421.5 101.328 c 421.5 103.969 420.43 106.539 418.57 108.398
 c 416.711 110.27 414.129 111.328 411.5 111.328 c 408.871 111.328 406.289
 110.27 404.43 108.398 c 402.57 106.539 401.5 103.969 401.5 101.328 c 401.5
 98.699 402.57 96.121 404.43 94.262 c 406.289 92.398 408.871 91.328 411.5
 91.328 c h
411.5 91.328 m f
Q Q
showpage
%%Trailer
end restore
%%EOF
