%!PS-Adobe-3.0 EPSF-3.0
%%Creator: cairo 1.14.2 (http://cairographics.org)
%%CreationDate: Mon Oct  8 09:05:15 2018
%%Pages: 1
%%DocumentData: Clean7Bit
%%LanguageLevel: 2
%%BoundingBox: 0 27 512 485
%%EndComments
%%BeginProlog
save
50 dict begin
/q { gsave } bind def
/Q { grestore } bind def
/cm { 6 array astore concat } bind def
/w { setlinewidth } bind def
/J { setlinecap } bind def
/j { setlinejoin } bind def
/M { setmiterlimit } bind def
/d { setdash } bind def
/m { moveto } bind def
/l { lineto } bind def
/c { curveto } bind def
/h { closepath } bind def
/re { exch dup neg 3 1 roll 5 3 roll moveto 0 rlineto
      0 exch rlineto 0 rlineto closepath } bind def
/S { stroke } bind def
/f { fill } bind def
/f* { eofill } bind def
/n { newpath } bind def
/W { clip } bind def
/W* { eoclip } bind def
/BT { } bind def
/ET { } bind def
/pdfmark where { pop globaldict /?pdfmark /exec load put }
    { globaldict begin /?pdfmark /pop load def /pdfmark
    /cleartomark load def end } ifelse
/BDC { mark 3 1 roll /BDC pdfmark } bind def
/EMC { mark /EMC pdfmark } bind def
/cairo_store_point { /cairo_point_y exch def /cairo_point_x exch def } def
/Tj { show currentpoint cairo_store_point } bind def
/TJ {
  {
    dup
    type /stringtype eq
    { show } { -0.001 mul 0 cairo_font_matrix dtransform rmoveto } ifelse
  } forall
  currentpoint cairo_store_point
} bind def
/cairo_selectfont { cairo_font_matrix aload pop pop pop 0 0 6 array astore
    cairo_font exch selectfont cairo_point_x cairo_point_y moveto } bind def
/Tf { pop /cairo_font exch def /cairo_font_matrix where
      { pop cairo_selectfont } if } bind def
/Td { matrix translate cairo_font_matrix matrix concatmatrix dup
      /cairo_font_matrix exch def dup 4 get exch 5 get cairo_store_point
      /cairo_font where { pop cairo_selectfont } if } bind def
/Tm { 2 copy 8 2 roll 6 array astore /cairo_font_matrix exch def
      cairo_store_point /cairo_font where { pop cairo_selectfont } if } bind def
/g { setgray } bind def
/rg { setrgbcolor } bind def
/d1 { setcachedevice } bind def
%%EndProlog
%%BeginSetup
%%EndSetup
%%Page: 1 1
%%BeginPageSetup
%%PageBoundingBox: 0 27 512 485
%%EndPageSetup
q 0 27 512 458 rectclip q
0 g
170 262 m 167.371 262 164.789 260.93 162.93 259.07 c 161.07 257.211 160
 254.629 160 252 c 160 249.371 161.07 246.789 162.93 244.93 c 164.789 243.07
 167.371 242 170 242 c 172.629 242 175.211 243.07 177.07 244.93 c 178.93
 246.789 180 249.371 180 252 c 180 254.629 178.93 257.211 177.07 259.07 
c 175.211 260.93 172.629 262 170 262 c h
170 262 m f
497.938 243.043 m 497.938 259.5 l 497.938 265.023 493.461 269.5 487.938
 269.5 c 440 269.5 l 434.477 269.5 430 265.023 430 259.5 c 430 242.969 l
 421.059 232.742 416 219.414 416 205.77 c 416 101 l 388 101 l 388 205.77
 l 388 219.445 382.918 232.805 373.938 243.043 c 373.938 259.5 l 373.938
 265.023 369.461 269.5 363.938 269.5 c 316 269.5 l 310.477 269.5 306 265.023
 306 259.5 c 306 242.969 l 297.059 232.742 292 219.414 292 205.77 c 292 
101 l 251.977 101 l 251.438 128.66 228.785 151 201 151 c 180 151 l 180 212.5
 l 180 218.023 175.523 222.5 170 222.5 c 164.477 222.5 160 218.023 160 212.5
 c 160 151 l 92 151 l 92 371.191 l 101.77 364.758 113.453 361 126 361 c 
138.547 361 150.23 364.758 160 371.191 c 160 294 l 160 288.477 164.477 284
 170 284 c 175.523 284 180 288.477 180 294 c 180 377 l 304 377 l 304 371
 l 304 368.984 304.609 367.016 305.746 365.352 c 330 329.906 l 330 300 l
 330 294.477 334.477 290 340 290 c 345.523 290 350 294.477 350 300 c 350
 329.906 l 374.254 365.352 l 375.391 367.016 376 368.984 376 371 c 376 459
 l 376 464.523 371.523 469 366 469 c 170 469 l 169.242 469 168.508 468.906
 167.797 468.75 c 156.766 478.836 142.09 485 126 485 c 91.812 485 64 457.188
 64 423 c 64 411.953 66.918 401.586 72 392.594 c 72 151 l 51 151 l 22.879
 151 0 128.121 0 100 c 0 37 l 0 31.477 4.477 27 10 27 c 502 27 l 507.523
 27 512 31.477 512 37 c 512 205.77 l 512 219.445 506.918 232.805 497.938
 243.043 c h
356 374.094 m 340 350.711 l 324 374.094 l 324 449 l 356 449 l h
304 397 m 182.266 397 l 185.938 404.914 188 413.719 188 423 c 188 432.281
 185.938 441.086 182.266 449 c 304 449 l h
126 465 m 149.16 465 168 446.16 168 423 c 168 399.84 149.16 381 126 381
 c 102.84 381 84 399.84 84 423 c 84 446.16 102.84 465 126 465 c h
446.984 231.844 m 448.914 233.727 450 236.305 450 239 c 450 249.5 l 477.938
 249.5 l 477.938 239 l 477.938 235.891 479.355 233.113 481.582 231.281 c
 487.742 224.992 491.441 216.562 491.938 207.789 c 486.938 206.512 477.996
 205.496 469.207 210.852 c 457.535 217.969 446.047 217.578 437.289 215.285
 c 438.988 221.523 442.316 227.285 446.984 231.844 c h
436 193.555 m 440.336 195.816 449.688 199.328 458.797 193.777 c 467.566
 188.43 476.309 186.77 483.781 186.77 c 486.746 186.77 489.512 187.031 492
 187.426 c 492 101 l 436 101 l h
312 205.77 m 312 215.523 316.004 225.027 322.984 231.844 c 324.914 233.727
 326 236.309 326 239 c 326 249.5 l 353.938 249.5 l 353.938 239 l 353.938
 235.891 355.355 233.113 357.582 231.281 c 364.215 224.508 368 215.258 368
 205.77 c 368 101 l 312 101 l h
20 100 m 20 117.094 33.906 131 51 131 c 201 131 l 218.094 131 232 117.094
 232 100 c 232 47 l 20 47 l h
492 47 m 252 47 l 252 81 l 492 81 l h
492 47 m f
126 413 m 128.629 413 131.211 414.07 133.07 415.93 c 134.93 417.789 136
 420.371 136 423 c 136 425.629 134.93 428.211 133.07 430.07 c 131.211 431.93
 128.629 433 126 433 c 123.371 433 120.789 431.93 118.93 430.07 c 117.07
 428.211 116 425.629 116 423 c 116 420.371 117.07 417.789 118.93 415.93 
c 120.789 414.07 123.371 413 126 413 c h
126 413 m f
340 413 m 342.629 413 345.211 414.07 347.07 415.93 c 348.93 417.789 350
 420.371 350 423 c 350 425.629 348.93 428.211 347.07 430.07 c 345.211 431.93
 342.629 433 340 433 c 337.371 433 334.789 431.93 332.93 430.07 c 331.07
 428.211 330 425.629 330 423 c 330 420.371 331.07 417.789 332.93 415.93 
c 334.789 414.07 337.371 413 340 413 c h
340 413 m f
148.332 99 m 103.668 99 l 98.145 99 93.668 94.523 93.668 89 c 93.668 83.477
 98.145 79 103.668 79 c 148.332 79 l 153.855 79 158.332 83.477 158.332 89
 c 158.332 94.523 153.855 99 148.332 99 c h
148.332 99 m f
56.5 99 m 53.871 99 51.289 97.93 49.43 96.07 c 47.57 94.211 46.5 91.629
 46.5 89 c 46.5 86.371 47.57 83.789 49.43 81.93 c 51.289 80.07 53.871 79
 56.5 79 c 59.129 79 61.711 80.07 63.57 81.93 c 65.43 83.789 66.5 86.371
 66.5 89 c 66.5 91.629 65.43 94.211 63.57 96.07 c 61.711 97.93 59.129 99
 56.5 99 c h
56.5 99 m f
195.5 99 m 192.871 99 190.289 97.93 188.43 96.07 c 186.57 94.211 185.5 
91.629 185.5 89 c 185.5 86.371 186.57 83.789 188.43 81.93 c 190.289 80.07
 192.871 79 195.5 79 c 198.129 79 200.711 80.07 202.57 81.93 c 204.43 83.789
 205.5 86.371 205.5 89 c 205.5 91.629 204.43 94.211 202.57 96.07 c 200.711
 97.93 198.129 99 195.5 99 c h
195.5 99 m f
Q Q
showpage
%%Trailer
end restore
%%EOF
