%!PS-Adobe-3.0 EPSF-3.0
%%Creator: cairo 1.14.2 (http://cairographics.org)
%%CreationDate: Mon Oct  8 09:05:15 2018
%%Pages: 1
%%DocumentData: Clean7Bit
%%LanguageLevel: 2
%%BoundingBox: 0 0 512 512
%%EndComments
%%BeginProlog
save
50 dict begin
/q { gsave } bind def
/Q { grestore } bind def
/cm { 6 array astore concat } bind def
/w { setlinewidth } bind def
/J { setlinecap } bind def
/j { setlinejoin } bind def
/M { setmiterlimit } bind def
/d { setdash } bind def
/m { moveto } bind def
/l { lineto } bind def
/c { curveto } bind def
/h { closepath } bind def
/re { exch dup neg 3 1 roll 5 3 roll moveto 0 rlineto
      0 exch rlineto 0 rlineto closepath } bind def
/S { stroke } bind def
/f { fill } bind def
/f* { eofill } bind def
/n { newpath } bind def
/W { clip } bind def
/W* { eoclip } bind def
/BT { } bind def
/ET { } bind def
/pdfmark where { pop globaldict /?pdfmark /exec load put }
    { globaldict begin /?pdfmark /pop load def /pdfmark
    /cleartomark load def end } ifelse
/BDC { mark 3 1 roll /BDC pdfmark } bind def
/EMC { mark /EMC pdfmark } bind def
/cairo_store_point { /cairo_point_y exch def /cairo_point_x exch def } def
/Tj { show currentpoint cairo_store_point } bind def
/TJ {
  {
    dup
    type /stringtype eq
    { show } { -0.001 mul 0 cairo_font_matrix dtransform rmoveto } ifelse
  } forall
  currentpoint cairo_store_point
} bind def
/cairo_selectfont { cairo_font_matrix aload pop pop pop 0 0 6 array astore
    cairo_font exch selectfont cairo_point_x cairo_point_y moveto } bind def
/Tf { pop /cairo_font exch def /cairo_font_matrix where
      { pop cairo_selectfont } if } bind def
/Td { matrix translate cairo_font_matrix matrix concatmatrix dup
      /cairo_font_matrix exch def dup 4 get exch 5 get cairo_store_point
      /cairo_font where { pop cairo_selectfont } if } bind def
/Tm { 2 copy 8 2 roll 6 array astore /cairo_font_matrix exch def
      cairo_store_point /cairo_font where { pop cairo_selectfont } if } bind def
/g { setgray } bind def
/rg { setrgbcolor } bind def
/d1 { setcachedevice } bind def
%%EndProlog
%%BeginSetup
%%EndSetup
%%Page: 1 1
%%BeginPageSetup
%%PageBoundingBox: 0 0 512 512
%%EndPageSetup
q 0 0 512 512 rectclip q
0 g
501.996 512 m 291.938 511.996 l 10 511.996 l 4.477 511.996 0 507.52 0 501.996
 c 0 453.996 l 0 448.473 4.477 443.996 10 443.996 c 210.199 443.996 l 211.125
 439.434 215.16 435.996 220 435.996 c 226.125 435.996 l 226.125 416.996 
l 226.125 411.473 230.605 406.996 236.125 406.996 c 241.648 406.996 246.125
 411.473 246.125 416.996 c 246.125 435.996 l 266.125 435.996 l 266.125 317.871
 l 246.125 317.871 l 246.125 334.332 l 246.125 339.855 241.648 344.332 236.125
 344.332 c 230.605 344.332 226.125 339.855 226.125 334.332 c 226.125 317.871
 l 224.125 317.871 l 218.605 317.871 214.125 313.395 214.125 307.871 c 214.125
 263.004 l 127.73 176.559 l 124.164 172.992 123.816 167.324 126.918 163.344
 c 170 108.051 l 170 10 l 170 4.477 174.477 0 180 0 c 332 0 l 337.52 0 341.996
 4.477 341.996 10 c 341.996 108.051 l 385.082 163.344 l 388.184 167.324 
387.832 172.992 384.266 176.559 c 298.125 262.75 l 298.125 307.871 l 298.125
 313.395 293.648 317.871 288.125 317.871 c 286.125 317.871 l 286.125 435.996
 l 292 435.996 l 296.836 435.996 300.871 439.434 301.797 444 c 396.996 444
 l 402.52 444 406.996 448.477 406.996 454 c 406.996 459.523 402.52 464 396.996
 464 c 302 464 l 302 492 l 491.996 492 l 491.996 464 l 477.332 464 l 471.809
 464 467.332 459.523 467.332 454 c 467.332 448.477 471.809 444 477.332 444
 c 501.996 444 l 507.52 444 511.996 448.477 511.996 454 c 511.996 502 l 
511.996 507.523 507.52 512 501.996 512 c h
276.125 297.871 m 278.125 297.871 l 278.125 265.871 l 234.125 265.871 l
 234.125 297.871 l h
322 20 m 190 20 l 190 152 l 222 152 l 222 98 l 222 93.969 224.418 90.332
 228.141 88.773 c 231.859 87.219 236.148 88.047 239.02 90.879 c 256 107.621
 l 272.977 90.879 l 274.887 88.996 277.422 88 280 88 c 281.301 88 282.613
 88.254 283.859 88.773 c 287.578 90.328 290 93.969 290 98 c 290 152 l 322
 152 l h
242 152 m 270 152 l 270 121.902 l 263.02 128.785 l 261.074 130.707 258.535
 131.664 256 131.664 c 253.461 131.664 250.926 130.707 248.977 128.785 c
 242 121.902 l h
341.996 140.594 m 341.996 162 l 341.996 167.523 337.52 172 332 172 c 180
 172 l 174.477 172 170 167.523 170 162 c 170 140.594 l 148.121 168.672 l
 225.281 245.871 l 286.719 245.871 l 363.875 168.672 l h
20 491.996 m 210 491.996 l 210 463.996 l 20 463.996 l h
236.125 455.996 m 230 455.996 l 230 491.996 l 281.996 491.996 l 281.996
 455.996 l h
236.125 455.996 m f
437.078 464 m 434.449 464 431.879 462.93 430.016 461.07 c 428.148 459.211
 427.086 456.629 427.086 454 c 427.086 451.371 428.148 448.789 430.016 446.93
 c 431.875 445.07 434.449 444 437.078 444 c 439.719 444 442.297 445.07 444.156
 446.93 c 446.016 448.789 447.086 451.371 447.086 454 c 447.086 456.629 
446.016 459.211 444.156 461.07 c 442.289 462.93 439.719 464 437.078 464 
c h
437.078 464 m f
256 484 m 253.359 484 250.789 482.93 248.93 481.07 c 247.07 479.211 246
 476.629 246 474 c 246 471.359 247.066 468.789 248.93 466.93 c 250.789 465.07
 253.367 464 256 464 c 258.629 464 261.207 465.07 263.066 466.93 c 264.926
 468.789 266 471.359 266 474 c 266 476.629 264.93 479.211 263.066 481.07
 c 261.207 482.93 258.629 484 256 484 c h
256 484 m f
236.129 366.938 m 238.758 366.938 241.328 368 243.199 369.859 c 245.059
 371.73 246.129 374.297 246.129 376.938 c 246.129 379.57 245.059 382.148
 243.199 384.008 c 241.34 385.867 238.758 386.93 236.129 386.93 c 233.488
 386.93 230.918 385.867 229.059 384.008 c 227.188 382.148 226.129 379.57
 226.129 376.938 c 226.129 374.297 227.188 371.73 229.059 369.859 c 230.918
 368 233.5 366.938 236.129 366.938 c h
236.129 366.938 m f
272.75 60 m 267.227 60 262.75 55.523 262.75 50 c 262.75 44.477 267.227 
40 272.75 40 c 300.75 40 l 306.27 40 310.75 44.477 310.75 50 c 310.75 55.523
 306.27 60 300.75 60 c h
272.75 60 m f
256.129 271.871 m 258.758 271.871 261.34 272.941 263.199 274.801 c 265.059
 276.66 266.129 279.242 266.129 281.871 c 266.129 284.5 265.059 287.082 
263.199 288.941 c 261.34 290.801 258.758 291.871 256.129 291.871 c 253.488
 291.871 250.918 290.801 249.059 288.941 c 247.188 287.082 246.129 284.5
 246.129 281.871 c 246.129 279.242 247.188 276.66 249.059 274.801 c 250.918
 272.938 253.488 271.871 256.129 271.871 c h
256.129 271.871 m f
Q Q
showpage
%%Trailer
end restore
%%EOF
