%!PS-Adobe-3.0 EPSF-3.0
%%Creator: cairo 1.14.2 (http://cairographics.org)
%%CreationDate: Mon Oct  8 09:05:15 2018
%%Pages: 1
%%DocumentData: Clean7Bit
%%LanguageLevel: 2
%%BoundingBox: 0 0 512 512
%%EndComments
%%BeginProlog
save
50 dict begin
/q { gsave } bind def
/Q { grestore } bind def
/cm { 6 array astore concat } bind def
/w { setlinewidth } bind def
/J { setlinecap } bind def
/j { setlinejoin } bind def
/M { setmiterlimit } bind def
/d { setdash } bind def
/m { moveto } bind def
/l { lineto } bind def
/c { curveto } bind def
/h { closepath } bind def
/re { exch dup neg 3 1 roll 5 3 roll moveto 0 rlineto
      0 exch rlineto 0 rlineto closepath } bind def
/S { stroke } bind def
/f { fill } bind def
/f* { eofill } bind def
/n { newpath } bind def
/W { clip } bind def
/W* { eoclip } bind def
/BT { } bind def
/ET { } bind def
/pdfmark where { pop globaldict /?pdfmark /exec load put }
    { globaldict begin /?pdfmark /pop load def /pdfmark
    /cleartomark load def end } ifelse
/BDC { mark 3 1 roll /BDC pdfmark } bind def
/EMC { mark /EMC pdfmark } bind def
/cairo_store_point { /cairo_point_y exch def /cairo_point_x exch def } def
/Tj { show currentpoint cairo_store_point } bind def
/TJ {
  {
    dup
    type /stringtype eq
    { show } { -0.001 mul 0 cairo_font_matrix dtransform rmoveto } ifelse
  } forall
  currentpoint cairo_store_point
} bind def
/cairo_selectfont { cairo_font_matrix aload pop pop pop 0 0 6 array astore
    cairo_font exch selectfont cairo_point_x cairo_point_y moveto } bind def
/Tf { pop /cairo_font exch def /cairo_font_matrix where
      { pop cairo_selectfont } if } bind def
/Td { matrix translate cairo_font_matrix matrix concatmatrix dup
      /cairo_font_matrix exch def dup 4 get exch 5 get cairo_store_point
      /cairo_font where { pop cairo_selectfont } if } bind def
/Tm { 2 copy 8 2 roll 6 array astore /cairo_font_matrix exch def
      cairo_store_point /cairo_font where { pop cairo_selectfont } if } bind def
/g { setgray } bind def
/rg { setrgbcolor } bind def
/d1 { setcachedevice } bind def
%%EndProlog
%%BeginSetup
%%EndSetup
%%Page: 1 1
%%BeginPageSetup
%%PageBoundingBox: 0 0 512 512
%%EndPageSetup
q 0 0 512 512 rectclip q
0 g
379.672 74 m 377.027 74 374.461 72.93 372.602 71.07 c 370.73 69.211 369.672
 66.629 369.672 64 c 369.672 61.371 370.73 58.789 372.602 56.93 c 374.449
 55.07 377.031 54 379.672 54 c 382.301 54 384.879 55.07 386.738 56.93 c 
388.598 58.789 389.672 61.371 389.672 64 c 389.672 66.629 388.602 69.211
 386.738 71.07 c 384.871 72.93 382.301 74 379.672 74 c h
379.672 74 m f
65.07 104.93 m 66.93 106.789 68 109.371 68 112 c 68 114.629 66.93 117.211
 65.07 119.07 c 63.211 120.93 60.629 122 58 122 c 55.371 122 52.789 120.93
 50.93 119.07 c 49.07 117.211 48 114.629 48 112 c 48 109.371 49.07 106.789
 50.93 104.93 c 52.789 103.07 55.371 102 58 102 c 60.629 102 63.211 103.07
 65.07 104.93 c h
65.07 104.93 m f
256 102 m 258.629 102 261.211 103.07 263.07 104.93 c 264.93 106.789 266
 109.371 266 112 c 266 114.629 264.93 117.211 263.07 119.07 c 261.211 120.93
 258.629 122 256 122 c 253.371 122 250.789 120.93 248.93 119.07 c 247.07
 117.211 246 114.629 246 112 c 246 109.371 247.07 106.789 248.93 104.93 
c 250.789 103.07 253.371 102 256 102 c h
256 102 m f
502 512 m 10 511.996 l 4.477 511.996 0 507.52 0 501.996 c 0 453.996 l 0
 448.477 4.477 443.996 10 443.996 c 54.199 443.996 l 55.129 439.434 59.164
 436 64 436 c 90 436 l 90 340.52 l 56.93 307.445 l 55.055 305.57 54 303.027
 54 300.375 c 54 264.375 l 54 261.723 55.055 259.18 56.93 257.305 c 65.137
 249.098 l 69.043 245.191 75.375 245.191 79.281 249.098 c 83.188 253 83.188
 259.332 79.281 263.238 c 74 268.52 l 74 296.234 l 100 322.234 l 126 296.234
 l 126 268.52 l 120.68 263.195 l 116.773 259.293 116.773 252.961 120.68 
249.055 c 122.633 247.102 125.191 246.125 127.75 246.125 c 130.309 246.125
 132.867 247.102 134.82 249.055 c 143.07 257.305 l 144.945 259.18 146 261.723
 146 264.375 c 146 300.375 l 146 303.027 144.945 305.57 143.07 307.445 c
 110 340.52 l 110 436 l 136 436 l 140.836 436 144.871 439.438 145.801 444
 c 401.668 444 l 407.188 444 411.668 448.477 411.668 454 c 411.668 459.523
 407.188 464 401.668 464 c 146 464 l 146 492 l 492 492 l 492 464 l 474.332
 464 l 468.812 464 464.332 459.523 464.332 454 c 464.332 448.477 468.812
 444 474.332 444 c 502 444 l 507.523 444 512 448.477 512 454 c 512 502 l
 512 507.523 507.523 512 502 512 c h
20 491.996 m 54 491.996 l 54 463.996 l 20 463.996 l h
74 492 m 126 492 l 126 456 l 74 456 l h
74 492 m f
437.078 444 m 439.719 444 442.289 445.07 444.16 446.93 c 446.02 448.789
 447.09 451.371 447.09 454 c 447.09 456.629 446.02 459.211 444.16 461.07
 c 442.289 462.93 439.719 464 437.078 464 c 434.449 464 431.879 462.93 430.02
 461.07 c 428.148 459.211 427.09 456.629 427.09 454 c 427.09 451.371 428.148
 448.789 430.02 446.93 c 431.879 445.07 434.449 444 437.078 444 c h
437.078 444 m f
107.07 466.93 m 108.93 468.789 110 471.359 110 474 c 110 476.629 108.93
 479.211 107.07 481.07 c 105.211 482.93 102.629 484 100 484 c 97.371 484
 94.789 482.93 92.93 481.07 c 91.07 479.211 90 476.629 90 474 c 90 471.371
 91.07 468.789 92.93 466.93 c 94.789 465.07 97.371 464 100 464 c 102.629
 464 105.211 465.07 107.07 466.93 c h
107.07 466.93 m f
462 390.375 m 450.645 390.375 440.164 386.562 431.762 380.16 c 431.094 
380.301 430.402 380.375 429.695 380.375 c 306.25 380.375 l 292.031 380.375
 279.531 372.91 272.438 361.703 c 272.293 361.496 272.16 361.285 272.031
 361.07 c 270.953 359.293 270.02 357.426 269.223 355.484 c 241.859 300.301
 l 219.645 300.301 l 216.992 300.301 214.449 299.246 212.574 297.371 c 196.281
 281.078 l 192.379 277.176 192.379 270.844 196.281 266.938 c 198.234 264.984
 200.797 264.008 203.355 264.008 c 205.914 264.008 208.473 264.984 210.426
 266.938 c 223.785 280.301 l 243.918 280.301 l 266.25 257.969 l 266.25 240.523
 l 255.543 229.82 l 251.637 225.914 251.637 219.582 255.543 215.676 c 257.496
 213.723 260.055 212.746 262.613 212.746 c 265.172 212.746 267.73 213.727
 269.684 215.676 c 283.32 229.312 l 285.195 231.188 286.25 233.73 286.25
 236.383 c 286.25 258.332 l 323.344 300.375 l 412 300.375 l 412 170 l 158
 170 l 158 216 l 158 221.523 153.523 226 148 226 c 52 226 l 46.477 226 42
 221.523 42 216 c 42 167.738 l 17.777 160.773 0 138.43 0 112 c 0 81.363 
23.879 56.219 54 54.152 c 54 10 l 54 4.477 58.477 0 64 0 c 120 0 l 125.523
 0 130 4.477 130 10 c 130 54 l 343 54 l 348.523 54 353 58.477 353 64 c 353
 69.523 348.523 74 343 74 c 299.762 74 l 308.617 84.188 314 97.473 314 112
 c 314 126.527 308.617 139.812 299.762 150 c 412 150 l 412 10 l 412 4.477
 416.477 0 422 0 c 502 0 l 507.523 0 512 4.477 512 10 c 512 340.375 l 512
 367.945 489.57 390.375 462 390.375 c h
101.762 74 m 110.617 84.188 116 97.473 116 112 c 116 126.527 110.617 139.812
 101.762 150 c 212.238 150 l 203.383 139.812 198 126.527 198 112 c 198 97.473
 203.383 84.188 212.238 74 c h
62 206 m 138 206 l 138 170 l 62 170 l h
20 112 m 20 132.953 37.047 150 58 150 c 78.953 150 96 132.953 96 112 c 
96 91.047 78.953 74 58 74 c 37.047 74 20 91.047 20 112 c h
110 20 m 74 20 l 74 54 l 110 54 l h
294 112 m 294 91.047 276.953 74 256 74 c 235.047 74 218 91.047 218 112 
c 218 132.953 235.047 150 256 150 c 276.953 150 294 132.953 294 112 c h
462 370.375 m 478.543 370.375 492 356.918 492 340.375 c 492 323.832 478.543
 310.375 462 310.375 c 445.457 310.375 432 323.832 432 340.375 c 432 356.918
 445.457 370.375 462 370.375 c h
306.25 360.375 m 317.277 360.375 326.25 351.402 326.25 340.375 c 326.25
 329.348 317.277 320.375 306.25 320.375 c 295.223 320.375 286.25 329.348
 286.25 340.375 c 286.25 342.883 286.734 345.273 287.578 347.484 c 289.262
 350.879 l 292.793 356.566 299.074 360.375 306.25 360.375 c h
273.023 318.129 m 278.652 309.75 287.367 303.613 297.527 301.344 c 275.793
 276.711 l 260.211 292.293 l h
340.867 320.375 m 344.285 326.262 346.25 333.094 346.25 340.375 c 346.25
 347.656 344.285 354.488 340.867 360.375 c 416.188 360.375 l 413.5 354.246
 412 347.484 412 340.375 c 412 320.375 l h
432 20 m 432 300.402 l 440.363 294.109 450.754 290.375 462 290.375 c 473.246
 290.375 483.637 294.109 492 300.402 c 492 20 l h
432 20 m f
462 330.379 m 464.629 330.379 467.211 331.441 469.07 333.301 c 470.93 335.172
 472 337.738 472 340.379 c 472 343.012 470.93 345.578 469.07 347.449 c 467.211
 349.309 464.629 350.379 462 350.379 c 459.371 350.379 456.789 349.309 454.93
 347.449 c 453.07 345.59 452 343.012 452 340.379 c 452 337.738 453.07 335.16
 454.93 333.301 c 456.789 331.441 459.371 330.379 462 330.379 c h
462 330.379 m f
306.25 330.371 m 308.879 330.371 311.461 331.441 313.32 333.301 c 315.18
 335.172 316.25 337.738 316.25 340.371 c 316.25 343.012 315.18 345.578 313.32
 347.449 c 311.461 349.309 308.879 350.371 306.25 350.371 c 303.621 350.371
 301.039 349.309 299.18 347.449 c 297.32 345.59 296.25 343.012 296.25 340.371
 c 296.25 337.738 297.32 335.16 299.18 333.301 c 301.039 331.441 303.621
 330.371 306.25 330.371 c h
306.25 330.371 m f
Q Q
showpage
%%Trailer
end restore
%%EOF
