%!PS-Adobe-3.0 EPSF-3.0
%%Creator: cairo 1.14.2 (http://cairographics.org)
%%CreationDate: Mon Oct  8 09:05:15 2018
%%Pages: 1
%%DocumentData: Clean7Bit
%%LanguageLevel: 2
%%BoundingBox: 0 8 512 504
%%EndComments
%%BeginProlog
save
50 dict begin
/q { gsave } bind def
/Q { grestore } bind def
/cm { 6 array astore concat } bind def
/w { setlinewidth } bind def
/J { setlinecap } bind def
/j { setlinejoin } bind def
/M { setmiterlimit } bind def
/d { setdash } bind def
/m { moveto } bind def
/l { lineto } bind def
/c { curveto } bind def
/h { closepath } bind def
/re { exch dup neg 3 1 roll 5 3 roll moveto 0 rlineto
      0 exch rlineto 0 rlineto closepath } bind def
/S { stroke } bind def
/f { fill } bind def
/f* { eofill } bind def
/n { newpath } bind def
/W { clip } bind def
/W* { eoclip } bind def
/BT { } bind def
/ET { } bind def
/pdfmark where { pop globaldict /?pdfmark /exec load put }
    { globaldict begin /?pdfmark /pop load def /pdfmark
    /cleartomark load def end } ifelse
/BDC { mark 3 1 roll /BDC pdfmark } bind def
/EMC { mark /EMC pdfmark } bind def
/cairo_store_point { /cairo_point_y exch def /cairo_point_x exch def } def
/Tj { show currentpoint cairo_store_point } bind def
/TJ {
  {
    dup
    type /stringtype eq
    { show } { -0.001 mul 0 cairo_font_matrix dtransform rmoveto } ifelse
  } forall
  currentpoint cairo_store_point
} bind def
/cairo_selectfont { cairo_font_matrix aload pop pop pop 0 0 6 array astore
    cairo_font exch selectfont cairo_point_x cairo_point_y moveto } bind def
/Tf { pop /cairo_font exch def /cairo_font_matrix where
      { pop cairo_selectfont } if } bind def
/Td { matrix translate cairo_font_matrix matrix concatmatrix dup
      /cairo_font_matrix exch def dup 4 get exch 5 get cairo_store_point
      /cairo_font where { pop cairo_selectfont } if } bind def
/Tm { 2 copy 8 2 roll 6 array astore /cairo_font_matrix exch def
      cairo_store_point /cairo_font where { pop cairo_selectfont } if } bind def
/g { setgray } bind def
/rg { setrgbcolor } bind def
/d1 { setcachedevice } bind def
%%EndProlog
%%BeginSetup
%%EndSetup
%%Page: 1 1
%%BeginPageSetup
%%PageBoundingBox: 0 8 512 504
%%EndPageSetup
q 0 8 512 496 rectclip q
0 g
509.09 213.031 m 458.379 263.984 l 458.379 311.719 l 458.379 312.156 458.34
 312.582 458.285 313.008 c 470.934 330.203 469.484 354.586 453.941 370.133
 c 335.734 488.336 l 335.715 488.355 335.695 488.371 335.676 488.391 c 325.555
 498.457 312.129 504 297.848 504 c 283.516 504 270.043 498.418 259.91 488.285
 c 115.277 343.652 l 114.977 343.352 114.707 343.031 114.453 342.707 c 83.277
 337.617 59.332 310.789 58.715 278.344 c 24.488 130.41 l 10.309 125.934 
0 112.664 0 97.027 c 0 18.027 l 0 12.668 4.215 8.309 9.508 8.051 c 9.625
 8.035 9.773 8.027 10 8.027 c 415 8.027 l 420.523 8.027 425 12.504 425 18.027
 c 425 23.547 420.523 28.027 415 28.027 c 250.285 28.027 l 250.285 97.027
 l 250.285 112.613 240.039 125.848 225.934 130.367 c 193.578 270.199 l 311.543
 388.164 l 387.539 312.168 l 387.535 312.016 387.52 311.867 387.52 311.719
 c 387.52 263.984 l 336.809 213.031 l 333.699 209.906 333 205.113 335.094
 201.234 c 359.863 155.258 l 361.672 151.902 365.117 150 368.676 150 c 370.277
 150 371.902 150.383 373.41 151.195 c 378.273 153.816 380.09 159.883 377.473
 164.742 c 356.223 204.184 l 401.773 249.957 l 444.125 249.957 l 489.68 
204.184 l 468.43 164.742 l 465.809 159.883 467.625 153.816 472.488 151.195
 c 473.996 150.383 475.621 150 477.223 150 c 480.781 150 484.23 151.902 
486.035 155.258 c 510.809 201.234 l 512.895 205.113 512.195 209.906 509.09
 213.031 c h
407.52 297.816 m 412.359 296.02 417.531 295.07 422.848 295.07 c 428.238
 295.07 433.48 296.047 438.379 297.891 c 438.379 269.957 l 407.52 269.957
 l h
141.477 341.566 m 244.801 444.891 l 246.035 433.125 251.145 421.688 260.141
 412.691 c 268.922 403.91 280.219 398.562 292.406 397.309 c 189.438 294.344
 l 183.203 317.492 164.77 335.688 141.477 341.566 c h
321.645 474.141 m 328 467.785 331.504 459.336 331.504 450.348 c 331.504
 441.961 328.453 434.043 322.883 427.855 c 322.457 427.551 322.047 427.215
 321.664 426.832 c 315.336 420.504 306.922 417.02 297.973 417.02 c 289.027
 417.02 280.613 420.504 274.285 426.832 c 261.223 439.895 261.223 461.152
 274.285 474.215 c 274.574 474.504 274.836 474.809 275.082 475.125 c 281.309
 480.855 289.336 484 297.852 484 c 306.84 484 315.289 480.5 321.645 474.141
 c h
125.203 323.586 m 150.855 323.586 171.727 302.719 171.727 277.062 c 171.727
 251.414 150.855 230.543 125.203 230.543 c 99.551 230.543 78.684 251.414
 78.684 277.062 c 78.684 302.719 99.551 323.586 125.203 323.586 c h
230.285 28.027 m 20 28.027 l 20 97.027 l 20 105.297 26.73 112.027 35 112.027
 c 215.285 112.027 l 223.559 112.027 230.285 105.297 230.285 97.027 c h
45.391 132.027 m 70.277 239.59 l 82.27 222.066 102.414 210.543 125.203 
210.543 c 147.996 210.543 168.141 222.07 180.133 239.594 c 205.02 132.027
 l h
335.785 412.406 m 344.793 421.414 349.91 432.852 351.16 444.625 c 439.797
 355.992 l 449.145 346.645 449.145 331.438 439.797 322.094 c 435.27 317.566
 429.25 315.07 422.848 315.07 c 416.445 315.07 410.426 317.566 405.898 322.094
 c 325.688 402.305 l h
335.785 412.406 m f
125.199 267.066 m 127.84 267.066 130.41 268.137 132.27 269.996 c 134.141
 271.855 135.199 274.434 135.199 277.066 c 135.199 279.695 134.141 282.277
 132.27 284.137 c 130.41 285.996 127.84 287.066 125.199 287.066 c 122.57
 287.066 119.988 285.996 118.129 284.137 c 116.27 282.277 115.199 279.695
 115.199 277.066 c 115.199 274.434 116.27 271.855 118.129 269.996 c 119.992
 268.137 122.57 267.066 125.199 267.066 c h
125.199 267.066 m f
290.898 443.457 m 292.758 441.586 295.34 440.527 297.969 440.527 c 300.609
 440.527 303.18 441.586 305.039 443.457 c 306.91 445.316 307.977 447.895
 307.977 450.527 c 307.977 453.156 306.91 455.734 305.039 457.594 c 303.18
 459.457 300.609 460.527 297.969 460.527 c 295.34 460.527 292.758 459.457
 290.898 457.594 c 289.039 455.734 287.969 453.156 287.969 450.527 c 287.969
 447.895 289.039 445.316 290.898 443.457 c h
290.898 443.457 m f
147.312 80.027 m 102.977 80.027 l 97.453 80.027 92.977 75.547 92.977 70.027
 c 92.977 64.504 97.453 60.027 102.977 60.027 c 147.312 60.027 l 152.836
 60.027 157.312 64.504 157.312 70.027 c 157.312 75.547 152.836 80.027 147.312
 80.027 c h
147.312 80.027 m f
56.16 80.027 m 53.52 80.027 50.949 78.957 49.078 77.094 c 47.219 75.234
 46.16 72.656 46.16 70.027 c 46.16 67.395 47.219 64.816 49.078 62.957 c 
50.949 61.094 53.52 60.027 56.16 60.027 c 58.789 60.027 61.371 61.094 63.23
 62.957 c 65.09 64.816 66.16 67.395 66.16 70.027 c 66.16 72.656 65.09 75.234
 63.23 77.094 c 61.371 78.957 58.789 80.027 56.16 80.027 c h
56.16 80.027 m f
194.129 80.027 m 191.5 80.027 188.922 78.957 187.059 77.094 c 185.199 75.234
 184.129 72.656 184.129 70.027 c 184.129 67.395 185.199 64.816 187.059 62.957
 c 188.922 61.094 191.5 60.027 194.129 60.027 c 196.762 60.027 199.34 61.094
 201.199 62.957 c 203.059 64.816 204.129 67.395 204.129 70.027 c 204.129
 72.656 203.059 75.234 201.199 77.094 c 199.34 78.957 196.762 80.027 194.129
 80.027 c h
194.129 80.027 m f
422.801 328.996 m 425.441 328.996 428.012 330.066 429.871 331.926 c 431.73
 333.785 432.801 336.367 432.801 338.996 c 432.801 341.625 431.73 344.207
 429.871 346.066 c 428.012 347.926 425.438 348.996 422.801 348.996 c 420.172
 348.996 417.59 347.926 415.73 346.066 c 413.871 344.207 412.801 341.625
 412.801 338.996 c 412.801 336.367 413.871 333.785 415.73 331.926 c 417.59
 330.066 420.172 328.996 422.801 328.996 c h
422.801 328.996 m f
456.82 28.027 m 454.18 28.027 451.609 26.957 449.75 25.094 c 447.879 23.234
 446.82 20.656 446.82 18.027 c 446.82 15.395 447.879 12.816 449.75 10.957
 c 451.609 9.094 454.188 8.027 456.82 8.027 c 459.449 8.027 462.027 9.094
 463.891 10.957 c 465.75 12.816 466.82 15.395 466.82 18.027 c 466.82 20.656
 465.75 23.234 463.891 25.094 c 462.027 26.957 459.449 28.027 456.82 28.027
 c h
456.82 28.027 m f
Q Q
showpage
%%Trailer
end restore
%%EOF
