%!PS-Adobe-3.0 EPSF-3.0
%%Creator: cairo 1.14.2 (http://cairographics.org)
%%CreationDate: Mon Oct  8 09:05:16 2018
%%Pages: 1
%%DocumentData: Clean7Bit
%%LanguageLevel: 2
%%BoundingBox: 0 0 512 512
%%EndComments
%%BeginProlog
save
50 dict begin
/q { gsave } bind def
/Q { grestore } bind def
/cm { 6 array astore concat } bind def
/w { setlinewidth } bind def
/J { setlinecap } bind def
/j { setlinejoin } bind def
/M { setmiterlimit } bind def
/d { setdash } bind def
/m { moveto } bind def
/l { lineto } bind def
/c { curveto } bind def
/h { closepath } bind def
/re { exch dup neg 3 1 roll 5 3 roll moveto 0 rlineto
      0 exch rlineto 0 rlineto closepath } bind def
/S { stroke } bind def
/f { fill } bind def
/f* { eofill } bind def
/n { newpath } bind def
/W { clip } bind def
/W* { eoclip } bind def
/BT { } bind def
/ET { } bind def
/pdfmark where { pop globaldict /?pdfmark /exec load put }
    { globaldict begin /?pdfmark /pop load def /pdfmark
    /cleartomark load def end } ifelse
/BDC { mark 3 1 roll /BDC pdfmark } bind def
/EMC { mark /EMC pdfmark } bind def
/cairo_store_point { /cairo_point_y exch def /cairo_point_x exch def } def
/Tj { show currentpoint cairo_store_point } bind def
/TJ {
  {
    dup
    type /stringtype eq
    { show } { -0.001 mul 0 cairo_font_matrix dtransform rmoveto } ifelse
  } forall
  currentpoint cairo_store_point
} bind def
/cairo_selectfont { cairo_font_matrix aload pop pop pop 0 0 6 array astore
    cairo_font exch selectfont cairo_point_x cairo_point_y moveto } bind def
/Tf { pop /cairo_font exch def /cairo_font_matrix where
      { pop cairo_selectfont } if } bind def
/Td { matrix translate cairo_font_matrix matrix concatmatrix dup
      /cairo_font_matrix exch def dup 4 get exch 5 get cairo_store_point
      /cairo_font where { pop cairo_selectfont } if } bind def
/Tm { 2 copy 8 2 roll 6 array astore /cairo_font_matrix exch def
      cairo_store_point /cairo_font where { pop cairo_selectfont } if } bind def
/g { setgray } bind def
/rg { setrgbcolor } bind def
/d1 { setcachedevice } bind def
%%EndProlog
%%BeginSetup
%%EndSetup
%%Page: 1 1
%%BeginPageSetup
%%PageBoundingBox: 0 0 512 512
%%EndPageSetup
q 0 0 512 512 rectclip q
0 g
502 310 m 465.148 310 l 460.102 329.594 452.359 348.266 442.059 365.688
 c 468.133 391.766 l 472.035 395.668 472.035 402 468.133 405.906 c 405.906
 468.133 l 402 472.039 395.668 472.039 391.762 468.133 c 365.688 442.059
 l 348.266 452.359 329.594 460.105 310 465.148 c 310 502 l 310 507.523 305.523
 512 300 512 c 212 512 l 206.477 512 202 507.523 202 502 c 202 465.215 l
 182.375 460.188 163.672 452.453 146.215 442.152 c 120.234 468.133 l 118.359
 470.008 115.816 471.059 113.164 471.059 c 110.512 471.059 107.969 470.008
 106.094 468.133 c 43.867 405.906 l 39.965 402 39.965 395.668 43.867 391.762
 c 69.785 365.844 l 59.434 348.375 51.656 329.648 46.598 310 c 10 310 l 
4.477 310 0 305.523 0 300 c 0 212 l 0 209.676 0.801 207.539 2.133 205.844
 c 0.758 202.152 0 198.164 0 194 c 0 34 l 0 15.254 15.254 0 34 0 c 300 0
 l 305.523 0 310 4.477 310 10 c 310 46.598 l 329.648 51.656 348.375 59.434
 365.848 69.785 c 391.766 43.867 l 395.672 39.965 402.004 39.965 405.906
 43.867 c 468.133 106.094 l 470.008 107.969 471.062 110.512 471.062 113.164
 c 471.062 115.816 470.008 118.359 468.133 120.234 c 442.156 146.215 l 452.457
 163.672 460.188 182.371 465.219 202 c 502 202 l 507.523 202 512 206.477
 512 212 c 512 300 l 512 305.523 507.523 310 502 310 c h
212 20 m 34 20 l 26.281 20 20 26.281 20 34 c 20 194 l 20 201.719 26.281
 208 34 208 c 232 208 l 239.719 208 246 201.719 246 194 c 246 34 l 246 26.281
 239.719 20 232 20 c h
206 256 m 206 283.57 228.43 306 256 306 c 283.57 306 306 283.57 306 256
 c 306 231.008 287.566 210.238 263.578 206.574 c 258.57 219.113 246.309 
228 232 228 c 214.578 228 l 208.961 236.273 206 245.895 206 256 c h
492 222 m 457.305 222 l 452.598 222 448.527 218.719 447.531 214.117 c 442.59
 191.312 433.688 169.781 421.078 150.129 c 418.543 146.172 419.102 140.98
 422.426 137.656 c 446.918 113.164 l 398.836 65.082 l 374.395 89.523 l 371.066
 92.852 365.867 93.406 361.91 90.859 c 342.242 78.191 320.695 69.246 297.867
 64.266 c 293.277 63.266 290 59.199 290 54.496 c 290 20 l 262.973 20 l 264.91
 24.273 266 29.012 266 34 c 266 108.664 l 342.785 113.824 403.68 177.93 
403.68 256 c 403.68 288.875 393.109 319.992 373.109 345.984 c 353.742 371.152
 326.328 389.703 295.91 398.223 c 290.594 399.711 285.074 396.609 283.586
 391.289 c 282.094 385.973 285.199 380.453 290.516 378.965 c 345.371 363.602
 383.684 313.035 383.684 256 c 383.684 188.961 331.75 133.824 266 128.707
 c 266 186.727 l 299.879 191.594 326 220.797 326 256 c 326 294.598 294.598
 326 256 326 c 217.402 326 186 294.598 186 256 c 186 246.211 187.988 236.742
 191.816 228 c 131.414 228 l 129.371 237.148 128.32 246.535 128.32 256 c
 128.32 313.035 166.629 363.598 221.48 378.961 c 226.801 380.453 229.902
 385.969 228.414 391.289 c 226.926 396.609 221.406 399.711 216.086 398.223
 c 185.672 389.699 158.254 371.148 138.891 345.984 c 118.891 319.992 108.32
 288.875 108.32 256 c 108.32 246.566 109.227 237.191 110.992 228 c 34 228
 l 29.012 228 24.273 226.91 20 224.973 c 20 290 l 54.496 290 l 59.199 290
 63.266 293.273 64.266 297.867 c 69.246 320.695 78.191 342.242 90.859 361.91
 c 93.406 365.867 92.852 371.066 89.523 374.395 c 65.082 398.836 l 113.164
 446.918 l 137.656 422.426 l 140.98 419.102 146.172 418.539 150.129 421.078
 c 169.781 433.688 191.312 442.586 214.117 447.531 c 218.719 448.527 222
 452.598 222 457.305 c 222 492 l 290 492 l 290 457.25 l 290 452.547 293.273
 448.48 297.867 447.48 c 320.645 442.512 342.141 433.598 361.766 420.984
 c 365.723 418.441 370.918 419 374.242 422.324 c 398.836 446.918 l 446.918
 398.836 l 422.324 374.242 l 419 370.914 418.441 365.723 420.984 361.766
 c 433.598 342.141 442.512 320.645 447.48 297.867 c 448.48 293.277 452.547
 290 457.25 290 c 492 290 l h
492 222 m f
256.527 403.68 m 256 403.68 l 250.477 403.68 246 399.203 246 393.68 c 246
 388.156 250.477 383.68 256 383.68 c 256.5 383.68 l 262.012 383.68 266.484
 388.137 266.5 393.652 c 266.516 399.176 262.051 403.664 256.527 403.68 
c h
256.527 403.68 m f
213.5 168 m 182.598 168 l 178.473 179.641 167.355 188 154.32 188 c 138.32
 188 l 125.281 188 114.168 179.641 110.039 168 c 54.5 168 l 48.977 168 44.5
 163.523 44.5 158 c 44.5 152.477 48.977 148 54.5 148 c 110.039 148 l 114.168
 136.359 125.281 128 138.32 128 c 154.32 128 l 167.355 128 178.473 136.359
 182.598 148 c 213.5 148 l 219.023 148 223.5 152.477 223.5 158 c 223.5 163.523
 219.023 168 213.5 168 c h
154.32 148 m 138.32 148 l 132.805 148 128.32 152.484 128.32 158 c 128.32
 163.516 132.805 168 138.32 168 c 154.32 168 l 159.832 168 164.32 163.516
 164.32 158 c 164.32 152.484 159.832 148 154.32 148 c h
154.32 148 m f
213.5 88 m 146.613 88 l 142.484 99.641 131.371 108 118.332 108 c 102.332
 108 l 89.297 108 78.18 99.641 74.055 88 c 54.5 88 l 48.977 88 44.5 83.523
 44.5 78 c 44.5 72.477 48.977 68 54.5 68 c 74.055 68 l 78.184 56.359 89.297
 48 102.336 48 c 118.336 48 l 131.371 48 142.484 56.359 146.613 68 c 213.5
 68 l 219.023 68 223.5 72.477 223.5 78 c 223.5 83.523 219.023 88 213.5 88
 c h
118.332 68 m 102.332 68 l 96.82 68 92.332 72.484 92.332 78 c 92.332 83.516
 96.82 88 102.332 88 c 118.332 88 l 123.848 88 128.332 83.516 128.332 78
 c 128.332 72.484 123.848 68 118.332 68 c h
118.332 68 m f
Q Q
showpage
%%Trailer
end restore
%%EOF
