%!PS-Adobe-3.0 EPSF-3.0
%%Creator: cairo 1.14.2 (http://cairographics.org)
%%CreationDate: Mon Oct  8 09:05:16 2018
%%Pages: 1
%%DocumentData: Clean7Bit
%%LanguageLevel: 2
%%BoundingBox: 0 0 512 512
%%EndComments
%%BeginProlog
save
50 dict begin
/q { gsave } bind def
/Q { grestore } bind def
/cm { 6 array astore concat } bind def
/w { setlinewidth } bind def
/J { setlinecap } bind def
/j { setlinejoin } bind def
/M { setmiterlimit } bind def
/d { setdash } bind def
/m { moveto } bind def
/l { lineto } bind def
/c { curveto } bind def
/h { closepath } bind def
/re { exch dup neg 3 1 roll 5 3 roll moveto 0 rlineto
      0 exch rlineto 0 rlineto closepath } bind def
/S { stroke } bind def
/f { fill } bind def
/f* { eofill } bind def
/n { newpath } bind def
/W { clip } bind def
/W* { eoclip } bind def
/BT { } bind def
/ET { } bind def
/pdfmark where { pop globaldict /?pdfmark /exec load put }
    { globaldict begin /?pdfmark /pop load def /pdfmark
    /cleartomark load def end } ifelse
/BDC { mark 3 1 roll /BDC pdfmark } bind def
/EMC { mark /EMC pdfmark } bind def
/cairo_store_point { /cairo_point_y exch def /cairo_point_x exch def } def
/Tj { show currentpoint cairo_store_point } bind def
/TJ {
  {
    dup
    type /stringtype eq
    { show } { -0.001 mul 0 cairo_font_matrix dtransform rmoveto } ifelse
  } forall
  currentpoint cairo_store_point
} bind def
/cairo_selectfont { cairo_font_matrix aload pop pop pop 0 0 6 array astore
    cairo_font exch selectfont cairo_point_x cairo_point_y moveto } bind def
/Tf { pop /cairo_font exch def /cairo_font_matrix where
      { pop cairo_selectfont } if } bind def
/Td { matrix translate cairo_font_matrix matrix concatmatrix dup
      /cairo_font_matrix exch def dup 4 get exch 5 get cairo_store_point
      /cairo_font where { pop cairo_selectfont } if } bind def
/Tm { 2 copy 8 2 roll 6 array astore /cairo_font_matrix exch def
      cairo_store_point /cairo_font where { pop cairo_selectfont } if } bind def
/g { setgray } bind def
/rg { setrgbcolor } bind def
/d1 { setcachedevice } bind def
%%EndProlog
%%BeginSetup
%%EndSetup
%%Page: 1 1
%%BeginPageSetup
%%PageBoundingBox: 0 0 512 512
%%EndPageSetup
q 0 0 512 512 rectclip q
0 g
163.672 74 m 161.039 74 158.461 72.93 156.602 71.07 c 154.742 69.211 153.672
 66.629 153.672 64 c 153.672 61.371 154.738 58.789 156.602 56.93 c 158.461
 55.07 161.039 54 163.672 54 c 166.309 54 168.879 55.07 170.738 56.93 c 
172.598 58.789 173.672 61.371 173.672 64 c 173.672 66.629 172.602 69.211
 170.738 71.07 c 168.879 72.93 166.309 74 163.672 74 c h
163.672 74 m f
364.25 266 m 361.621 266 359.039 264.93 357.18 263.07 c 355.32 261.211 
354.25 258.629 354.25 256 c 354.25 253.371 355.32 250.789 357.18 248.93 
c 359.039 247.07 361.621 246 364.25 246 c 366.879 246 369.461 247.07 371.32
 248.93 c 373.18 250.789 374.25 253.371 374.25 256 c 374.25 258.629 373.18
 261.211 371.32 263.07 c 369.461 264.93 366.879 266 364.25 266 c h
364.25 266 m f
502 512 m 454 512 l 448.477 512 444 507.523 444 502 c 444 306 l 410.254
 306 l 410.254 392 l 410.254 397.523 405.777 402 400.254 402 c 362.191 402
 l 362.191 488 l 362.191 493.523 357.711 498 352.191 498 c 256.191 498 l
 256.168 498 256.148 497.996 256.129 497.996 c 256.105 497.996 256.086 498
 256.062 498 c 160.062 498 l 154.543 498 150.062 493.523 150.062 488 c 150.062
 402 l 112 402 l 106.477 402 102 397.523 102 392 c 102 306 l 68 306 l 68
 502 l 68 507.523 63.523 512 58 512 c 10 512 l 4.477 512 0 507.523 0 502
 c 0 10 l 0 4.477 4.477 0 10 0 c 58 0 l 63.523 0 68 4.477 68 10 c 68 54 
l 128 54 l 133.523 54 138 58.477 138 64 c 138 69.523 133.523 74 128 74 c
 68 74 l 68 94 l 444 94 l 444 74 l 200.5 74 l 194.977 74 190.5 69.523 190.5
 64 c 190.5 58.477 194.977 54 200.5 54 c 444 54 l 444 10 l 444 4.477 448.477
 0 454 0 c 502 0 l 507.523 0 512 4.477 512 10 c 512 502 l 512 507.523 507.523
 512 502 512 c h
390.254 342 m 364.254 342 l 358.73 342 354.254 337.523 354.254 332 c 354.254
 326.477 358.73 322 364.254 322 c 390.254 322 l 390.254 306 l 314.254 306
 l 314.254 382 l 390.254 382 l h
218.129 382 m 294.129 382 l 294.129 342 l 268.129 342 l 262.605 342 258.129
 337.523 258.129 332 c 258.129 326.477 262.605 322 268.129 322 c 294.129
 322 l 294.129 306 l 218.129 306 l h
266.191 478 m 342.191 478 l 342.191 438 l 316.191 438 l 310.668 438 306.191
 433.523 306.191 428 c 306.191 422.477 310.668 418 316.191 418 c 342.191
 418 l 342.191 402 l 266.191 402 l h
170.062 478 m 246.062 478 l 246.062 438 l 220.062 438 l 214.539 438 210.062
 433.523 210.062 428 c 210.062 422.477 214.539 418 220.062 418 c 246.062
 418 l 246.062 402 l 170.062 402 l h
122 382 m 198 382 l 198 342 l 172 342 l 166.477 342 162 337.523 162 332
 c 162 326.477 166.477 322 172 322 c 198 322 l 198 306 l 122 306 l h
48 20 m 20 20 l 20 492 l 48 492 l h
122 114 m 122 190 l 198 190 l 198 150 l 172 150 l 166.477 150 162 145.523
 162 140 c 162 134.477 166.477 130 172 130 c 198 130 l 198 114 l h
218.129 114 m 218.129 190 l 294.129 190 l 294.129 150 l 268.129 150 l 262.605
 150 258.129 145.523 258.129 140 c 258.129 134.477 262.605 130 268.129 130
 c 294.129 130 l 294.129 114 l h
314.254 114 m 314.254 190 l 390.254 190 l 390.254 150 l 364.254 150 l 358.73
 150 354.254 145.523 354.254 140 c 354.254 134.477 358.73 130 364.254 130
 c 390.254 130 l 390.254 114 l h
410.254 114 m 410.254 200 l 410.254 205.523 405.777 210 400.254 210 c 304.254
 210 l 304.234 210 304.211 209.996 304.191 209.996 c 304.172 209.996 304.148
 210 304.129 210 c 208.129 210 l 208.105 210 208.086 209.996 208.066 209.996
 c 208.043 209.996 208.023 210 208.004 210 c 112.004 210 l 106.48 210 102.004
 205.523 102.004 200 c 102.004 114 l 68 114 l 68 246 l 320 246 l 325.523
 246 330 250.477 330 256 c 330 261.523 325.523 266 320 266 c 68 266 l 68
 286 l 444 286 l 444 266 l 405.668 266 l 400.148 266 395.668 261.523 395.668
 256 c 395.668 250.477 400.148 246 405.668 246 c 444 246 l 444 114 l h
492 20 m 464 20 l 464 492 l 492 492 l h
492 20 m f
Q Q
showpage
%%Trailer
end restore
%%EOF
