%!PS-Adobe-3.0 EPSF-3.0
%%Creator: cairo 1.14.2 (http://cairographics.org)
%%CreationDate: Mon Oct  8 09:05:16 2018
%%Pages: 1
%%DocumentData: Clean7Bit
%%LanguageLevel: 2
%%BoundingBox: 0 47 512 465
%%EndComments
%%BeginProlog
save
50 dict begin
/q { gsave } bind def
/Q { grestore } bind def
/cm { 6 array astore concat } bind def
/w { setlinewidth } bind def
/J { setlinecap } bind def
/j { setlinejoin } bind def
/M { setmiterlimit } bind def
/d { setdash } bind def
/m { moveto } bind def
/l { lineto } bind def
/c { curveto } bind def
/h { closepath } bind def
/re { exch dup neg 3 1 roll 5 3 roll moveto 0 rlineto
      0 exch rlineto 0 rlineto closepath } bind def
/S { stroke } bind def
/f { fill } bind def
/f* { eofill } bind def
/n { newpath } bind def
/W { clip } bind def
/W* { eoclip } bind def
/BT { } bind def
/ET { } bind def
/pdfmark where { pop globaldict /?pdfmark /exec load put }
    { globaldict begin /?pdfmark /pop load def /pdfmark
    /cleartomark load def end } ifelse
/BDC { mark 3 1 roll /BDC pdfmark } bind def
/EMC { mark /EMC pdfmark } bind def
/cairo_store_point { /cairo_point_y exch def /cairo_point_x exch def } def
/Tj { show currentpoint cairo_store_point } bind def
/TJ {
  {
    dup
    type /stringtype eq
    { show } { -0.001 mul 0 cairo_font_matrix dtransform rmoveto } ifelse
  } forall
  currentpoint cairo_store_point
} bind def
/cairo_selectfont { cairo_font_matrix aload pop pop pop 0 0 6 array astore
    cairo_font exch selectfont cairo_point_x cairo_point_y moveto } bind def
/Tf { pop /cairo_font exch def /cairo_font_matrix where
      { pop cairo_selectfont } if } bind def
/Td { matrix translate cairo_font_matrix matrix concatmatrix dup
      /cairo_font_matrix exch def dup 4 get exch 5 get cairo_store_point
      /cairo_font where { pop cairo_selectfont } if } bind def
/Tm { 2 copy 8 2 roll 6 array astore /cairo_font_matrix exch def
      cairo_store_point /cairo_font where { pop cairo_selectfont } if } bind def
/g { setgray } bind def
/rg { setrgbcolor } bind def
/d1 { setcachedevice } bind def
%%EndProlog
%%BeginSetup
%%EndSetup
%%Page: 1 1
%%BeginPageSetup
%%PageBoundingBox: 0 47 512 465
%%EndPageSetup
q 0 47 512 418 rectclip q
0 g
365.672 67 m 363.039 67 360.461 65.93 358.602 64.07 c 356.73 62.211 355.672
 59.629 355.672 57 c 355.672 54.371 356.73 51.789 358.602 49.93 c 360.461
 48.07 363.039 47 365.672 47 c 368.301 47 370.871 48.07 372.738 49.93 c 
374.602 51.789 375.672 54.371 375.672 57 c 375.672 59.629 374.602 62.211
 372.738 64.07 c 370.871 65.93 368.301 67 365.672 67 c h
365.672 67 m f
454 163 m 386 163 l 386 289.57 l 394.914 290.586 403.426 292.934 411.332
 296.414 c 457.355 250.387 l 463.402 244.344 471.438 241.016 479.984 241.016
 c 488.531 241.016 496.566 244.344 502.613 250.387 c 515.09 262.867 515.09
 283.168 502.613 295.645 c 456.586 341.668 l 461.348 352.488 464 364.441
 464 377 c 464 425.523 424.523 465 376 465 c 330.859 465 293.555 430.832
 288.57 387 c 136 387 l 130.477 387 126 382.523 126 377 c 126 163 l 58 163
 l 26.02 163 0 136.98 0 105 c 0 73.02 26.02 47 58 47 c 329.668 47 l 335.191
 47 339.668 51.477 339.668 57 c 339.668 62.523 335.191 67 329.668 67 c 299.762
 67 l 308.617 77.188 314 90.473 314 105 c 314 119.527 308.617 132.812 299.762
 143 c 410.238 143 l 401.383 132.812 396 119.527 396 105 c 396 90.473 401.383
 77.188 410.238 67 c 404.664 67 l 399.145 67 394.664 62.523 394.664 57 c
 394.664 51.477 399.145 47 404.664 47 c 454 47 l 485.98 47 512 73.02 512
 105 c 512 136.98 485.98 163 454 163 c h
488.469 281.5 m 493.148 276.82 493.148 269.207 488.469 264.531 c 486.203
 262.262 483.191 261.016 479.984 261.016 c 476.781 261.016 473.766 262.262
 471.5 264.531 c 429.133 306.898 l 435.527 311.758 441.242 317.473 446.102
 323.867 c h
376 445 m 413.496 445 444 414.496 444 377 c 444 339.504 413.496 309 376
 309 c 338.504 309 308 339.504 308 377 c 308 414.496 338.504 445 376 445
 c h
211.312 367 m 288.57 367 l 290.035 354.137 294.277 342.102 300.688 331.52
 c 300.688 294.047 l 263.086 331.805 l 261.211 333.688 258.66 334.75 256
 334.75 c 253.34 334.75 250.789 333.688 248.914 331.805 c 211.312 294.047
 l h
212.238 143 m 203.383 132.812 198 119.527 198 105 c 198 90.473 203.383 
77.188 212.238 67 c 101.762 67 l 110.617 77.188 116 90.473 116 105 c 116
 119.527 110.617 132.812 101.762 143 c h
20 105 m 20 125.953 37.047 143 58 143 c 78.953 143 96 125.953 96 105 c 
96 84.047 78.953 67 58 67 c 37.047 67 20 84.047 20 105 c h
294 105 m 294 84.047 276.953 67 256 67 c 235.047 67 218 84.047 218 105 
c 218 125.953 235.047 143 256 143 c 276.953 143 294 125.953 294 105 c h
146 163 m 146 367 l 191.312 367 l 191.312 269.832 l 191.312 265.781 193.754
 262.133 197.496 260.59 c 201.238 259.043 205.543 259.906 208.398 262.773
 c 256 310.578 l 303.602 262.773 l 305.516 260.852 308.082 259.832 310.691
 259.832 c 311.977 259.832 313.27 260.078 314.504 260.59 c 318.246 262.133
 320.688 265.781 320.688 269.832 c 320.688 308.613 l 333.367 298.336 348.953
 291.512 366 289.57 c 366 163 l h
454 67 m 433.047 67 416 84.047 416 105 c 416 125.953 433.047 143 454 143
 c 474.953 143 492 125.953 492 105 c 492 84.047 474.953 67 454 67 c h
454 67 m f
256 95 m 258.629 95 261.211 96.07 263.07 97.93 c 264.93 99.789 266 102.371
 266 105 c 266 107.629 264.93 110.211 263.07 112.07 c 261.211 113.93 258.629
 115 256 115 c 253.371 115 250.789 113.93 248.93 112.07 c 247.07 110.211
 246 107.629 246 105 c 246 102.371 247.07 99.789 248.93 97.93 c 250.789 
96.07 253.371 95 256 95 c h
256 95 m f
454 115 m 451.371 115 448.789 113.93 446.93 112.07 c 445.07 110.211 444
 107.629 444 105 c 444 102.371 445.07 99.789 446.93 97.93 c 448.789 96.07
 451.371 95 454 95 c 456.629 95 459.211 96.07 461.07 97.93 c 462.93 99.789
 464 102.371 464 105 c 464 107.629 462.93 110.211 461.07 112.07 c 459.211
 113.93 456.629 115 454 115 c h
454 115 m f
65.07 97.93 m 66.93 99.789 68 102.371 68 105 c 68 107.629 66.93 110.211
 65.07 112.07 c 63.211 113.93 60.629 115 58 115 c 55.371 115 52.789 113.93
 50.93 112.07 c 49.07 110.211 48 107.629 48 105 c 48 102.371 49.07 99.789
 50.93 97.93 c 52.789 96.07 55.371 95 58 95 c 60.629 95 63.211 96.07 65.07
 97.93 c h
65.07 97.93 m f
334.84 244.332 m 282.84 244.332 l 277.316 244.332 272.84 239.855 272.84
 234.332 c 272.84 228.812 277.316 224.332 282.84 224.332 c 334.84 224.332
 l 340.363 224.332 344.84 228.812 344.84 234.332 c 344.84 239.855 340.363
 244.332 334.84 244.332 c h
334.84 244.332 m f
334.84 205.668 m 256 205.668 l 250.477 205.668 246 201.188 246 195.668 
c 246 190.145 250.477 185.668 256 185.668 c 334.84 185.668 l 340.363 185.668
 344.84 190.145 344.84 195.668 c 344.84 201.188 340.363 205.668 334.84 205.668
 c h
334.84 205.668 m f
210.172 205.672 m 207.539 205.672 204.961 204.602 203.102 202.738 c 201.238
 200.879 200.172 198.301 200.172 195.672 c 200.172 193.031 201.238 190.461
 203.102 188.602 c 204.961 186.73 207.539 185.672 210.172 185.672 c 212.801
 185.672 215.379 186.73 217.238 188.602 c 219.102 190.461 220.172 193.039
 220.172 195.672 c 220.172 198.301 219.102 200.879 217.238 202.738 c 215.379
 204.602 212.801 205.672 210.172 205.672 c h
210.172 205.672 m f
364.43 356.93 m 366.383 354.977 368.941 354 371.5 354 c 374.059 354 376.617
 354.977 378.57 356.93 c 411.82 390.18 l 415.727 394.086 415.727 400.414
 411.82 404.32 c 407.914 408.227 401.586 408.227 397.68 404.32 c 371.5 378.141
 l 363.07 386.57 l 359.164 390.477 352.836 390.477 348.93 386.57 c 345.023
 382.664 345.023 376.336 348.93 372.43 c h
364.43 356.93 m f
Q Q
showpage
%%Trailer
end restore
%%EOF
