%!PS-Adobe-3.0 EPSF-3.0
%%Creator: cairo 1.14.2 (http://cairographics.org)
%%CreationDate: Mon Oct  8 09:05:16 2018
%%Pages: 1
%%DocumentData: Clean7Bit
%%LanguageLevel: 2
%%BoundingBox: 0 0 512 512
%%EndComments
%%BeginProlog
save
50 dict begin
/q { gsave } bind def
/Q { grestore } bind def
/cm { 6 array astore concat } bind def
/w { setlinewidth } bind def
/J { setlinecap } bind def
/j { setlinejoin } bind def
/M { setmiterlimit } bind def
/d { setdash } bind def
/m { moveto } bind def
/l { lineto } bind def
/c { curveto } bind def
/h { closepath } bind def
/re { exch dup neg 3 1 roll 5 3 roll moveto 0 rlineto
      0 exch rlineto 0 rlineto closepath } bind def
/S { stroke } bind def
/f { fill } bind def
/f* { eofill } bind def
/n { newpath } bind def
/W { clip } bind def
/W* { eoclip } bind def
/BT { } bind def
/ET { } bind def
/pdfmark where { pop globaldict /?pdfmark /exec load put }
    { globaldict begin /?pdfmark /pop load def /pdfmark
    /cleartomark load def end } ifelse
/BDC { mark 3 1 roll /BDC pdfmark } bind def
/EMC { mark /EMC pdfmark } bind def
/cairo_store_point { /cairo_point_y exch def /cairo_point_x exch def } def
/Tj { show currentpoint cairo_store_point } bind def
/TJ {
  {
    dup
    type /stringtype eq
    { show } { -0.001 mul 0 cairo_font_matrix dtransform rmoveto } ifelse
  } forall
  currentpoint cairo_store_point
} bind def
/cairo_selectfont { cairo_font_matrix aload pop pop pop 0 0 6 array astore
    cairo_font exch selectfont cairo_point_x cairo_point_y moveto } bind def
/Tf { pop /cairo_font exch def /cairo_font_matrix where
      { pop cairo_selectfont } if } bind def
/Td { matrix translate cairo_font_matrix matrix concatmatrix dup
      /cairo_font_matrix exch def dup 4 get exch 5 get cairo_store_point
      /cairo_font where { pop cairo_selectfont } if } bind def
/Tm { 2 copy 8 2 roll 6 array astore /cairo_font_matrix exch def
      cairo_store_point /cairo_font where { pop cairo_selectfont } if } bind def
/g { setgray } bind def
/rg { setrgbcolor } bind def
/d1 { setcachedevice } bind def
%%EndProlog
%%BeginSetup
%%EndSetup
%%Page: 1 1
%%BeginPageSetup
%%PageBoundingBox: 0 0 512 512
%%EndPageSetup
q 0 0 512 512 rectclip q
0 g
216 226 m 50 226 l 44.477 226 40 221.523 40 216 c 40 50 l 40 44.477 44.477
 40 50 40 c 216 40 l 221.523 40 226 44.477 226 50 c 226 216 l 226 221.523
 221.523 226 216 226 c h
60 191.855 m 118.855 133 l 60 74.145 l h
74.145 206 m 191.859 206 l 133 147.145 l h
133 118.855 m 191.855 60 l 74.145 60 l h
147.145 133 m 206 191.855 l 206 74.141 l h
147.145 133 m f
502 266 m 389 266 l 389 339.668 l 389 345.191 384.523 349.668 379 349.668
 c 373.477 349.668 369 345.191 369 339.668 c 369 266 l 143 266 l 143 492
 l 369 492 l 369 420.332 l 369 414.809 373.477 410.332 379 410.332 c 384.523
 410.332 389 414.809 389 420.332 c 389 502 l 389 507.523 384.523 512 379
 512 c 133 512 l 127.477 512 123 507.523 123 502 c 123 266 l 10 266 l 4.477
 266 0 261.523 0 256 c 0 10 l 0 4.477 4.477 0 10 0 c 502 0 l 507.523 0 512
 4.477 512 10 c 512 256 l 512 261.523 507.523 266 502 266 c h
20 246 m 246 246 l 246 20 l 20 20 l h
492 20 m 266 20 l 266 246 l 492 246 l h
492 20 m f
286 216 m 286 50 l 286 44.477 290.477 40 296 40 c 462 40 l 467.523 40 472
 44.477 472 50 c 472 216 l 472 221.523 467.523 226 462 226 c 296 226 l 290.477
 226 286 221.523 286 216 c h
364.859 133 m 306 74.141 l 306 191.855 l h
379 118.855 m 437.855 60 l 320.141 60 l h
452 74.145 m 393.145 133 l 407.344 147.199 l 411.246 151.102 411.246 157.434
 407.344 161.34 c 403.438 165.242 397.105 165.246 393.199 161.34 c 379 147.141
 l 320.145 206 l 452 206 l h
452 74.145 m f
425.621 169.621 m 428.254 169.621 430.832 170.691 432.691 172.551 c 434.555
 174.41 435.621 176.988 435.621 179.621 c 435.621 182.25 434.555 184.828
 432.691 186.691 c 430.832 188.551 428.254 189.621 425.621 189.621 c 422.984
 189.621 420.402 188.551 418.543 186.691 c 416.684 184.828 415.621 182.25
 415.621 179.621 c 415.621 176.988 416.684 174.41 418.543 172.551 c 420.414
 170.691 422.984 169.621 425.621 169.621 c h
425.621 169.621 m f
379.004 389.129 m 376.363 389.129 373.793 388.059 371.934 386.199 c 370.062
 384.34 369.004 381.762 369.004 379.129 c 369.004 376.488 370.062 373.922
 371.934 372.051 c 373.793 370.191 376.363 369.129 379.004 369.129 c 381.633
 369.129 384.215 370.191 386.074 372.051 c 387.934 373.922 389.004 376.488
 389.004 379.129 c 389.004 381.762 387.934 384.34 386.074 386.199 c 384.215
 388.059 381.633 389.129 379.004 389.129 c h
379.004 389.129 m f
173 472 m 167.477 472 163 467.523 163 462 c 163 296 l 163 290.477 167.477
 286 173 286 c 339 286 l 344.523 286 349 290.477 349 296 c 349 462 l 349
 467.523 344.523 472 339 472 c h
183 437.855 m 241.855 379 l 183 320.145 l h
197.145 452 m 314.859 452 l 256 393.145 l h
256 364.855 m 314.855 306 l 197.145 306 l h
270.145 379 m 329 437.855 l 329 320.141 l h
270.145 379 m f
Q Q
showpage
%%Trailer
end restore
%%EOF
