%!PS-Adobe-3.0 EPSF-3.0
%%Creator: cairo 1.14.2 (http://cairographics.org)
%%CreationDate: Mon Oct  8 09:05:16 2018
%%Pages: 1
%%DocumentData: Clean7Bit
%%LanguageLevel: 2
%%BoundingBox: 0 0 512 512
%%EndComments
%%BeginProlog
save
50 dict begin
/q { gsave } bind def
/Q { grestore } bind def
/cm { 6 array astore concat } bind def
/w { setlinewidth } bind def
/J { setlinecap } bind def
/j { setlinejoin } bind def
/M { setmiterlimit } bind def
/d { setdash } bind def
/m { moveto } bind def
/l { lineto } bind def
/c { curveto } bind def
/h { closepath } bind def
/re { exch dup neg 3 1 roll 5 3 roll moveto 0 rlineto
      0 exch rlineto 0 rlineto closepath } bind def
/S { stroke } bind def
/f { fill } bind def
/f* { eofill } bind def
/n { newpath } bind def
/W { clip } bind def
/W* { eoclip } bind def
/BT { } bind def
/ET { } bind def
/pdfmark where { pop globaldict /?pdfmark /exec load put }
    { globaldict begin /?pdfmark /pop load def /pdfmark
    /cleartomark load def end } ifelse
/BDC { mark 3 1 roll /BDC pdfmark } bind def
/EMC { mark /EMC pdfmark } bind def
/cairo_store_point { /cairo_point_y exch def /cairo_point_x exch def } def
/Tj { show currentpoint cairo_store_point } bind def
/TJ {
  {
    dup
    type /stringtype eq
    { show } { -0.001 mul 0 cairo_font_matrix dtransform rmoveto } ifelse
  } forall
  currentpoint cairo_store_point
} bind def
/cairo_selectfont { cairo_font_matrix aload pop pop pop 0 0 6 array astore
    cairo_font exch selectfont cairo_point_x cairo_point_y moveto } bind def
/Tf { pop /cairo_font exch def /cairo_font_matrix where
      { pop cairo_selectfont } if } bind def
/Td { matrix translate cairo_font_matrix matrix concatmatrix dup
      /cairo_font_matrix exch def dup 4 get exch 5 get cairo_store_point
      /cairo_font where { pop cairo_selectfont } if } bind def
/Tm { 2 copy 8 2 roll 6 array astore /cairo_font_matrix exch def
      cairo_store_point /cairo_font where { pop cairo_selectfont } if } bind def
/g { setgray } bind def
/rg { setrgbcolor } bind def
/d1 { setcachedevice } bind def
%%EndProlog
%%BeginSetup
%%EndSetup
%%Page: 1 1
%%BeginPageSetup
%%PageBoundingBox: 0 0 512 512
%%EndPageSetup
q 0 0 512 512 rectclip q
0 g
391.672 406.621 m 394.301 406.621 396.879 407.691 398.738 409.551 c 400.602
 411.41 401.672 413.988 401.672 416.621 c 401.672 419.25 400.602 421.828
 398.738 423.691 c 396.879 425.551 394.301 426.621 391.672 426.621 c 389.031
 426.621 386.461 425.551 384.59 423.691 c 382.73 421.828 381.672 419.25 
381.672 416.621 c 381.672 413.988 382.73 411.41 384.59 409.551 c 386.461
 407.691 389.031 406.621 391.672 406.621 c h
391.672 406.621 m f
506.703 319.098 m 424.703 362.824 l 421.605 364.477 417.867 364.383 414.855
 362.574 c 411.844 360.77 410 357.512 410 354 c 410 326.938 l 342.703 362.824
 l 339.605 364.477 335.867 364.383 332.855 362.574 c 329.844 360.766 328
 357.512 328 354 c 328 326.938 l 260.703 362.824 l 257.605 364.477 253.867
 364.383 250.855 362.574 c 247.844 360.77 246 357.512 246 354 c 246 244 
l 92 244 l 92 354 l 92 359.523 87.523 364 82 364 c 67.66 364 l 67.66 378.16
 l 67.66 380.555 69.605 382.5 72 382.5 c 77.523 382.5 82 386.977 82 392.5
 c 82 398.023 77.523 402.5 72 402.5 c 58.578 402.5 47.66 391.582 47.66 378.16
 c 47.66 364 l 30 364 l 30 411.039 l 30 430.086 45.496 445.582 64.539 445.582
 c 80.688 445.582 l 80.078 442.84 79.75 440.031 79.75 437.203 c 79.75 416.137
 96.891 399 117.953 399 c 155.711 399 l 161.234 399 165.711 403.477 165.711
 409 c 165.711 414.523 161.234 419 155.711 419 c 117.953 419 l 107.918 419
 99.75 427.168 99.75 437.203 c 99.75 442.27 101.848 447.23 105.5 450.816
 c 109.016 454.262 113.559 456.09 118.32 456.02 c 120.965 455.969 123.504
 455.363 125.863 454.227 c 128.383 453.012 131.293 452.906 133.895 453.934
 c 136.492 454.965 138.543 457.035 139.547 459.645 c 146.984 478.996 165.914
 492 186.648 492 c 207.578 492 226.223 478.871 233.656 459.852 c 230.602
 458.168 227.715 456.176 225.086 453.891 c 220.688 450.07 217.035 445.555
 214.227 440.469 c 211.555 435.637 213.309 429.551 218.145 426.883 c 219.676
 426.035 221.336 425.633 222.973 425.633 c 226.492 425.633 229.91 427.496
 231.73 430.797 c 233.406 433.824 235.586 436.516 238.207 438.797 c 241.359
 441.535 245.113 443.586 249.094 444.77 c 251.793 445.57 254.605 445.988
 257.461 445.988 c 273.652 445.988 286.828 432.812 286.828 416.621 c 286.828
 411.098 291.305 406.621 296.828 406.621 c 351.379 406.621 l 356.902 406.621
 361.379 411.098 361.379 416.621 c 361.379 422.145 356.902 426.621 351.379
 426.621 c 305.812 426.621 l 301.176 449.066 281.258 465.988 257.461 465.988
 c 255.902 465.988 254.352 465.914 252.809 465.77 c 242.781 493.059 216.359
 512 186.648 512 c 160.879 512 137.109 497.617 124.871 475.402 c 122.852
 475.77 120.793 475.977 118.707 476.016 c 108.754 476.215 99.328 472.5 92.02
 465.582 c 64.539 465.582 l 34.469 465.582 10 441.113 10 411.039 c 10 364
 l 4.477 364 0 359.523 0 354 c 0 10 l 0 4.477 4.477 0 10 0 c 502 0 l 507.523
 0 512 4.477 512 10 c 512 310.273 l 512 313.969 509.965 317.359 506.703 
319.098 c h
20 304 m 72 304 l 72 60 l 20 60 l h
72 324 m 20 324 l 20 344 l 72 344 l h
20 40 m 72 40 l 72 20 l 20 20 l h
256 20 m 92 20 l 92 184 l 182 184 l 187.523 184 192 188.477 192 194 c 192
 199.523 187.523 204 182 204 c 92 204 l 92 224 l 392 224 l 392 20 l h
492 20 m 412 20 l 412 234 l 412 239.523 407.523 244 402 244 c 266 244 l
 266 337.336 l 333.297 301.449 l 336.395 299.797 340.133 299.895 343.145
 301.699 c 346.156 303.508 348 306.762 348 310.273 c 348 337.336 l 415.297
 301.453 l 418.395 299.797 422.133 299.895 425.145 301.699 c 428.156 303.508
 430 306.762 430 310.277 c 430 337.336 l 492 304.277 l h
492 20 m f
170 156 m 122 156 l 116.477 156 112 151.523 112 146 c 112 98 l 112 92.477
 116.477 88 122 88 c 170 88 l 175.523 88 180 92.477 180 98 c 180 146 l 180
 151.523 175.523 156 170 156 c h
160 108 m 132 108 l 132 136 l 160 136 l h
160 108 m f
266 156 m 218 156 l 212.477 156 208 151.523 208 146 c 208 98 l 208 92.477
 212.477 88 218 88 c 266 88 l 271.523 88 276 92.477 276 98 c 276 146 l 276
 151.523 271.523 156 266 156 c h
256 108 m 228 108 l 228 136 l 256 136 l h
256 108 m f
362 156 m 314 156 l 308.477 156 304 151.523 304 146 c 304 98 l 304 92.477
 308.477 88 314 88 c 362 88 l 367.523 88 372 92.477 372 98 c 372 146 l 372
 151.523 367.523 156 362 156 c h
352 108 m 324 108 l 324 136 l 352 136 l h
352 108 m f
219.172 184 m 221.801 184 224.379 185.07 226.238 186.93 c 228.102 188.789
 229.172 191.371 229.172 194 c 229.172 196.629 228.102 199.211 226.238 201.07
 c 224.379 202.93 221.801 204 219.172 204 c 216.531 204 213.961 202.93 212.102
 201.07 c 210.23 199.211 209.172 196.629 209.172 194 c 209.172 191.371 210.23
 188.789 212.102 186.93 c 213.961 185.07 216.539 184 219.172 184 c h
219.172 184 m f
Q Q
showpage
%%Trailer
end restore
%%EOF
