%!PS-Adobe-3.0 EPSF-3.0
%%Creator: cairo 1.14.2 (http://cairographics.org)
%%CreationDate: Mon Oct  8 09:05:16 2018
%%Pages: 1
%%DocumentData: Clean7Bit
%%LanguageLevel: 2
%%BoundingBox: 0 78 512 434
%%EndComments
%%BeginProlog
save
50 dict begin
/q { gsave } bind def
/Q { grestore } bind def
/cm { 6 array astore concat } bind def
/w { setlinewidth } bind def
/J { setlinecap } bind def
/j { setlinejoin } bind def
/M { setmiterlimit } bind def
/d { setdash } bind def
/m { moveto } bind def
/l { lineto } bind def
/c { curveto } bind def
/h { closepath } bind def
/re { exch dup neg 3 1 roll 5 3 roll moveto 0 rlineto
      0 exch rlineto 0 rlineto closepath } bind def
/S { stroke } bind def
/f { fill } bind def
/f* { eofill } bind def
/n { newpath } bind def
/W { clip } bind def
/W* { eoclip } bind def
/BT { } bind def
/ET { } bind def
/pdfmark where { pop globaldict /?pdfmark /exec load put }
    { globaldict begin /?pdfmark /pop load def /pdfmark
    /cleartomark load def end } ifelse
/BDC { mark 3 1 roll /BDC pdfmark } bind def
/EMC { mark /EMC pdfmark } bind def
/cairo_store_point { /cairo_point_y exch def /cairo_point_x exch def } def
/Tj { show currentpoint cairo_store_point } bind def
/TJ {
  {
    dup
    type /stringtype eq
    { show } { -0.001 mul 0 cairo_font_matrix dtransform rmoveto } ifelse
  } forall
  currentpoint cairo_store_point
} bind def
/cairo_selectfont { cairo_font_matrix aload pop pop pop 0 0 6 array astore
    cairo_font exch selectfont cairo_point_x cairo_point_y moveto } bind def
/Tf { pop /cairo_font exch def /cairo_font_matrix where
      { pop cairo_selectfont } if } bind def
/Td { matrix translate cairo_font_matrix matrix concatmatrix dup
      /cairo_font_matrix exch def dup 4 get exch 5 get cairo_store_point
      /cairo_font where { pop cairo_selectfont } if } bind def
/Tm { 2 copy 8 2 roll 6 array astore /cairo_font_matrix exch def
      cairo_store_point /cairo_font where { pop cairo_selectfont } if } bind def
/g { setgray } bind def
/rg { setrgbcolor } bind def
/d1 { setcachedevice } bind def
%%EndProlog
%%BeginSetup
%%EndSetup
%%Page: 1 1
%%BeginPageSetup
%%PageBoundingBox: 0 78 512 434
%%EndPageSetup
q 0 78 512 356 rectclip q
0 g
512 189.996 m 512 279.012 l 512 281.664 510.945 284.207 509.07 286.082 
c 422.996 372.141 l 419.219 375.918 414.199 377.996 408.855 377.996 c 360
 377.996 l 360 424 l 360 429.523 355.523 434 350 434 c 10 434 l 4.477 434
 0 429.523 0 424 c 0 160 l 0 154.477 4.477 150 10 150 c 39.414 150 l 34.32
 142.598 31.332 133.645 31.332 124 c 31.332 114.355 34.32 105.402 39.414
 98 c 10 98 l 4.477 98 0 93.523 0 88 c 0 82.477 4.477 78 10 78 c 210.84 
78 l 216.363 78 220.84 82.477 220.84 88 c 220.84 93.523 216.363 98 210.84
 98 c 187.254 98 l 192.344 105.402 195.336 114.355 195.336 124 c 195.336
 133.645 192.348 142.598 187.254 150 c 354.078 149.996 l 348.988 142.598
 346 133.641 346 124 c 346 114.355 348.988 105.402 354.078 98 c 283.445 
98 l 277.926 98 273.445 93.523 273.445 88 c 273.445 82.48 277.926 78 283.445
 78 c 502 78 l 507.523 78 512 82.48 512 88 c 512 93.523 507.523 98 502 98
 c 429.922 98 l 435.012 105.402 438 114.355 438 124 c 438 133.641 435.012
 142.598 429.922 149.996 c 472 149.996 l 494.055 149.996 512 167.941 512
 189.996 c h
492 270 m 456.145 270 l 476.504 290.363 l 492 274.867 l h
462.359 304.504 m 427.891 270.031 l 417.156 270.371 408.527 279.188 408.527
 290 c 408.527 357.996 l 408.855 357.996 l h
388.527 357.996 m 388.527 290 l 388.527 267.945 406.469 250 428.527 250
 c 492 250 l 492 229.336 l 461 229.336 l 455.477 229.336 451 224.855 451
 219.336 c 451 213.812 455.477 209.336 461 209.336 c 492 209.336 l 492 189.996
 l 492 178.969 483.027 169.996 472 169.996 c 360 169.996 l 360 357.996 l
 h
20 414 m 340 414 l 340 170 l 20 170 l h
51.332 124 m 51.332 138.336 62.996 150 77.332 150 c 91.668 150 103.332 
138.336 103.332 124 c 103.332 109.664 91.668 98 77.332 98 c 62.996 98 51.332
 109.664 51.332 124 c h
175.332 124 m 175.332 109.664 163.668 98 149.332 98 c 134.996 98 123.332
 109.664 123.332 124 c 123.332 138.336 134.996 150 149.332 150 c 163.668
 150 175.332 138.336 175.332 124 c h
418 124 m 418 109.676 406.355 98.023 392.039 98 c 391.961 98 l 377.645 
98.023 366 109.676 366 124 c 366 138.297 377.602 149.934 391.887 149.996
 c 392.117 149.996 l 406.398 149.934 418 138.297 418 124 c h
418 124 m f
249.5 98 m 249.371 98 l 243.848 98 239.371 93.523 239.371 88 c 239.371 
82.477 243.848 78 249.371 78 c 249.5 78 l 255.023 78 259.5 82.477 259.5 
88 c 259.5 93.523 255.023 98 249.5 98 c h
249.5 98 m f
426.469 209.328 m 429.102 209.328 431.68 210.398 433.539 212.262 c 435.398
 214.121 436.469 216.699 436.469 219.328 c 436.469 221.969 435.398 224.551
 433.539 226.41 c 431.68 228.27 429.102 229.328 426.469 229.328 c 423.84
 229.328 421.262 228.27 419.398 226.41 c 417.539 224.539 416.469 221.969
 416.469 219.328 c 416.469 216.699 417.539 214.129 419.398 212.262 c 421.262
 210.398 423.84 209.328 426.469 209.328 c h
426.469 209.328 m f
256 206 m 261.523 206 266 210.477 266 216 c 266 368 l 266 373.523 261.523
 378 256 378 c 104 378 l 98.477 378 94 373.523 94 368 c 94 302 l 75.168 
302 l 69.645 302 65.168 297.523 65.168 292 c 65.168 286.477 69.645 282 75.168
 282 c 94 282 l 94 226 l 48 226 l 42.477 226 38 221.523 38 216 c 38 210.477
 42.477 206 48 206 c h
194 358 m 194 327.906 l 187.02 334.785 l 185.074 336.707 182.535 337.664
 180 337.664 c 177.465 337.664 174.926 336.707 172.98 334.785 c 166 327.906
 l 166 358 l h
114 358 m 146 358 l 146 304 l 146 299.969 148.422 296.332 152.141 294.773
 c 155.863 293.219 160.152 294.047 163.023 296.879 c 180 313.621 l 196.98
 296.879 l 198.887 294.996 201.426 294 204.004 294 c 205.301 294 206.613
 294.254 207.859 294.773 c 211.578 296.328 214 299.969 214 304 c 214 358
 l 246 358 l 246 226 l 114 226 l h
114 358 m f
196.75 246 m 224.75 246 l 230.273 246 234.75 250.477 234.75 256 c 234.75
 261.523 230.273 266 224.75 266 c 196.75 266 l 191.227 266 186.75 261.523
 186.75 256 c 186.75 250.477 191.227 246 196.75 246 c h
196.75 246 m f
Q Q
showpage
%%Trailer
end restore
%%EOF
