%!PS-Adobe-3.0 EPSF-3.0
%%Creator: cairo 1.14.2 (http://cairographics.org)
%%CreationDate: Mon Oct  8 09:05:16 2018
%%Pages: 1
%%DocumentData: Clean7Bit
%%LanguageLevel: 2
%%BoundingBox: 0 0 512 512
%%EndComments
%%BeginProlog
save
50 dict begin
/q { gsave } bind def
/Q { grestore } bind def
/cm { 6 array astore concat } bind def
/w { setlinewidth } bind def
/J { setlinecap } bind def
/j { setlinejoin } bind def
/M { setmiterlimit } bind def
/d { setdash } bind def
/m { moveto } bind def
/l { lineto } bind def
/c { curveto } bind def
/h { closepath } bind def
/re { exch dup neg 3 1 roll 5 3 roll moveto 0 rlineto
      0 exch rlineto 0 rlineto closepath } bind def
/S { stroke } bind def
/f { fill } bind def
/f* { eofill } bind def
/n { newpath } bind def
/W { clip } bind def
/W* { eoclip } bind def
/BT { } bind def
/ET { } bind def
/pdfmark where { pop globaldict /?pdfmark /exec load put }
    { globaldict begin /?pdfmark /pop load def /pdfmark
    /cleartomark load def end } ifelse
/BDC { mark 3 1 roll /BDC pdfmark } bind def
/EMC { mark /EMC pdfmark } bind def
/cairo_store_point { /cairo_point_y exch def /cairo_point_x exch def } def
/Tj { show currentpoint cairo_store_point } bind def
/TJ {
  {
    dup
    type /stringtype eq
    { show } { -0.001 mul 0 cairo_font_matrix dtransform rmoveto } ifelse
  } forall
  currentpoint cairo_store_point
} bind def
/cairo_selectfont { cairo_font_matrix aload pop pop pop 0 0 6 array astore
    cairo_font exch selectfont cairo_point_x cairo_point_y moveto } bind def
/Tf { pop /cairo_font exch def /cairo_font_matrix where
      { pop cairo_selectfont } if } bind def
/Td { matrix translate cairo_font_matrix matrix concatmatrix dup
      /cairo_font_matrix exch def dup 4 get exch 5 get cairo_store_point
      /cairo_font where { pop cairo_selectfont } if } bind def
/Tm { 2 copy 8 2 roll 6 array astore /cairo_font_matrix exch def
      cairo_store_point /cairo_font where { pop cairo_selectfont } if } bind def
/g { setgray } bind def
/rg { setrgbcolor } bind def
/d1 { setcachedevice } bind def
%%EndProlog
%%BeginSetup
%%EndSetup
%%Page: 1 1
%%BeginPageSetup
%%PageBoundingBox: 0 0 512 512
%%EndPageSetup
q 0 0 512 512 rectclip q
0 g
512 106 m 512 111.523 507.523 116 502 116 c 158 116 l 158 202 l 158 207.523
 153.523 212 148 212 c 52 212 l 46.477 212 42 207.523 42 202 c 42 116 l 
10 116 l 4.477 116 0 111.523 0 106 c 0 100.477 4.477 96 10 96 c 14.238 96
 l 5.383 85.812 0 72.527 0 58 c 0 43.473 5.383 30.188 14.238 20 c 10 20 
l 4.477 20 0 15.523 0 10 c 0 4.477 4.477 0 10 0 c 502 0 l 507.523 0 512 
4.477 512 10 c 512 15.523 507.523 20 502 20 c 497.762 20 l 506.617 30.188
 512 43.473 512 58 c 512 72.527 506.617 85.812 497.762 96 c 502 96 l 507.523
 96 512 100.477 512 106 c h
76.145 116 m 100 139.859 l 123.855 116 l h
138 130.145 m 114.145 154 l 138 177.859 l h
100 168.145 m 76.145 192 l 123.859 192 l h
85.855 154 m 62 130.145 l 62 177.859 l h
148 96 m 212.238 96 l 203.383 85.812 198 72.527 198 58 c 198 43.473 203.383
 30.188 212.238 20 c 101.762 20 l 110.617 30.188 116 43.473 116 58 c 116
 72.527 110.617 85.812 101.762 96 c h
218 58 m 218 78.953 235.047 96 256 96 c 276.953 96 294 78.953 294 58 c 
294 37.047 276.953 20 256 20 c 235.047 20 218 37.047 218 58 c h
299.762 96 m 410.238 96 l 401.383 85.812 396 72.527 396 58 c 396 43.473
 401.383 30.188 410.238 20 c 299.762 20 l 308.617 30.188 314 43.473 314 
58 c 314 72.527 308.617 85.812 299.762 96 c h
20 58 m 20 78.953 37.047 96 58 96 c 78.953 96 96 78.953 96 58 c 96 37.047
 78.953 20 58 20 c 37.047 20 20 37.047 20 58 c h
492 58 m 492 37.047 474.953 20 454 20 c 433.047 20 416 37.047 416 58 c 
416 78.953 433.047 96 454 96 c 474.953 96 492 78.953 492 58 c h
492 58 m f
256 68 m 253.371 68 250.789 66.93 248.93 65.07 c 247.07 63.211 246 60.629
 246 58 c 246 55.371 247.07 52.789 248.93 50.93 c 250.789 49.07 253.371 
48 256 48 c 258.629 48 261.211 49.07 263.07 50.93 c 264.93 52.789 266 55.371
 266 58 c 266 60.629 264.93 63.211 263.07 65.07 c 261.211 66.93 258.629 
68 256 68 c h
256 68 m f
454 48 m 456.629 48 459.211 49.07 461.07 50.93 c 462.93 52.789 464 55.371
 464 58 c 464 60.629 462.93 63.211 461.07 65.07 c 459.211 66.93 456.629 
68 454 68 c 451.371 68 448.789 66.93 446.93 65.07 c 445.07 63.211 444 60.629
 444 58 c 444 55.371 445.07 52.789 446.93 50.93 c 448.789 49.07 451.371 
48 454 48 c h
454 48 m f
58 68 m 55.371 68 52.789 66.93 50.93 65.07 c 49.07 63.211 48 60.629 48 
58 c 48 55.371 49.07 52.789 50.93 50.93 c 52.789 49.07 55.371 48 58 48 c
 60.629 48 63.211 49.07 65.07 50.93 c 66.93 52.789 68 55.371 68 58 c 68 
60.629 66.93 63.211 65.07 65.07 c 63.211 66.93 60.629 68 58 68 c h
58 68 m f
263.199 446.93 m 265.059 448.789 266.129 451.371 266.129 454 c 266.129 
456.633 265.059 459.211 263.199 461.07 c 261.34 462.93 258.762 464 256.129
 464 c 253.488 464 250.922 462.93 249.059 461.07 c 247.191 459.211 246.129
 456.633 246.129 454 c 246.129 451.371 247.191 448.789 249.059 446.93 c 
250.922 445.07 253.488 444 256.129 444 c 258.762 444 261.34 445.07 263.199
 446.93 c h
263.199 446.93 m f
100 484 m 97.371 484 94.789 482.93 92.93 481.07 c 91.07 479.211 90 476.633
 90 474 c 90 471.371 91.07 468.789 92.93 466.93 c 94.789 465.07 97.371 464
 100 464 c 102.629 464 105.211 465.07 107.07 466.93 c 108.93 468.789 110
 471.371 110 474 c 110 476.629 108.93 479.211 107.07 481.07 c 105.211 482.93
 102.629 484 100 484 c h
100 484 m f
502 512 m 10 512 l 4.477 512 0 507.523 0 502 c 0 454 l 0 448.477 4.477 
444 10 444 c 54.199 444 l 55.129 439.434 59.164 436 64 436 c 90 436 l 90
 386.977 l 15.383 330.562 l 12.883 328.672 11.414 325.719 11.414 322.586
 c 11.414 249.664 l 11.414 244.145 15.891 239.664 21.414 239.664 c 26.938
 239.664 31.414 244.145 31.414 249.664 c 31.414 317.609 l 100 369.465 l 
168.586 317.609 l 168.586 249.668 l 168.586 244.145 173.062 239.668 178.586
 239.668 c 184.109 239.668 188.586 244.145 188.586 249.668 c 188.586 322.586
 l 188.586 325.719 187.117 328.672 184.617 330.562 c 110 386.977 l 110 436
 l 136 436 l 140.84 436 144.871 439.434 145.801 444 c 216.332 444 l 221.855
 444 226.332 448.477 226.332 454 c 226.332 459.523 221.855 464 216.332 464
 c 146 464 l 146 492 l 368.172 492 l 368.172 464 l 297 464 l 291.477 464
 287 459.523 287 454 c 287 448.477 291.477 444 297 444 c 368.371 444 l 369.297
 439.438 373.332 436 378.172 436 c 404.172 436 l 404.172 386.977 l 329.555
 330.562 l 327.055 328.672 325.586 325.719 325.586 322.586 c 325.586 257
 l 325.586 253.012 327.953 249.406 331.613 247.82 c 356.172 237.195 l 356.172
 214 l 356.172 208.477 360.648 204 366.172 204 c 462.172 204 l 467.691 204
 472.172 208.477 472.172 214 c 472.172 237.07 l 496.766 247.84 l 500.406
 249.434 502.758 253.027 502.758 257 c 502.758 322.586 l 502.758 325.719
 501.285 328.672 498.785 330.562 c 424.172 386.977 l 424.172 436 l 450.172
 436 l 455.008 436 459.043 439.434 459.969 444 c 502 444 l 507.523 444 512
 448.477 512 454 c 512 502 l 512 507.523 507.523 512 502 512 c h
376.172 285.859 m 400.027 262 l 376.172 238.145 l h
414.172 247.859 m 438.027 224 l 390.312 224 l h
428.312 262 m 452.172 285.855 l 452.172 238.141 l h
414.172 276.145 m 390.312 300 l 438.027 300 l h
482.758 263.539 m 472.172 258.902 l 472.172 310 l 472.172 315.523 467.695
 320 462.172 320 c 366.172 320 l 360.648 320 356.172 315.523 356.172 310
 c 356.172 258.988 l 345.586 263.57 l 345.586 317.609 l 414.172 369.465 
l 482.758 317.609 l h
440.172 456 m 388.172 456 l 388.172 492 l 440.172 492 l h
20 492 m 54 492 l 54 464 l 20 464 l h
74 492 m 126 492 l 126 456 l 74 456 l h
492 464 m 460.172 464 l 460.172 492 l 492 492 l h
492 464 m f
407.102 466.93 m 408.961 465.07 411.539 464 414.172 464 c 416.801 464 419.379
 465.07 421.238 466.93 c 423.102 468.789 424.172 471.371 424.172 474 c 424.172
 476.633 423.102 479.211 421.238 481.07 c 419.379 482.93 416.801 484 414.172
 484 c 411.539 484 408.961 482.93 407.102 481.07 c 405.238 479.211 404.172
 476.633 404.172 474 c 404.172 471.371 405.238 468.789 407.102 466.93 c 
h
407.102 466.93 m f
235.402 217.504 m 235.402 211.98 239.879 207.504 245.402 207.504 c 328.406
 207.504 l 333.93 207.504 338.406 211.98 338.406 217.504 c 338.406 223.027
 333.93 227.504 328.406 227.504 c 245.402 227.504 l 239.879 227.504 235.402
 223.027 235.402 217.504 c h
235.402 217.504 m f
203.898 227.5 m 201.27 227.5 198.691 226.441 196.828 224.57 c 194.969 222.711
 193.898 220.141 193.898 217.5 c 193.898 214.871 194.969 212.301 196.828
 210.43 c 198.691 208.57 201.27 207.5 203.898 207.5 c 206.531 207.5 209.109
 208.57 210.969 210.43 c 212.828 212.301 213.898 214.871 213.898 217.5 c
 213.898 220.141 212.828 222.711 210.969 224.57 c 209.109 226.441 206.531
 227.5 203.898 227.5 c h
203.898 227.5 m f
213.25 257.5 m 213.25 251.977 217.727 247.5 223.25 247.5 c 286.902 247.5
 l 292.426 247.5 296.902 251.977 296.902 257.5 c 296.902 263.023 292.426
 267.5 286.902 267.5 c 223.25 267.5 l 217.727 267.5 213.25 263.023 213.25
 257.5 c h
213.25 257.5 m f
Q Q
showpage
%%Trailer
end restore
%%EOF
