%!PS-Adobe-3.0 EPSF-3.0
%%Creator: cairo 1.14.2 (http://cairographics.org)
%%CreationDate: Mon Oct  8 09:05:16 2018
%%Pages: 1
%%DocumentData: Clean7Bit
%%LanguageLevel: 2
%%BoundingBox: 0 54 512 458
%%EndComments
%%BeginProlog
save
50 dict begin
/q { gsave } bind def
/Q { grestore } bind def
/cm { 6 array astore concat } bind def
/w { setlinewidth } bind def
/J { setlinecap } bind def
/j { setlinejoin } bind def
/M { setmiterlimit } bind def
/d { setdash } bind def
/m { moveto } bind def
/l { lineto } bind def
/c { curveto } bind def
/h { closepath } bind def
/re { exch dup neg 3 1 roll 5 3 roll moveto 0 rlineto
      0 exch rlineto 0 rlineto closepath } bind def
/S { stroke } bind def
/f { fill } bind def
/f* { eofill } bind def
/n { newpath } bind def
/W { clip } bind def
/W* { eoclip } bind def
/BT { } bind def
/ET { } bind def
/pdfmark where { pop globaldict /?pdfmark /exec load put }
    { globaldict begin /?pdfmark /pop load def /pdfmark
    /cleartomark load def end } ifelse
/BDC { mark 3 1 roll /BDC pdfmark } bind def
/EMC { mark /EMC pdfmark } bind def
/cairo_store_point { /cairo_point_y exch def /cairo_point_x exch def } def
/Tj { show currentpoint cairo_store_point } bind def
/TJ {
  {
    dup
    type /stringtype eq
    { show } { -0.001 mul 0 cairo_font_matrix dtransform rmoveto } ifelse
  } forall
  currentpoint cairo_store_point
} bind def
/cairo_selectfont { cairo_font_matrix aload pop pop pop 0 0 6 array astore
    cairo_font exch selectfont cairo_point_x cairo_point_y moveto } bind def
/Tf { pop /cairo_font exch def /cairo_font_matrix where
      { pop cairo_selectfont } if } bind def
/Td { matrix translate cairo_font_matrix matrix concatmatrix dup
      /cairo_font_matrix exch def dup 4 get exch 5 get cairo_store_point
      /cairo_font where { pop cairo_selectfont } if } bind def
/Tm { 2 copy 8 2 roll 6 array astore /cairo_font_matrix exch def
      cairo_store_point /cairo_font where { pop cairo_selectfont } if } bind def
/g { setgray } bind def
/rg { setrgbcolor } bind def
/d1 { setcachedevice } bind def
%%EndProlog
%%BeginSetup
%%EndSetup
%%Page: 1 1
%%BeginPageSetup
%%PageBoundingBox: 0 54 512 458
%%EndPageSetup
q 0 54 512 404 rectclip q
0 g
502 74 m 458 74 l 458 123.359 l 492.855 158.277 512 204.461 512 253.898
 c 512 286.148 503.555 317.91 487.578 345.746 c 479.348 360.09 464.551 368.652
 448 368.652 c 431.449 368.652 416.652 360.09 408.422 345.746 c 392.445 
317.91 384 286.148 384 253.895 c 384 249.934 384.141 245.961 384.395 242
 c 317 242 l 311.477 242 307 237.523 307 232 c 307 226.477 311.477 222 317
 222 c 390.855 222 l 423.855 189 l 182.145 189 l 149.145 222 l 238 222 l
 243.523 222 248 226.477 248 232 c 248 237.523 243.523 242 238 242 c 63 
242 l 60.348 242 57.805 240.945 55.93 239.07 c 2.93 186.07 l 1.055 184.195
 0 181.652 0 179 c 0 64 l 0 58.477 4.477 54 10 54 c 502 54 l 507.523 54 
512 58.477 512 64 c 512 69.523 507.523 74 502 74 c h
188 169 m 438 169 l 438 74 l 188 74 l h
404.953 236.191 m 404.328 242.035 404 247.98 404 253.895 c 404 263.762 
404.906 273.574 406.645 283.211 c 438 251.855 l 438 203.145 l h
458 153.59 m 458 224.855 l 491.922 258.777 l 491.969 257.152 492 255.523
 492 253.895 c 492 217.047 480.07 182.219 458 153.59 c h
425.77 335.789 m 430.391 343.844 438.703 348.652 448 348.652 c 457.297 
348.652 465.609 343.844 470.23 335.789 c 479.441 319.742 485.824 302.223
 489.199 284.066 c 488.664 283.711 488.152 283.297 487.68 282.82 c 458 253.145
 l 458 300.25 l 458 305.773 453.523 310.25 448 310.25 c 442.477 310.25 438
 305.773 438 300.25 c 438 280.145 l 412.371 305.773 l 415.816 316.18 420.289
 326.246 425.77 335.789 c h
68 74 m 68 138 l 120 138 l 120 74 l h
140 74 m 140 148 l 140 153.523 135.523 158 130 158 c 58 158 l 52.477 158
 48 153.523 48 148 c 48 74 l 20 74 l 20 174.855 l 67.145 222 l 120.859 222
 l 168 174.855 l 168 74 l h
140 74 m f
272.93 239.07 m 271.07 237.211 270 234.629 270 232 c 270 229.371 271.07
 226.789 272.93 224.93 c 274.789 223.07 277.371 222 280 222 c 282.629 222
 285.211 223.07 287.07 224.93 c 288.93 226.789 290 229.371 290 232 c 290
 234.629 288.93 237.211 287.07 239.07 c 285.211 240.93 282.629 242 280 242
 c 277.371 242 274.789 240.93 272.93 239.07 c h
272.93 239.07 m f
258 151.5 m 218 151.5 l 212.477 151.5 208 147.023 208 141.5 c 208 101.5
 l 208 95.977 212.477 91.5 218 91.5 c 258 91.5 l 263.523 91.5 268 95.977
 268 101.5 c 268 141.5 l 268 147.023 263.523 151.5 258 151.5 c h
248 111.5 m 228 111.5 l 228 131.5 l 248 131.5 l h
248 111.5 m f
333 151.5 m 293 151.5 l 287.477 151.5 283 147.023 283 141.5 c 283 101.5
 l 283 95.977 287.477 91.5 293 91.5 c 333 91.5 l 338.523 91.5 343 95.977
 343 101.5 c 343 141.5 l 343 147.023 338.523 151.5 333 151.5 c h
323 111.5 m 303 111.5 l 303 131.5 l 323 131.5 l h
323 111.5 m f
408 151.5 m 368 151.5 l 362.477 151.5 358 147.023 358 141.5 c 358 101.5
 l 358 95.977 362.477 91.5 368 91.5 c 408 91.5 l 413.523 91.5 418 95.977
 418 101.5 c 418 141.5 l 418 147.023 413.523 151.5 408 151.5 c h
398 111.5 m 378 111.5 l 378 131.5 l 398 131.5 l h
398 111.5 m f
87.555 360.332 m 119.086 360.332 l 124.605 360.332 129.086 364.809 129.086
 370.332 c 129.086 375.855 124.605 380.332 119.086 380.332 c 87.555 380.332
 l 80.082 380.332 74 386.414 74 393.887 c 74 397.676 75.57 401.391 78.309
 404.074 c 80.926 406.641 84.281 408.008 87.828 407.949 c 89.801 407.914
 91.688 407.465 93.441 406.617 c 95.961 405.402 98.871 405.297 101.473 406.324
 c 104.07 407.352 106.121 409.426 107.125 412.035 c 113.094 427.566 128.281
 438 144.922 438 c 161.234 438 175.809 428.066 182.102 413.516 c 179.926
 412.215 177.855 410.73 175.941 409.066 c 172.125 405.75 168.953 401.828
 166.512 397.41 c 163.84 392.578 165.594 386.492 170.426 383.82 c 171.961
 382.977 173.617 382.57 175.254 382.57 c 178.773 382.57 182.191 384.438 
184.016 387.738 c 185.32 390.098 187.02 392.195 189.059 393.973 c 191.516
 396.105 194.434 397.699 197.531 398.621 c 199.637 399.246 201.832 399.574
 204.059 399.574 c 216.672 399.574 226.938 389.309 226.938 376.695 c 226.938
 371.172 231.414 366.695 236.938 366.695 c 273 366.695 l 278.523 366.695
 283 371.172 283 376.695 c 283 382.219 278.523 386.695 273 386.695 c 245.758
 386.695 l 241.242 405.531 224.262 419.574 204.059 419.574 c 203.129 419.574
 202.203 419.543 201.277 419.484 c 192.352 442.277 170 458 144.922 458 c
 123.195 458 103.125 446.094 92.461 427.602 c 91.062 427.805 89.648 427.922
 88.215 427.949 c 79.305 428.129 70.785 424.715 64.305 418.355 c 57.754 
411.934 54 403.016 54 393.887 c 54 375.387 69.055 360.332 87.555 360.332
 c h
87.555 360.332 m f
311.5 366.699 m 314.129 366.699 316.711 367.762 318.57 369.621 c 320.43
 371.488 321.5 374.07 321.5 376.699 c 321.5 379.328 320.43 381.898 318.57
 383.77 c 316.711 385.629 314.129 386.699 311.5 386.699 c 308.871 386.699
 306.289 385.629 304.43 383.77 c 302.57 381.898 301.5 379.328 301.5 376.699
 c 301.5 374.07 302.57 371.488 304.43 369.621 c 306.289 367.762 308.871 
366.699 311.5 366.699 c h
311.5 366.699 m f
407.871 438 m 411.523 438 415.02 436.652 417.719 434.203 c 419.625 432.477
 422.031 431.609 424.438 431.609 c 426.844 431.609 429.25 432.477 431.152
 434.203 c 433.855 436.652 437.352 438 441 438 c 446.523 438 451 442.477
 451 448 c 451 453.523 446.523 458 441 458 c 435.156 458 429.477 456.535
 424.438 453.793 c 419.395 456.535 413.719 458 407.871 458 c 402.352 458
 397.871 453.523 397.871 448 c 397.871 442.477 402.352 438 407.871 438 c
 h
407.871 438 m f
315.539 411.668 m 319.188 411.668 322.688 410.32 325.387 407.871 c 327.293
 406.141 329.699 405.277 332.105 405.277 c 334.512 405.277 336.914 406.141
 338.82 407.871 c 341.52 410.32 345.02 411.668 348.668 411.668 c 354.191
 411.668 358.668 416.145 358.668 421.668 c 358.668 427.191 354.191 431.668
 348.668 431.668 c 342.824 431.668 337.145 430.203 332.105 427.461 c 327.062
 430.203 321.387 431.668 315.543 431.668 c 310.02 431.668 305.543 427.191
 305.543 421.668 c 305.543 416.145 310.02 411.668 315.539 411.668 c h
315.539 411.668 m f
371.391 363.48 m 375.039 363.48 378.535 362.133 381.238 359.684 c 383.145
 357.957 385.551 357.094 387.953 357.094 c 390.359 357.094 392.766 357.957
 394.672 359.684 c 397.371 362.133 400.867 363.48 404.52 363.48 c 410.039
 363.48 414.52 367.961 414.52 373.48 c 414.52 379.004 410.039 383.48 404.52
 383.48 c 398.676 383.48 392.996 382.02 387.957 379.273 c 382.914 382.02
 377.234 383.48 371.395 383.48 c 365.871 383.48 361.395 379.004 361.395 
373.48 c 361.395 367.961 365.867 363.48 371.391 363.48 c h
371.391 363.48 m f
Q Q
showpage
%%Trailer
end restore
%%EOF
