%!PS-Adobe-3.0 EPSF-3.0
%%Creator: cairo 1.14.2 (http://cairographics.org)
%%CreationDate: Mon Oct  8 09:05:16 2018
%%Pages: 1
%%DocumentData: Clean7Bit
%%LanguageLevel: 2
%%BoundingBox: 12 0 500 512
%%EndComments
%%BeginProlog
save
50 dict begin
/q { gsave } bind def
/Q { grestore } bind def
/cm { 6 array astore concat } bind def
/w { setlinewidth } bind def
/J { setlinecap } bind def
/j { setlinejoin } bind def
/M { setmiterlimit } bind def
/d { setdash } bind def
/m { moveto } bind def
/l { lineto } bind def
/c { curveto } bind def
/h { closepath } bind def
/re { exch dup neg 3 1 roll 5 3 roll moveto 0 rlineto
      0 exch rlineto 0 rlineto closepath } bind def
/S { stroke } bind def
/f { fill } bind def
/f* { eofill } bind def
/n { newpath } bind def
/W { clip } bind def
/W* { eoclip } bind def
/BT { } bind def
/ET { } bind def
/pdfmark where { pop globaldict /?pdfmark /exec load put }
    { globaldict begin /?pdfmark /pop load def /pdfmark
    /cleartomark load def end } ifelse
/BDC { mark 3 1 roll /BDC pdfmark } bind def
/EMC { mark /EMC pdfmark } bind def
/cairo_store_point { /cairo_point_y exch def /cairo_point_x exch def } def
/Tj { show currentpoint cairo_store_point } bind def
/TJ {
  {
    dup
    type /stringtype eq
    { show } { -0.001 mul 0 cairo_font_matrix dtransform rmoveto } ifelse
  } forall
  currentpoint cairo_store_point
} bind def
/cairo_selectfont { cairo_font_matrix aload pop pop pop 0 0 6 array astore
    cairo_font exch selectfont cairo_point_x cairo_point_y moveto } bind def
/Tf { pop /cairo_font exch def /cairo_font_matrix where
      { pop cairo_selectfont } if } bind def
/Td { matrix translate cairo_font_matrix matrix concatmatrix dup
      /cairo_font_matrix exch def dup 4 get exch 5 get cairo_store_point
      /cairo_font where { pop cairo_selectfont } if } bind def
/Tm { 2 copy 8 2 roll 6 array astore /cairo_font_matrix exch def
      cairo_store_point /cairo_font where { pop cairo_selectfont } if } bind def
/g { setgray } bind def
/rg { setrgbcolor } bind def
/d1 { setcachedevice } bind def
%%EndProlog
%%BeginSetup
%%EndSetup
%%Page: 1 1
%%BeginPageSetup
%%PageBoundingBox: 12 0 500 512
%%EndPageSetup
q 12 0 488 512 rectclip q
0 g
305.641 280 m 300.121 280 295.641 275.523 295.641 270 c 295.641 264.477
 300.121 260 305.641 260 c 305.691 260 l 311.215 260 315.668 264.477 315.668
 270 c 315.668 275.523 311.164 280 305.641 280 c h
305.641 280 m f
82 471.969 m 65.457 471.969 52 458.512 52 441.969 c 52 425.426 65.457 411.969
 82 411.969 c 98.543 411.969 112 425.426 112 441.969 c 112 458.512 98.543
 471.969 82 471.969 c h
82 431.969 m 76.484 431.969 72 436.453 72 441.969 c 72 447.48 76.484 451.969
 82 451.969 c 87.516 451.969 92 447.48 92 441.969 c 92 436.453 87.516 431.969
 82 431.969 c h
82 431.969 m f
162 411.969 m 178.543 411.969 192 425.426 192 441.969 c 192 458.512 178.543
 471.969 162 471.969 c 145.457 471.969 132 458.512 132 441.969 c 132 425.426
 145.457 411.969 162 411.969 c h
162 451.969 m 167.516 451.969 172 447.48 172 441.969 c 172 436.453 167.516
 431.969 162 431.969 c 156.484 431.969 152 436.453 152 441.969 c 152 447.48
 156.484 451.969 162 451.969 c h
162 451.969 m f
242 411.969 m 258.543 411.969 272 425.426 272 441.969 c 272 458.512 258.543
 471.969 242 471.969 c 225.457 471.969 212 458.512 212 441.969 c 212 425.426
 225.457 411.969 242 411.969 c h
242 451.969 m 247.516 451.969 252 447.48 252 441.969 c 252 436.453 247.516
 431.969 242 431.969 c 236.484 431.969 232 436.453 232 441.969 c 232 447.48
 236.484 451.969 242 451.969 c h
242 451.969 m f
322 411.969 m 338.543 411.969 352 425.426 352 441.969 c 352 458.512 338.543
 471.969 322 471.969 c 305.457 471.969 292 458.512 292 441.969 c 292 425.426
 305.457 411.969 322 411.969 c h
322 451.969 m 327.516 451.969 332 447.48 332 441.969 c 332 436.453 327.516
 431.969 322 431.969 c 316.484 431.969 312 436.453 312 441.969 c 312 447.48
 316.484 451.969 322 451.969 c h
322 451.969 m f
352 309.969 m 352 381.969 l 352 387.492 347.523 391.969 342 391.969 c 222
 391.969 l 216.477 391.969 212 387.492 212 381.969 c 212 309.969 l 212 304.445
 216.477 299.969 222 299.969 c 342 299.969 l 347.523 299.969 352 304.445
 352 309.969 c h
332 319.969 m 312 319.969 l 312 348.664 l 312 354.188 307.523 358.664 302
 358.664 c 296.477 358.664 292 354.188 292 348.664 c 292 319.969 l 272 319.969
 l 272 348.664 l 272 354.188 267.523 358.664 262 358.664 c 256.477 358.664
 252 354.188 252 348.664 c 252 319.969 l 232 319.969 l 232 371.969 l 332
 371.969 l h
332 319.969 m f
86.668 372.332 m 86 372.332 l 86 381.969 l 86 387.492 81.523 391.969 76
 391.969 c 70.477 391.969 66 387.492 66 381.969 c 66 372.332 l 65.332 372.332
 l 59.812 372.332 55.332 367.855 55.332 362.332 c 55.332 356.809 59.812 
352.332 65.332 352.332 c 66 352.332 l 66 309.969 l 66 304.445 70.477 299.969
 76 299.969 c 81.523 299.969 86 304.445 86 309.969 c 86 352.332 l 86.668
 352.332 l 92.188 352.332 96.668 356.809 96.668 362.332 c 96.668 367.855
 92.188 372.332 86.668 372.332 c h
86.668 372.332 m f
134.668 339.602 m 134 339.602 l 134 381.969 l 134 387.492 129.523 391.969
 124 391.969 c 118.477 391.969 114 387.492 114 381.969 c 114 339.602 l 113.332
 339.602 l 107.812 339.602 103.332 335.125 103.332 329.602 c 103.332 324.078
 107.812 319.602 113.332 319.602 c 114 319.602 l 114 309.969 l 114 304.445
 118.477 299.969 124 299.969 c 129.523 299.969 134 304.445 134 309.969 c
 134 319.602 l 134.668 319.602 l 140.188 319.602 144.668 324.078 144.668
 329.602 c 144.668 335.125 140.188 339.602 134.668 339.602 c h
134.668 339.602 m f
182.668 365.25 m 182 365.25 l 182 381.969 l 182 387.492 177.523 391.969
 172 391.969 c 166.477 391.969 162 387.492 162 381.969 c 162 365.25 l 161.332
 365.25 l 155.812 365.25 151.332 360.773 151.332 355.25 c 151.332 349.727
 155.812 345.25 161.332 345.25 c 162 345.25 l 162 309.969 l 162 304.445 
166.477 299.969 172 299.969 c 177.523 299.969 182 304.445 182 309.969 c 
182 345.25 l 182.668 345.25 l 188.188 345.25 192.668 349.727 192.668 355.25
 c 192.668 360.773 188.188 365.25 182.668 365.25 c h
182.668 365.25 m f
130 240 m 66 240 l 60.477 240 56 235.523 56 230 c 56 182 l 56 176.477 60.477
 172 66 172 c 130 172 l 135.523 172 140 176.477 140 182 c 140 230 l 140 
235.523 135.523 240 130 240 c h
120 192 m 76 192 l 76 220 l 120 220 l h
120 192 m f
234 240 m 170 240 l 164.477 240 160 235.523 160 230 c 160 182 l 160 176.477
 164.477 172 170 172 c 234 172 l 239.523 172 244 176.477 244 182 c 244 230
 l 244 235.523 239.523 240 234 240 c h
224 192 m 180 192 l 180 220 l 224 220 l h
224 192 m f
130 152 m 66 152 l 60.477 152 56 147.523 56 142 c 56 94 l 56 88.477 60.477
 84 66 84 c 130 84 l 135.523 84 140 88.477 140 94 c 140 142 l 140 147.523
 135.523 152 130 152 c h
120 104 m 76 104 l 76 132 l 120 132 l h
120 104 m f
234 152 m 170 152 l 164.477 152 160 147.523 160 142 c 160 94 l 160 88.477
 164.477 84 170 84 c 234 84 l 239.523 84 244 88.477 244 94 c 244 142 l 244
 147.523 239.523 152 234 152 c h
224 104 m 180 104 l 180 132 l 224 132 l h
224 104 m f
338 152 m 274 152 l 268.477 152 264 147.523 264 142 c 264 94 l 264 88.477
 268.477 84 274 84 c 338 84 l 343.523 84 348 88.477 348 94 c 348 142 l 348
 147.523 343.523 152 338 152 c h
328 104 m 284 104 l 284 132 l 328 132 l h
328 104 m f
454.121 313.391 m 460.219 321.18 463.867 330.973 463.867 341.609 c 463.867
 348.133 l 463.867 373.426 443.293 394 418 394 c 408.352 394 399.395 391
 392 385.891 c 392 502 l 392 507.523 387.523 512 382 512 c 22 512 l 16.477
 512 12 507.523 12 502 c 12 10 l 12 4.477 16.477 0 22 0 c 454 0 l 459.523
 0 464 4.477 464 10 c 464 64 l 464 69.523 459.523 74 454 74 c 448.477 74
 444 69.523 444 64 c 444 20 l 428 20 l 428 154.332 l 428 159.855 423.523
 164.332 418 164.332 c 412.477 164.332 408 159.855 408 154.332 c 408 20 
l 392 20 l 392 182.703 l 444 182.703 l 444 142 l 444 136.477 448.477 132
 454 132 c 459.523 132 464 136.477 464 142 c 464 159.078 l 484.391 162.434
 500 180.176 500 201.5 c 500 252.871 l 500 281.648 480.555 305.957 454.121
 313.391 c h
392.133 348.133 m 392.133 362.395 403.734 374 418 374 c 432.266 374 443.867
 362.395 443.867 348.133 c 443.867 341.609 l 443.867 327.348 432.266 315.742
 418 315.742 c 403.734 315.742 392.133 327.348 392.133 341.609 c h
32 260 m 262 260 l 267.523 260 272 264.477 272 270 c 272 275.523 267.523
 280 262 280 c 32 280 l 32 492 l 372 492 l 372 341.609 l 372 340.977 372.066
 340.355 372.18 339.754 c 372.574 329.836 376.137 320.723 381.879 313.391
 c 355.445 305.957 336 281.648 336 252.871 c 336 240 l 274 240 l 268.477
 240 264 235.523 264 230 c 264 182 l 264 176.477 268.477 172 274 172 c 338
 172 l 340.809 172 343.34 173.16 345.156 175.023 c 351.664 166.719 361.152
 160.863 372 159.078 c 372 20 l 32 20 l h
328 220 m 328 192 l 284 192 l 284 220 l h
480 201.5 m 480 191.258 473.27 182.562 464 179.594 c 464 246.5 l 464 252.023
 459.523 256.5 454 256.5 c 448.477 256.5 444 252.023 444 246.5 c 444 202.703
 l 392 202.703 l 392 246.5 l 392 252.023 387.523 256.5 382 256.5 c 376.477
 256.5 372 252.023 372 246.5 c 372 179.594 l 362.73 182.562 356 191.258 
356 201.5 c 356 252.871 l 356 276.512 375.23 295.742 398.871 295.742 c 437.129
 295.742 l 460.77 295.742 480 276.512 480 252.871 c h
480 201.5 m f
454 114.5 m 451.371 114.5 448.789 113.43 446.93 111.57 c 445.07 109.711
 444 107.129 444 104.5 c 444 101.871 445.07 99.289 446.93 97.43 c 448.789
 95.57 451.371 94.5 454 94.5 c 456.629 94.5 459.211 95.57 461.07 97.43 c
 462.93 99.289 464 101.871 464 104.5 c 464 107.129 462.93 109.711 461.07
 111.57 c 459.211 113.43 456.629 114.5 454 114.5 c h
454 114.5 m f
Q Q
showpage
%%Trailer
end restore
%%EOF
