%!PS-Adobe-3.0 EPSF-3.0
%%Creator: cairo 1.14.2 (http://cairographics.org)
%%CreationDate: Mon Oct  8 09:05:16 2018
%%Pages: 1
%%DocumentData: Clean7Bit
%%LanguageLevel: 2
%%BoundingBox: 0 0 512 512
%%EndComments
%%BeginProlog
save
50 dict begin
/q { gsave } bind def
/Q { grestore } bind def
/cm { 6 array astore concat } bind def
/w { setlinewidth } bind def
/J { setlinecap } bind def
/j { setlinejoin } bind def
/M { setmiterlimit } bind def
/d { setdash } bind def
/m { moveto } bind def
/l { lineto } bind def
/c { curveto } bind def
/h { closepath } bind def
/re { exch dup neg 3 1 roll 5 3 roll moveto 0 rlineto
      0 exch rlineto 0 rlineto closepath } bind def
/S { stroke } bind def
/f { fill } bind def
/f* { eofill } bind def
/n { newpath } bind def
/W { clip } bind def
/W* { eoclip } bind def
/BT { } bind def
/ET { } bind def
/pdfmark where { pop globaldict /?pdfmark /exec load put }
    { globaldict begin /?pdfmark /pop load def /pdfmark
    /cleartomark load def end } ifelse
/BDC { mark 3 1 roll /BDC pdfmark } bind def
/EMC { mark /EMC pdfmark } bind def
/cairo_store_point { /cairo_point_y exch def /cairo_point_x exch def } def
/Tj { show currentpoint cairo_store_point } bind def
/TJ {
  {
    dup
    type /stringtype eq
    { show } { -0.001 mul 0 cairo_font_matrix dtransform rmoveto } ifelse
  } forall
  currentpoint cairo_store_point
} bind def
/cairo_selectfont { cairo_font_matrix aload pop pop pop 0 0 6 array astore
    cairo_font exch selectfont cairo_point_x cairo_point_y moveto } bind def
/Tf { pop /cairo_font exch def /cairo_font_matrix where
      { pop cairo_selectfont } if } bind def
/Td { matrix translate cairo_font_matrix matrix concatmatrix dup
      /cairo_font_matrix exch def dup 4 get exch 5 get cairo_store_point
      /cairo_font where { pop cairo_selectfont } if } bind def
/Tm { 2 copy 8 2 roll 6 array astore /cairo_font_matrix exch def
      cairo_store_point /cairo_font where { pop cairo_selectfont } if } bind def
/g { setgray } bind def
/rg { setrgbcolor } bind def
/d1 { setcachedevice } bind def
%%EndProlog
%%BeginSetup
%%EndSetup
%%Page: 1 1
%%BeginPageSetup
%%PageBoundingBox: 0 0 512 512
%%EndPageSetup
q 0 0 512 512 rectclip q
0 g
236.043 112.207 m 241.562 112.207 246 116.684 246 122.207 c 246 127.73 
241.48 132.207 235.957 132.207 c 230.438 132.207 225.957 127.73 225.957 
122.207 c 225.957 116.684 230.438 112.207 235.957 112.207 c h
236.043 112.207 m f
58.332 320.582 m 128 320.582 l 133.523 320.582 138 325.059 138 330.582 
c 138 336.105 133.523 340.582 128 340.582 c 58.332 340.582 l 52.812 340.582
 48.332 336.105 48.332 330.582 c 48.332 325.059 52.812 320.582 58.332 320.582
 c h
58.332 320.582 m f
58.332 264.582 m 81.648 264.582 l 87.172 264.582 91.648 269.059 91.648 
274.582 c 91.648 280.105 87.172 284.582 81.648 284.582 c 58.332 284.582 
l 52.812 284.582 48.332 280.105 48.332 274.582 c 48.332 269.059 52.812 264.582
 58.332 264.582 c h
58.332 264.582 m f
118.332 228.582 m 58.332 228.582 l 52.812 228.582 48.332 224.105 48.332
 218.582 c 48.332 213.062 52.812 208.582 58.332 208.582 c 118.332 208.582
 l 123.855 208.582 128.332 213.062 128.332 218.582 c 128.332 224.105 123.855
 228.582 118.332 228.582 c h
118.332 228.582 m f
156.84 228.578 m 154.211 228.578 151.641 227.52 149.77 225.648 c 147.91
 223.789 146.852 221.219 146.852 218.578 c 146.852 215.949 147.91 213.379
 149.77 211.512 c 151.641 209.652 154.211 208.578 156.84 208.578 c 159.48
 208.578 162.051 209.648 163.922 211.512 c 165.781 213.379 166.852 215.949
 166.852 218.578 c 166.852 221.211 165.781 223.789 163.922 225.648 c 162.059
 227.52 159.48 228.578 156.84 228.578 c h
156.84 228.578 m f
215.012 228.582 m 191.727 228.582 l 186.207 228.582 181.727 224.105 181.727
 218.582 c 181.727 213.062 186.207 208.582 191.727 208.582 c 215.012 208.582
 l 220.535 208.582 225.012 213.062 225.012 218.582 c 225.012 224.105 220.535
 228.582 215.012 228.582 c h
215.012 228.582 m f
502 387.598 m 482.25 387.598 l 479.324 398.008 475.188 407.988 469.883 
417.422 c 483.859 431.395 l 487.766 435.301 487.766 441.633 483.859 445.539
 c 445.539 483.859 l 443.66 485.734 441.117 486.789 438.469 486.789 c 435.816
 486.789 433.273 485.734 431.395 483.859 c 417.422 469.883 l 407.992 475.188
 398.008 479.324 387.598 482.25 c 387.598 502 l 387.598 507.523 383.121 
512 377.598 512 c 323.402 512 l 317.883 512 313.402 507.523 313.402 502 
c 313.402 482.293 l 302.973 479.375 292.973 475.242 283.523 469.941 c 269.605
 483.859 l 267.73 485.734 265.188 486.789 262.535 486.789 c 259.883 486.789
 257.34 485.734 255.465 483.859 c 217.145 445.535 l 215.074 443.465 214.113
 440.715 214.238 438 c 35.5 438 l 15.926 438 0 422.074 0 402.5 c 0 113.5
 l 0 93.926 15.926 78 35.5 78 c 64 78 l 69.523 78 74 82.477 74 88 c 74 93.523
 69.523 98 64 98 c 35.5 98 l 26.953 98 20 104.953 20 113.5 c 20 143.664 
l 452 143.664 l 452 113.5 l 452 104.953 445.047 98 436.5 98 c 163.668 98
 l 158.145 98 153.668 93.523 153.668 88 c 153.668 82.477 158.145 78 163.668
 78 c 188 78 l 188 20 l 154.098 20 l 148.574 20 144.098 15.523 144.098 10
 c 144.098 4.477 148.574 0 154.098 0 c 317.902 0 l 323.426 0 327.902 4.477
 327.902 10 c 327.902 15.523 323.426 20 317.902 20 c 284 20 l 284 78 l 436.5
 78 l 456.074 78 472 93.926 472 113.5 c 472 243.605 l 483.859 255.461 l 
487.762 259.367 487.762 265.699 483.859 269.605 c 469.941 283.523 l 475.242
 292.969 479.379 302.973 482.293 313.402 c 502 313.402 l 507.523 313.402
 512 317.879 512 323.402 c 512 377.598 l 512 383.121 507.523 387.598 502
 387.598 c h
264 20 m 208 20 l 208 78 l 264 78 l h
452 163.664 m 20 163.664 l 20 402.5 l 20 411.047 26.953 418 35.5 418 c 
230.535 418 l 231.02 417.52 l 225.688 408.059 221.531 398.043 218.594 387.598
 c 199 387.598 l 193.477 387.598 189 383.121 189 377.598 c 189 340.586 l
 168.23 340.586 l 162.711 340.586 158.23 336.105 158.23 330.586 c 158.23
 325.062 162.711 320.586 168.23 320.586 c 189.41 320.586 l 190.629 316.434
 194.457 313.402 199 313.402 c 218.551 313.402 l 221.359 303.359 225.309
 293.723 230.328 284.586 c 118.332 284.586 l 112.812 284.586 108.332 280.105
 108.332 274.586 c 108.332 269.062 112.812 264.586 118.332 264.586 c 214.43
 264.586 l 213.766 261.395 214.664 257.941 217.141 255.465 c 255.465 217.141
 l 259.367 213.238 265.699 213.234 269.605 217.141 c 283.426 230.961 l 292.902
 225.633 302.938 221.477 313.402 218.551 c 313.402 199 l 313.402 193.477
 317.883 189 323.402 189 c 377.598 189 l 383.121 189 387.598 193.477 387.598
 199 c 387.598 218.594 l 398.043 221.531 408.059 225.688 417.52 231.02 c
 431.395 217.141 l 435.301 213.238 441.633 213.238 445.539 217.141 c 452
 223.605 l h
492 333.402 m 474.477 333.402 l 469.77 333.402 465.699 330.121 464.703 
325.52 c 461.754 311.926 456.449 299.09 448.934 287.371 c 446.395 283.414
 446.953 278.227 450.277 274.902 c 462.645 262.535 l 438.465 238.355 l 426.133
 250.691 l 422.801 254.02 417.602 254.574 413.645 252.027 c 401.922 244.477
 389.074 239.141 375.469 236.172 c 370.871 235.172 367.598 231.105 367.598
 226.402 c 367.598 209 l 333.402 209 l 333.402 226.367 l 333.402 231.074
 330.121 235.145 325.523 236.141 c 311.895 239.098 299.031 244.422 287.285
 251.969 c 283.328 254.512 278.137 253.953 274.809 250.629 c 262.535 238.355
 l 238.355 262.535 l 250.629 274.809 l 253.953 278.133 254.512 283.328 251.969
 287.285 c 244.422 299.027 239.098 311.895 236.145 325.52 c 235.145 330.121
 231.074 333.402 226.371 333.402 c 209 333.402 l 209 367.598 l 226.402 367.598
 l 231.105 367.598 235.172 370.871 236.176 375.465 c 239.145 389.074 244.477
 401.918 252.027 413.645 c 254.574 417.602 254.02 422.801 250.691 426.129
 c 238.355 438.465 l 262.535 462.645 l 274.902 450.277 l 278.227 446.953
 283.418 446.395 287.371 448.93 c 299.09 456.445 311.926 461.754 325.523
 464.699 c 330.121 465.695 333.402 469.766 333.402 474.473 c 333.402 492
 l 367.598 492 l 367.598 474.441 l 367.598 469.738 370.871 465.672 375.469
 464.672 c 389.043 461.707 401.859 456.395 413.559 448.875 c 417.516 446.332
 422.711 446.891 426.035 450.215 c 438.469 462.645 l 462.648 438.465 l 450.219
 426.035 l 446.891 422.711 446.332 417.516 448.875 413.559 c 456.395 401.859
 461.711 389.043 464.672 375.465 c 465.676 370.871 469.738 367.598 474.441
 367.598 c 492 367.598 l h
492 333.402 m f
350.5 440.5 m 300.875 440.5 260.5 400.125 260.5 350.5 c 260.5 300.875 300.875
 260.5 350.5 260.5 c 400.125 260.5 440.5 300.875 440.5 350.5 c 440.5 400.125
 400.125 440.5 350.5 440.5 c h
350.5 280.5 m 311.902 280.5 280.5 311.902 280.5 350.5 c 280.5 389.098 311.902
 420.5 350.5 420.5 c 389.098 420.5 420.5 389.098 420.5 350.5 c 420.5 311.902
 389.098 280.5 350.5 280.5 c h
350.5 280.5 m f
350.5 328.328 m 347.871 328.328 345.289 327.262 343.43 325.398 c 341.57
 323.531 340.5 320.961 340.5 318.328 c 340.5 315.691 341.57 313.121 343.43
 311.262 c 345.289 309.398 347.871 308.328 350.5 308.328 c 353.129 308.328
 355.711 309.398 357.57 311.262 c 359.43 313.121 360.5 315.691 360.5 318.328
 c 360.5 320.961 359.43 323.539 357.57 325.398 c 355.711 327.262 353.129
 328.328 350.5 328.328 c h
350.5 328.328 m f
350.5 358.711 m 339.711 358.711 329.57 354.512 321.941 346.883 c 318.035
 342.977 318.035 336.645 321.941 332.742 c 325.848 328.836 332.18 328.836
 336.086 332.742 c 339.938 336.59 345.055 338.711 350.5 338.711 c 355.945
 338.711 361.062 336.59 364.914 332.742 c 366.867 330.789 369.426 329.812
 371.984 329.812 c 374.547 329.812 377.105 330.789 379.059 332.742 c 382.961
 336.645 382.961 342.977 379.059 346.883 c 371.43 354.512 361.289 358.711
 350.5 358.711 c h
350.5 358.711 m f
297.93 370.898 m 294.023 366.992 294.023 360.66 297.93 356.754 c 301.836
 352.852 308.164 352.852 312.07 356.754 c 322.336 367.02 335.984 372.672
 350.5 372.672 c 365.02 372.672 378.664 367.02 388.93 356.754 c 390.883 
354.801 393.441 353.824 396 353.824 c 398.559 353.824 401.117 354.801 403.07
 356.754 c 406.977 360.66 406.977 366.992 403.07 370.898 c 374.082 399.887
 326.918 399.887 297.93 370.898 c h
297.93 370.898 m f
112.625 98 m 112.312 98 l 106.789 98 102.312 93.523 102.312 88 c 102.312
 82.477 106.789 78 112.312 78 c 112.625 78 l 118.148 78 122.625 82.477 122.625
 88 c 122.625 93.523 118.148 98 112.625 98 c h
112.625 98 m f
Q Q
showpage
%%Trailer
end restore
%%EOF
