%!PS-Adobe-3.0 EPSF-3.0
%%Creator: cairo 1.14.2 (http://cairographics.org)
%%CreationDate: Mon Oct  8 09:05:16 2018
%%Pages: 1
%%DocumentData: Clean7Bit
%%LanguageLevel: 2
%%BoundingBox: 0 0 512 512
%%EndComments
%%BeginProlog
save
50 dict begin
/q { gsave } bind def
/Q { grestore } bind def
/cm { 6 array astore concat } bind def
/w { setlinewidth } bind def
/J { setlinecap } bind def
/j { setlinejoin } bind def
/M { setmiterlimit } bind def
/d { setdash } bind def
/m { moveto } bind def
/l { lineto } bind def
/c { curveto } bind def
/h { closepath } bind def
/re { exch dup neg 3 1 roll 5 3 roll moveto 0 rlineto
      0 exch rlineto 0 rlineto closepath } bind def
/S { stroke } bind def
/f { fill } bind def
/f* { eofill } bind def
/n { newpath } bind def
/W { clip } bind def
/W* { eoclip } bind def
/BT { } bind def
/ET { } bind def
/pdfmark where { pop globaldict /?pdfmark /exec load put }
    { globaldict begin /?pdfmark /pop load def /pdfmark
    /cleartomark load def end } ifelse
/BDC { mark 3 1 roll /BDC pdfmark } bind def
/EMC { mark /EMC pdfmark } bind def
/cairo_store_point { /cairo_point_y exch def /cairo_point_x exch def } def
/Tj { show currentpoint cairo_store_point } bind def
/TJ {
  {
    dup
    type /stringtype eq
    { show } { -0.001 mul 0 cairo_font_matrix dtransform rmoveto } ifelse
  } forall
  currentpoint cairo_store_point
} bind def
/cairo_selectfont { cairo_font_matrix aload pop pop pop 0 0 6 array astore
    cairo_font exch selectfont cairo_point_x cairo_point_y moveto } bind def
/Tf { pop /cairo_font exch def /cairo_font_matrix where
      { pop cairo_selectfont } if } bind def
/Td { matrix translate cairo_font_matrix matrix concatmatrix dup
      /cairo_font_matrix exch def dup 4 get exch 5 get cairo_store_point
      /cairo_font where { pop cairo_selectfont } if } bind def
/Tm { 2 copy 8 2 roll 6 array astore /cairo_font_matrix exch def
      cairo_store_point /cairo_font where { pop cairo_selectfont } if } bind def
/g { setgray } bind def
/rg { setrgbcolor } bind def
/d1 { setcachedevice } bind def
%%EndProlog
%%BeginSetup
%%EndSetup
%%Page: 1 1
%%BeginPageSetup
%%PageBoundingBox: 0 0 512 512
%%EndPageSetup
q 0 0 512 512 rectclip q
0 g
444.988 290.391 m 442.359 290.391 439.777 289.32 437.918 287.461 c 436.059
 285.602 434.988 283.02 434.988 280.391 c 434.988 277.762 436.059 275.18
 437.918 273.32 c 439.777 271.461 442.359 270.391 444.988 270.391 c 447.617
 270.391 450.199 271.461 452.059 273.32 c 453.918 275.18 454.988 277.762
 454.988 280.391 c 454.988 283.02 453.918 285.602 452.059 287.461 c 450.199
 289.32 447.617 290.391 444.988 290.391 c h
444.988 290.391 m f
266.812 408 m 266.812 321.805 l 266.812 316.281 271.293 311.805 276.812
 311.805 c 363.008 311.805 l 368.527 311.805 373.008 316.281 373.008 321.805
 c 373.008 374.848 329.855 418 276.812 418 c 271.293 418 266.812 413.523
 266.812 408 c h
286.812 397.348 m 320.844 392.867 347.871 365.836 352.355 331.805 c 286.812
 331.805 l h
286.812 397.348 m f
509.07 175.211 m 428.008 256.27 l 422.457 261.82 415.078 264.879 407.23
 264.879 c 399.383 264.879 392 261.82 386.453 256.273 c 383.547 253.367 
381.332 249.957 379.871 246.242 c 369.277 250.484 356.695 248.324 348.129
 239.758 c 343.027 234.656 340.039 228.004 339.59 220.863 c 332.711 220.422
 325.961 217.586 320.715 212.34 c 318.395 210.02 316.551 207.402 315.172
 204.609 c 303.004 216.777 l 322.148 234.91 332.988 259.93 332.988 286.566
 c 332.988 292.086 328.512 296.566 322.988 296.566 c 246.793 296.566 l 246.793
 372.758 l 246.793 378.281 242.316 382.758 236.793 382.758 c 183.754 382.758
 140.602 339.605 140.602 286.566 c 140.602 233.523 183.754 190.371 236.793
 190.371 c 239.816 190.371 242.855 190.516 245.867 190.797 c 270.547 166.117
 l 159.668 166.117 l 154.145 166.117 149.668 161.637 149.668 156.117 c 149.668
 108.117 l 149.668 102.594 154.145 98.117 159.668 98.117 c 266.184 98.117
 l 266.016 88.805 270.227 79.816 277.594 74.004 c 77.008 74.004 l 77.008
 84.285 l 123.75 138.453 l 130.812 146.641 132.719 157.965 128.719 168.016
 c 125.301 176.605 118.211 182.891 109.273 185.262 c 100.336 187.629 91.066
 185.68 83.84 179.906 c 77.008 174.449 l 77.008 438 l 97.008 438 l 97.008
 376 l 97.008 370.477 101.484 366 107.008 366 c 112.531 366 117.008 370.477
 117.008 376 c 117.008 438 l 434.992 438 l 434.992 318.496 l 434.992 312.973
 439.469 308.496 444.992 308.496 c 450.512 308.496 454.992 312.973 454.992
 318.496 c 454.992 470 l 454.992 493.16 436.148 512 412.992 512 c 99.008
 512 l 75.848 512 57.008 493.16 57.008 470 c 57.008 269.137 l 56.699 268.832
 56.398 268.516 56.125 268.164 c 17.438 218.727 l 6.191 204.359 0 186.402
 0 168.156 c 0 10.004 l 0 4.48 4.477 0.004 10 0.004 c 15.523 0.004 20 4.48
 20 10.004 c 20 168.156 l 20 181.953 24.684 195.539 33.188 206.402 c 57.008
 236.84 l 57.008 153.664 l 57.008 148.141 61.484 143.664 67.008 143.664 
c 69.371 143.664 71.535 144.488 73.246 145.855 c 73.246 145.852 73.25 145.852
 73.25 145.852 c 96.32 164.277 l 98.543 166.055 101.398 166.656 104.148 
165.926 c 106.902 165.195 109.086 163.262 110.137 160.617 c 111.367 157.523
 110.781 154.035 108.605 151.516 c 59.438 94.535 l 59.438 94.531 59.441 
94.531 59.441 94.527 c 57.93 92.777 57.008 90.496 57.008 88 c 57.008 42 
l 57.008 18.844 75.848 0 99.008 0 c 412.988 0 l 419.152 0 425.09 1.312 430.645
 3.887 c 435.047 2.645 439.465 1.438 443.902 0.309 c 444.73 0.102 445.559
 0 446.375 0 c 450.84 0 454.91 3.012 456.059 7.535 c 457.422 12.891 454.188
 18.332 448.832 19.691 c 405.16 30.801 363.172 47.762 324.035 70.113 c 291.164
 88.887 l 287.316 91.082 285.375 95.617 286.445 99.918 c 287.758 105.207
 293.137 108.461 298.434 107.18 c 342.156 96.57 l 346.508 95.512 351.039
 97.484 353.234 101.391 c 355.43 105.297 354.754 110.191 351.586 113.359
 c 251.535 213.414 l 249.762 215.184 248.785 217.543 248.785 220.051 c 248.785
 222.559 249.762 224.914 251.535 226.688 c 255.195 230.348 261.152 230.348
 264.809 226.688 c 320.695 170.801 l 320.703 170.797 320.707 170.789 320.715
 170.781 c 353.934 137.562 l 357.84 133.66 364.172 133.66 368.078 137.562
 c 371.98 141.469 371.98 147.801 368.078 151.707 c 334.844 184.941 l 331.199
 188.602 331.203 194.547 334.855 198.199 c 338.516 201.859 344.473 201.859
 348.133 198.199 c 381.352 164.98 l 385.258 161.074 391.586 161.074 395.492
 164.98 c 399.398 168.883 399.398 175.215 395.492 179.121 c 367.184 207.434
 l 367.18 207.434 367.18 207.438 367.176 207.441 c 362.273 212.344 l 360.504
 214.113 359.523 216.473 359.523 218.98 c 359.523 221.488 360.504 223.844
 362.273 225.617 c 365.934 229.277 371.891 229.277 375.551 225.617 c 395.234
 205.934 l 395.234 205.93 395.238 205.93 395.238 205.926 c 408.77 192.395
 l 412.676 188.492 419.004 188.492 422.91 192.395 c 426.816 196.301 426.816
 202.633 422.91 206.539 c 400.594 228.855 l 398.824 230.629 397.848 232.984
 397.848 235.492 c 397.848 238 398.824 240.355 400.598 242.129 c 402.367
 243.902 404.727 244.879 407.234 244.879 c 409.738 244.879 412.098 243.902
 413.871 242.129 c 494.93 161.07 l 496.883 159.117 499.441 158.141 502 158.141
 c 504.559 158.141 507.121 159.117 509.074 161.07 c 512.973 164.973 512.973
 171.305 509.07 175.211 c h
99.008 492 m 412.992 492 l 425.121 492 434.992 482.133 434.992 470 c 434.992
 458 l 77.008 458 l 77.008 470 l 77.008 482.133 86.879 492 99.008 492 c 
h
226.797 310.707 m 190.488 347.012 l 200.832 354.957 213.254 360.324 226.797
 362.105 c h
382.676 20 m 99.008 20 l 86.879 20 77.008 29.871 77.008 42 c 77.008 54.004
 l 310.156 54.004 l 310.68 54.004 311.188 54.055 311.691 54.133 c 314.121
 52.746 l 336.164 40.156 359.082 29.227 382.676 20 c h
303.152 126.617 m 292.402 129.227 281.551 125.617 274.395 118.117 c 169.668
 118.117 l 169.668 146.117 l 290.547 146.117 l 312.258 124.406 l h
237.391 240.828 m 229.246 232.684 226.898 220.91 230.336 210.664 c 191.336
 213.957 160.602 246.727 160.602 286.562 c 160.602 303.973 166.484 320.023
 176.348 332.867 c 229.629 279.586 l 229.648 279.57 229.664 279.555 229.68
 279.539 c 231.492 277.703 234.012 276.562 236.793 276.562 c 312.34 276.562
 l 310.055 259.102 301.805 243.055 288.84 230.941 c 278.949 240.828 l 267.492
 252.289 248.852 252.285 237.391 240.828 c h
237.391 240.828 m f
107.012 349.812 m 104.371 349.812 101.801 348.742 99.941 346.879 c 98.07
 345.02 97.012 342.449 97.012 339.812 c 97.012 337.18 98.07 334.602 99.941
 332.742 c 101.801 330.879 104.379 329.812 107.012 329.812 c 109.641 329.812
 112.219 330.879 114.078 332.742 c 115.938 334.602 117.012 337.18 117.012
 339.812 c 117.012 342.441 115.941 345.02 114.078 346.879 c 112.219 348.742
 109.641 349.812 107.012 349.812 c h
107.012 349.812 m f
Q Q
showpage
%%Trailer
end restore
%%EOF
