%!PS-Adobe-3.0 EPSF-3.0
%%Creator: cairo 1.14.2 (http://cairographics.org)
%%CreationDate: Mon Oct  8 09:05:16 2018
%%Pages: 1
%%DocumentData: Clean7Bit
%%LanguageLevel: 2
%%BoundingBox: 0 122 512 390
%%EndComments
%%BeginProlog
save
50 dict begin
/q { gsave } bind def
/Q { grestore } bind def
/cm { 6 array astore concat } bind def
/w { setlinewidth } bind def
/J { setlinecap } bind def
/j { setlinejoin } bind def
/M { setmiterlimit } bind def
/d { setdash } bind def
/m { moveto } bind def
/l { lineto } bind def
/c { curveto } bind def
/h { closepath } bind def
/re { exch dup neg 3 1 roll 5 3 roll moveto 0 rlineto
      0 exch rlineto 0 rlineto closepath } bind def
/S { stroke } bind def
/f { fill } bind def
/f* { eofill } bind def
/n { newpath } bind def
/W { clip } bind def
/W* { eoclip } bind def
/BT { } bind def
/ET { } bind def
/pdfmark where { pop globaldict /?pdfmark /exec load put }
    { globaldict begin /?pdfmark /pop load def /pdfmark
    /cleartomark load def end } ifelse
/BDC { mark 3 1 roll /BDC pdfmark } bind def
/EMC { mark /EMC pdfmark } bind def
/cairo_store_point { /cairo_point_y exch def /cairo_point_x exch def } def
/Tj { show currentpoint cairo_store_point } bind def
/TJ {
  {
    dup
    type /stringtype eq
    { show } { -0.001 mul 0 cairo_font_matrix dtransform rmoveto } ifelse
  } forall
  currentpoint cairo_store_point
} bind def
/cairo_selectfont { cairo_font_matrix aload pop pop pop 0 0 6 array astore
    cairo_font exch selectfont cairo_point_x cairo_point_y moveto } bind def
/Tf { pop /cairo_font exch def /cairo_font_matrix where
      { pop cairo_selectfont } if } bind def
/Td { matrix translate cairo_font_matrix matrix concatmatrix dup
      /cairo_font_matrix exch def dup 4 get exch 5 get cairo_store_point
      /cairo_font where { pop cairo_selectfont } if } bind def
/Tm { 2 copy 8 2 roll 6 array astore /cairo_font_matrix exch def
      cairo_store_point /cairo_font where { pop cairo_selectfont } if } bind def
/g { setgray } bind def
/rg { setrgbcolor } bind def
/d1 { setcachedevice } bind def
%%EndProlog
%%BeginSetup
%%EndSetup
%%Page: 1 1
%%BeginPageSetup
%%PageBoundingBox: 0 122 512 390
%%EndPageSetup
q 0 122 512 268 rectclip q
0 g
458 237.848 m 458 380 l 458 385.523 453.523 390 448 390 c 296 390 l 290.477
 390 286 385.523 286 380 c 286 344.5 l 286 338.977 290.477 334.5 296 334.5
 c 301.523 334.5 306 338.977 306 344.5 c 306 370 l 338 370 l 338 316 l 338
 311.969 340.422 308.332 344.141 306.773 c 347.863 305.219 352.152 306.051
 355.023 308.879 c 372 325.621 l 388.98 308.879 l 390.887 306.996 393.426
 306 396.004 306 c 397.301 306 398.613 306.254 399.859 306.773 c 403.578
 308.328 406 311.969 406 316 c 406 370 l 438 370 l 438 238 l 306 238 l 306
 262.5 l 306 268.023 301.523 272.5 296 272.5 c 290.477 272.5 286 268.023
 286 262.5 c 286 238 l 220 238 l 220 380 l 220 385.523 215.523 390 210 390
 c 58 390 l 52.477 390 48 385.523 48 380 c 48 348 l 48 342.477 52.477 338
 58 338 c 63.523 338 68 342.477 68 348 c 68 370 l 100 370 l 100 316 l 100
 311.969 102.422 308.332 106.141 306.773 c 109.863 305.219 114.152 306.051
 117.023 308.879 c 134 325.621 l 150.98 308.879 l 152.887 306.996 155.426
 306 158.004 306 c 159.301 306 160.613 306.254 161.859 306.773 c 165.578
 308.328 168 311.969 168 316 c 168 370 l 200 370 l 200 238 l 68 238 l 68
 264 l 68 269.523 63.523 274 58 274 c 52.477 274 48 269.523 48 264 c 48 
237.117 l 20.77 232.363 0 208.57 0 180 c 0 148.02 26.02 122 58 122 c 454
 122 l 485.98 122 512 148.02 512 180 c 512 210.637 488.121 235.781 458 237.848
 c h
386 339.906 m 379.02 346.785 l 377.074 348.707 374.535 349.664 372 349.664
 c 369.465 349.664 366.926 348.707 364.98 346.785 c 358 339.906 l 358 370
 l 386 370 l h
148 339.906 m 141.02 346.785 l 139.074 348.707 136.535 349.664 134 349.664
 c 131.465 349.664 128.926 348.707 126.98 346.785 c 120 339.906 l 120 370
 l 148 370 l h
410.238 218 m 401.383 207.812 396 194.527 396 180 c 396 165.473 401.383
 152.188 410.238 142 c 299.762 142 l 308.617 152.188 314 165.473 314 180
 c 314 194.527 308.617 207.812 299.762 218 c h
218 180 m 218 200.953 235.047 218 256 218 c 276.953 218 294 200.953 294
 180 c 294 159.047 276.953 142 256 142 c 235.047 142 218 159.047 218 180
 c h
210 218 m 212.238 218 l 203.383 207.812 198 194.527 198 180 c 198 165.473
 203.383 152.188 212.238 142 c 101.762 142 l 110.617 152.188 116 165.473
 116 180 c 116 194.527 110.617 207.812 101.762 218 c h
20 180 m 20 200.953 37.047 218 58 218 c 78.953 218 96 200.953 96 180 c 
96 159.047 78.953 142 58 142 c 37.047 142 20 159.047 20 180 c h
454 142 m 433.047 142 416 159.047 416 180 c 416 200.953 433.047 218 454
 218 c 474.953 218 492 200.953 492 180 c 492 159.047 474.953 142 454 142
 c h
454 142 m f
256 190 m 253.371 190 250.789 188.93 248.93 187.07 c 247.07 185.211 246
 182.629 246 180 c 246 177.371 247.07 174.789 248.93 172.93 c 250.789 171.07
 253.371 170 256 170 c 258.629 170 261.211 171.07 263.07 172.93 c 264.93
 174.789 266 177.371 266 180 c 266 182.629 264.93 185.211 263.07 187.07 
c 261.211 188.93 258.629 190 256 190 c h
256 190 m f
454 190 m 451.371 190 448.789 188.93 446.93 187.07 c 445.07 185.211 444
 182.629 444 180 c 444 177.371 445.07 174.789 446.93 172.93 c 448.789 171.07
 451.371 170 454 170 c 456.629 170 459.211 171.07 461.07 172.93 c 462.93
 174.789 464 177.371 464 180 c 464 182.629 462.93 185.211 461.07 187.07 
c 459.211 188.93 456.629 190 454 190 c h
454 190 m f
65.07 172.93 m 66.93 174.789 68 177.371 68 180 c 68 182.629 66.93 185.211
 65.07 187.07 c 63.211 188.93 60.629 190 58 190 c 55.371 190 52.789 188.93
 50.93 187.07 c 49.07 185.211 48 182.629 48 180 c 48 177.371 49.07 174.789
 50.93 172.93 c 52.789 171.07 55.371 170 58 170 c 60.629 170 63.211 171.07
 65.07 172.93 c h
65.07 172.93 m f
58 294 m 60.629 294 63.211 295.07 65.07 296.93 c 66.93 298.789 68 301.371
 68 304 c 68 306.629 66.93 309.211 65.07 311.07 c 63.211 312.93 60.629 314
 58 314 c 55.371 314 52.789 312.93 50.93 311.07 c 49.07 309.211 48 306.629
 48 304 c 48 301.371 49.07 298.789 50.93 296.93 c 52.789 295.07 55.371 294
 58 294 c h
58 294 m f
178.75 258 m 184.273 258 188.75 262.477 188.75 268 c 188.75 273.523 184.273
 278 178.75 278 c 150.75 278 l 145.227 278 140.75 273.523 140.75 268 c 140.75
 262.477 145.227 258 150.75 258 c h
178.75 258 m f
296 294 m 298.629 294 301.211 295.07 303.07 296.93 c 304.93 298.789 306
 301.371 306 304 c 306 306.629 304.93 309.211 303.07 311.07 c 301.211 312.93
 298.629 314 296 314 c 293.371 314 290.789 312.93 288.93 311.07 c 287.07
 309.211 286 306.629 286 304 c 286 301.371 287.07 298.789 288.93 296.93 
c 290.789 295.07 293.371 294 296 294 c h
296 294 m f
416.75 258 m 422.273 258 426.75 262.477 426.75 268 c 426.75 273.523 422.273
 278 416.75 278 c 388.75 278 l 383.227 278 378.75 273.523 378.75 268 c 378.75
 262.477 383.227 258 388.75 258 c h
416.75 258 m f
Q Q
showpage
%%Trailer
end restore
%%EOF
