%!PS-Adobe-3.0 EPSF-3.0
%%Creator: cairo 1.14.2 (http://cairographics.org)
%%CreationDate: Mon Oct  8 09:05:16 2018
%%Pages: 1
%%DocumentData: Clean7Bit
%%LanguageLevel: 2
%%BoundingBox: 0 0 512 512
%%EndComments
%%BeginProlog
save
50 dict begin
/q { gsave } bind def
/Q { grestore } bind def
/cm { 6 array astore concat } bind def
/w { setlinewidth } bind def
/J { setlinecap } bind def
/j { setlinejoin } bind def
/M { setmiterlimit } bind def
/d { setdash } bind def
/m { moveto } bind def
/l { lineto } bind def
/c { curveto } bind def
/h { closepath } bind def
/re { exch dup neg 3 1 roll 5 3 roll moveto 0 rlineto
      0 exch rlineto 0 rlineto closepath } bind def
/S { stroke } bind def
/f { fill } bind def
/f* { eofill } bind def
/n { newpath } bind def
/W { clip } bind def
/W* { eoclip } bind def
/BT { } bind def
/ET { } bind def
/pdfmark where { pop globaldict /?pdfmark /exec load put }
    { globaldict begin /?pdfmark /pop load def /pdfmark
    /cleartomark load def end } ifelse
/BDC { mark 3 1 roll /BDC pdfmark } bind def
/EMC { mark /EMC pdfmark } bind def
/cairo_store_point { /cairo_point_y exch def /cairo_point_x exch def } def
/Tj { show currentpoint cairo_store_point } bind def
/TJ {
  {
    dup
    type /stringtype eq
    { show } { -0.001 mul 0 cairo_font_matrix dtransform rmoveto } ifelse
  } forall
  currentpoint cairo_store_point
} bind def
/cairo_selectfont { cairo_font_matrix aload pop pop pop 0 0 6 array astore
    cairo_font exch selectfont cairo_point_x cairo_point_y moveto } bind def
/Tf { pop /cairo_font exch def /cairo_font_matrix where
      { pop cairo_selectfont } if } bind def
/Td { matrix translate cairo_font_matrix matrix concatmatrix dup
      /cairo_font_matrix exch def dup 4 get exch 5 get cairo_store_point
      /cairo_font where { pop cairo_selectfont } if } bind def
/Tm { 2 copy 8 2 roll 6 array astore /cairo_font_matrix exch def
      cairo_store_point /cairo_font where { pop cairo_selectfont } if } bind def
/g { setgray } bind def
/rg { setrgbcolor } bind def
/d1 { setcachedevice } bind def
%%EndProlog
%%BeginSetup
%%EndSetup
%%Page: 1 1
%%BeginPageSetup
%%PageBoundingBox: 0 0 512 512
%%EndPageSetup
q 0 0 512 512 rectclip q
0 g
502 456 m 499.371 456 496.789 454.93 494.93 453.07 c 493.07 451.211 492
 448.629 492 446 c 492 443.371 493.07 440.789 494.93 438.93 c 496.789 437.07
 499.371 436 502 436 c 504.629 436 507.211 437.07 509.07 438.93 c 510.93
 440.789 512 443.371 512 446 c 512 448.629 510.93 451.211 509.07 453.07 
c 507.211 454.93 504.629 456 502 456 c h
502 456 m f
467 90 m 463.23 90 l 463.23 125.566 l 463.23 155.547 438.84 179.938 408.859
 179.938 c 384.422 179.938 l 356.254 246.281 l 352.066 256.152 344.68 263.969
 335.605 268.754 c 335.605 306.66 l 354.949 357.465 l 355.383 358.602 355.605
 359.809 355.605 361.023 c 355.605 436 l 461.668 436 l 467.188 436 471.668
 440.477 471.668 446 c 471.668 451.523 467.188 456 461.668 456 c 365.195
 456 l 366.75 460.383 367.602 465.094 367.602 470 c 367.602 474.906 366.75
 479.617 365.195 484 c 502 484 l 507.523 484 512 488.477 512 494 c 512 499.523
 507.523 504 502 504 c 351.355 504 l 350.996 504 350.645 503.98 350.297 
503.941 c 343.363 509.004 334.828 512 325.605 512 c 302.445 512 283.605 
493.16 283.605 470 c 283.605 458.434 288.305 447.945 295.891 440.344 c 295.711
 439.59 295.605 438.809 295.605 438 c 295.605 361.023 l 295.605 359.809 
295.824 358.602 296.258 357.465 c 315.605 306.66 l 315.605 273.977 l 315.195
 273.988 314.789 274 314.379 274 c 198.973 274 l 180.68 274 164.242 263.121
 157.094 246.281 c 128.93 179.938 l 117.773 179.938 l 87.793 179.938 63.402
 155.547 63.402 125.566 c 63.402 90 l 45 90 l 20.188 90 0 69.812 0 45 c 
0 20.188 20.188 0 45 0 c 467 0 l 491.812 0 512 20.188 512 45 c 512 69.812
 491.812 90 467 90 c h
325.605 428 m 329.051 428 332.398 428.426 335.605 429.215 c 335.605 376.168
 l 315.605 376.168 l 315.605 429.211 l 318.812 428.426 322.156 428 325.605
 428 c h
333.055 356.164 m 325.605 336.602 l 318.152 356.164 l h
325.605 492 m 337.734 492 347.605 482.133 347.605 470 c 347.605 457.867
 337.734 448 325.605 448 c 313.473 448 303.605 457.867 303.605 470 c 303.605
 482.133 313.473 492 325.605 492 c h
337.844 238.469 m 362.691 179.938 l 266.676 179.938 l 266.676 254 l 314.379
 254 l 324.629 254 333.84 247.902 337.844 238.469 c h
175.504 238.469 m 179.508 247.902 188.723 254 198.973 254 c 246.676 254
 l 246.676 179.938 l 150.656 179.938 l h
83.402 125.566 m 83.402 144.52 98.82 159.938 117.773 159.938 c 408.859 
159.938 l 427.812 159.938 443.23 144.52 443.23 125.566 c 443.23 90 l 422.77
 90 l 418.273 107.699 402.195 120.844 383.125 120.844 c 364.059 120.844 
347.98 107.699 343.484 90 c 195.602 90 l 191.105 107.699 175.023 120.844
 155.957 120.844 c 136.891 120.844 120.809 107.699 116.312 90 c 83.402 90
 l h
401.434 90 m 364.82 90 l 368.383 96.457 375.254 100.844 383.125 100.844
 c 391 100.844 397.871 96.457 401.434 90 c h
174.262 90 m 137.648 90 l 141.211 96.457 148.086 100.844 155.957 100.844
 c 163.828 100.844 170.703 96.457 174.262 90 c h
467 20 m 45 20 l 31.215 20 20 31.215 20 45 c 20 58.785 31.215 70 45 70 
c 467 70 l 480.785 70 492 58.785 492 45 c 492 31.215 480.785 20 467 20 c
 h
467 20 m f
64 55 m 61.371 55 58.789 53.93 56.93 52.07 c 55.07 50.211 54 47.629 54 
45 c 54 42.371 55.07 39.789 56.93 37.93 c 58.789 36.07 61.371 35 64 35 c
 66.629 35 69.211 36.07 71.07 37.93 c 72.93 39.789 74 42.371 74 45 c 74 
47.629 72.93 50.211 71.07 52.07 c 69.211 53.93 66.629 55 64 55 c h
64 55 m f
256 55 m 253.371 55 250.789 53.93 248.93 52.07 c 247.07 50.211 246 47.629
 246 45 c 246 42.371 247.07 39.789 248.93 37.93 c 250.789 36.07 253.371 
35 256 35 c 258.629 35 261.211 36.07 263.07 37.93 c 264.93 39.789 266 42.371
 266 45 c 266 47.629 264.93 50.211 263.07 52.07 c 261.211 53.93 258.629 
55 256 55 c h
256 55 m f
192 55 m 189.371 55 186.789 53.93 184.93 52.07 c 183.07 50.211 182 47.629
 182 45 c 182 42.371 183.07 39.789 184.93 37.93 c 186.789 36.07 189.371 
35 192 35 c 194.629 35 197.211 36.07 199.07 37.93 c 200.93 39.789 202 42.371
 202 45 c 202 47.629 200.93 50.211 199.07 52.07 c 197.211 53.93 194.629 
55 192 55 c h
192 55 m f
128 55 m 125.371 55 122.789 53.93 120.93 52.07 c 119.07 50.211 118 47.629
 118 45 c 118 42.371 119.07 39.789 120.93 37.93 c 122.789 36.07 125.371 
35 128 35 c 130.629 35 133.211 36.07 135.07 37.93 c 136.93 39.789 138 42.371
 138 45 c 138 47.629 136.93 50.211 135.07 52.07 c 133.211 53.93 130.629 
55 128 55 c h
128 55 m f
448 55 m 445.371 55 442.789 53.93 440.93 52.07 c 439.07 50.211 438 47.629
 438 45 c 438 42.371 439.07 39.789 440.93 37.93 c 442.789 36.07 445.371 
35 448 35 c 450.629 35 453.211 36.07 455.07 37.93 c 456.93 39.789 458 42.371
 458 45 c 458 47.629 456.93 50.211 455.07 52.07 c 453.211 53.93 450.629 
55 448 55 c h
448 55 m f
320 55 m 317.371 55 314.789 53.93 312.93 52.07 c 311.07 50.211 310 47.629
 310 45 c 310 42.371 311.07 39.789 312.93 37.93 c 314.789 36.07 317.371 
35 320 35 c 322.629 35 325.211 36.07 327.07 37.93 c 328.93 39.789 330 42.371
 330 45 c 330 47.629 328.93 50.211 327.07 52.07 c 325.211 53.93 322.629 
55 320 55 c h
320 55 m f
384 55 m 381.371 55 378.789 53.93 376.93 52.07 c 375.07 50.211 374 47.629
 374 45 c 374 42.371 375.07 39.789 376.93 37.93 c 378.789 36.07 381.371 
35 384 35 c 386.629 35 389.211 36.07 391.07 37.93 c 392.93 39.789 394 42.359
 394 45 c 394 47.641 392.93 50.211 391.07 52.07 c 389.211 53.93 386.629 
55 384 55 c h
384 55 m f
17.07 348.262 m 82.891 414.078 l 84.613 408.684 87.602 403.605 91.875 399.332
 c 96.16 395.047 101.254 392.055 106.672 390.336 c 2.934 286.598 l -0.969
 282.695 -0.969 276.363 2.934 272.457 c 4.887 270.504 7.445 269.527 10.008
 269.527 c 12.566 269.527 15.125 270.504 17.078 272.457 c 126.164 381.543
 l 172.684 335.023 l 178.512 329.195 186.262 325.984 194.504 325.984 c 199.289
 325.984 203.906 327.074 208.078 329.121 c 235.602 301.602 l 237.555 299.648
 240.113 298.672 242.672 298.672 c 245.23 298.672 247.789 299.648 249.742
 301.602 c 253.648 305.508 253.648 311.84 249.742 315.742 c 222.223 343.266
 l 224.27 347.441 225.359 352.059 225.359 356.844 c 225.359 365.086 222.148
 372.836 216.32 378.66 c 143.746 451.238 l 143.73 451.254 143.715 451.266
 143.695 451.281 c 136.754 458.184 127.551 461.984 117.754 461.984 c 107.926
 461.984 98.684 458.156 91.73 451.203 c 2.93 362.402 l -0.977 358.496 -0.977
 352.164 2.93 348.258 c 6.836 344.355 13.164 344.355 17.07 348.262 c h
205.359 356.844 m 205.359 353.941 204.23 351.219 202.184 349.168 c 202.184
 349.164 l 202.18 349.164 l 200.129 347.113 197.402 345.984 194.504 345.984
 c 191.605 345.984 188.879 347.113 186.828 349.164 c 140.309 395.684 l 143.781
 399.156 l 147.984 403.359 151.035 408.402 152.797 413.902 c 202.18 364.52
 l 204.23 362.469 205.359 359.742 205.359 356.844 c h
129.633 437.066 m 129.641 437.059 l 132.812 433.883 134.559 429.668 134.559
 425.18 c 134.559 421.094 133.094 417.238 130.438 414.184 c 130.164 413.965
 129.902 413.727 129.648 413.473 c 123.133 406.957 112.531 406.961 106.016
 413.473 c 99.5 419.988 99.5 430.59 106.016 437.105 c 106.172 437.258 106.309
 437.422 106.449 437.586 c 109.551 440.414 113.531 441.984 117.758 441.984
 c 122.242 441.984 126.457 440.238 129.633 437.066 c h
129.633 437.066 m f
Q Q
showpage
%%Trailer
end restore
%%EOF
