%!PS-Adobe-3.0 EPSF-3.0
%%Creator: cairo 1.14.2 (http://cairographics.org)
%%CreationDate: Mon Oct  8 09:05:16 2018
%%Pages: 1
%%DocumentData: Clean7Bit
%%LanguageLevel: 2
%%BoundingBox: 20 0 492 512
%%EndComments
%%BeginProlog
save
50 dict begin
/q { gsave } bind def
/Q { grestore } bind def
/cm { 6 array astore concat } bind def
/w { setlinewidth } bind def
/J { setlinecap } bind def
/j { setlinejoin } bind def
/M { setmiterlimit } bind def
/d { setdash } bind def
/m { moveto } bind def
/l { lineto } bind def
/c { curveto } bind def
/h { closepath } bind def
/re { exch dup neg 3 1 roll 5 3 roll moveto 0 rlineto
      0 exch rlineto 0 rlineto closepath } bind def
/S { stroke } bind def
/f { fill } bind def
/f* { eofill } bind def
/n { newpath } bind def
/W { clip } bind def
/W* { eoclip } bind def
/BT { } bind def
/ET { } bind def
/pdfmark where { pop globaldict /?pdfmark /exec load put }
    { globaldict begin /?pdfmark /pop load def /pdfmark
    /cleartomark load def end } ifelse
/BDC { mark 3 1 roll /BDC pdfmark } bind def
/EMC { mark /EMC pdfmark } bind def
/cairo_store_point { /cairo_point_y exch def /cairo_point_x exch def } def
/Tj { show currentpoint cairo_store_point } bind def
/TJ {
  {
    dup
    type /stringtype eq
    { show } { -0.001 mul 0 cairo_font_matrix dtransform rmoveto } ifelse
  } forall
  currentpoint cairo_store_point
} bind def
/cairo_selectfont { cairo_font_matrix aload pop pop pop 0 0 6 array astore
    cairo_font exch selectfont cairo_point_x cairo_point_y moveto } bind def
/Tf { pop /cairo_font exch def /cairo_font_matrix where
      { pop cairo_selectfont } if } bind def
/Td { matrix translate cairo_font_matrix matrix concatmatrix dup
      /cairo_font_matrix exch def dup 4 get exch 5 get cairo_store_point
      /cairo_font where { pop cairo_selectfont } if } bind def
/Tm { 2 copy 8 2 roll 6 array astore /cairo_font_matrix exch def
      cairo_store_point /cairo_font where { pop cairo_selectfont } if } bind def
/g { setgray } bind def
/rg { setrgbcolor } bind def
/d1 { setcachedevice } bind def
%%EndProlog
%%BeginSetup
%%EndSetup
%%Page: 1 1
%%BeginPageSetup
%%PageBoundingBox: 20 0 492 512
%%EndPageSetup
q 20 0 472 512 rectclip q
0 g
471.68 148.773 m 458.578 165.211 440.074 176.848 419.582 181.535 c 317.426
 204.898 l 337.363 222.148 350 247.629 350 276 c 350 325.5 l 366 325.5 l
 371.523 325.5 376 329.977 376 335.5 c 376 375.5 l 376 380.77 371.922 385.078
 366.75 385.461 c 366.75 391.914 l 366.75 449.617 322.395 497.145 265.988
 502.211 c 265.875 507.637 261.453 512 256 512 c 250.547 512 246.125 507.637
 246.012 502.211 c 189.605 497.145 145.25 449.617 145.25 391.914 c 145.25
 385.461 l 140.078 385.078 136 380.77 136 375.5 c 136 335.5 l 136 329.977
 140.477 325.5 146 325.5 c 162 325.5 l 162 276 l 162 247.629 174.637 222.148
 194.574 204.898 c 92.418 181.535 l 71.926 176.848 53.422 165.215 40.32 
148.773 c 27.215 132.336 20 111.703 20 90.684 c 20 10 l 20 4.477 24.477 
0 30 0 c 482 0 l 487.523 0 492 4.477 492 10 c 492 90.684 l 492 111.703 484.785
 132.336 471.68 148.773 c h
416 161.816 m 416 20 l 266 20 l 266 105.055 l 287.684 109.668 304 128.961
 304 152 c 304 187.453 l 415.125 162.039 l 415.418 161.973 415.707 161.891
 416 161.816 c h
228 186.258 m 236.848 183.492 246.254 182 256 182 c 265.746 182 275.152
 183.492 284 186.258 c 284 152 l 284 136.562 271.438 124 256 124 c 240.562
 124 228 136.562 228 152 c h
182 318.406 m 182 322.316 185.184 325.5 189.094 325.5 c 238.906 325.5 l
 242.816 325.5 246 322.316 246 318.406 c 246 292.594 l 246 288.684 242.816
 285.5 238.906 285.5 c 189.094 285.5 l 185.184 285.5 182 288.684 182 292.594
 c h
266 318.406 m 266 322.316 269.184 325.5 273.094 325.5 c 322.906 325.5 l
 326.816 325.5 330 322.316 330 318.406 c 330 292.594 l 330 288.684 326.816
 285.5 322.906 285.5 c 273.094 285.5 l 269.184 285.5 266 288.684 266 292.594
 c h
165.25 391.914 m 165.25 438.574 200.648 477.117 246 482.113 c 246 412.332
 l 246 406.812 250.477 402.332 256 402.332 c 261.523 402.332 266 406.812
 266 412.332 c 266 482.113 l 311.352 477.117 346.75 438.574 346.75 391.914
 c 346.75 385.5 l 165.25 385.5 l h
156 365.5 m 356 365.5 l 356 345.5 l 156 345.5 l h
182.66 266.277 m 184.723 265.773 186.875 265.5 189.094 265.5 c 238.906 
265.5 l 245.383 265.5 251.336 267.785 256 271.59 c 260.664 267.785 266.617
 265.5 273.094 265.5 c 322.906 265.5 l 325.125 265.5 327.277 265.773 329.34
 266.277 c 324.562 230.055 293.508 202 256 202 c 218.492 202 187.438 230.055
 182.66 266.277 c h
208 187.453 m 208 152 l 208 128.961 224.316 109.668 246 105.055 c 246 20
 l 136 20 l 136 50 l 136 55.523 131.523 60 126 60 c 120.477 60 116 55.523
 116 50 c 116 20 l 96 20 l 96 161.816 l 96.293 161.891 96.582 161.973 96.875
 162.039 c h
40 90.684 m 40 117.32 54.07 140.938 76 153.777 c 76 20 l 40 20 l h
472 20 m 436 20 l 436 153.777 l 457.93 140.938 472 117.32 472 90.684 c 
h
472 20 m f
126 74 m 128.629 74 131.211 75.07 133.07 76.93 c 134.93 78.789 136 81.371
 136 84 c 136 86.629 134.93 89.211 133.07 91.07 c 131.211 92.93 128.629 
94 126 94 c 123.371 94 120.789 92.93 118.93 91.07 c 117.07 89.211 116 86.629
 116 84 c 116 81.371 117.07 78.789 118.93 76.93 c 120.789 75.07 123.371 
74 126 74 c h
126 74 m f
348.668 72 m 376.5 72 l 382.023 72 386.5 76.477 386.5 82 c 386.5 87.523
 382.023 92 376.5 92 c 348.668 92 l 343.145 92 338.668 87.523 338.668 82
 c 338.668 76.477 343.145 72 348.668 72 c h
348.668 72 m f
303 82 m 303 79.371 304.07 76.789 305.93 74.93 c 307.789 73.07 310.371 
72 313 72 c 315.629 72 318.211 73.07 320.07 74.93 c 321.93 76.789 323 79.371
 323 82 c 323 84.629 321.93 87.211 320.07 89.07 c 318.211 90.93 315.629 
92 313 92 c 310.371 92 307.789 90.93 305.93 89.07 c 304.07 87.211 303 84.629
 303 82 c h
303 82 m f
Q Q
showpage
%%Trailer
end restore
%%EOF
