%!PS-Adobe-3.0 EPSF-3.0
%%Creator: cairo 1.14.2 (http://cairographics.org)
%%CreationDate: Mon Oct  8 09:05:16 2018
%%Pages: 1
%%DocumentData: Clean7Bit
%%LanguageLevel: 2
%%BoundingBox: 0 20 512 492
%%EndComments
%%BeginProlog
save
50 dict begin
/q { gsave } bind def
/Q { grestore } bind def
/cm { 6 array astore concat } bind def
/w { setlinewidth } bind def
/J { setlinecap } bind def
/j { setlinejoin } bind def
/M { setmiterlimit } bind def
/d { setdash } bind def
/m { moveto } bind def
/l { lineto } bind def
/c { curveto } bind def
/h { closepath } bind def
/re { exch dup neg 3 1 roll 5 3 roll moveto 0 rlineto
      0 exch rlineto 0 rlineto closepath } bind def
/S { stroke } bind def
/f { fill } bind def
/f* { eofill } bind def
/n { newpath } bind def
/W { clip } bind def
/W* { eoclip } bind def
/BT { } bind def
/ET { } bind def
/pdfmark where { pop globaldict /?pdfmark /exec load put }
    { globaldict begin /?pdfmark /pop load def /pdfmark
    /cleartomark load def end } ifelse
/BDC { mark 3 1 roll /BDC pdfmark } bind def
/EMC { mark /EMC pdfmark } bind def
/cairo_store_point { /cairo_point_y exch def /cairo_point_x exch def } def
/Tj { show currentpoint cairo_store_point } bind def
/TJ {
  {
    dup
    type /stringtype eq
    { show } { -0.001 mul 0 cairo_font_matrix dtransform rmoveto } ifelse
  } forall
  currentpoint cairo_store_point
} bind def
/cairo_selectfont { cairo_font_matrix aload pop pop pop 0 0 6 array astore
    cairo_font exch selectfont cairo_point_x cairo_point_y moveto } bind def
/Tf { pop /cairo_font exch def /cairo_font_matrix where
      { pop cairo_selectfont } if } bind def
/Td { matrix translate cairo_font_matrix matrix concatmatrix dup
      /cairo_font_matrix exch def dup 4 get exch 5 get cairo_store_point
      /cairo_font where { pop cairo_selectfont } if } bind def
/Tm { 2 copy 8 2 roll 6 array astore /cairo_font_matrix exch def
      cairo_store_point /cairo_font where { pop cairo_selectfont } if } bind def
/g { setgray } bind def
/rg { setrgbcolor } bind def
/d1 { setcachedevice } bind def
%%EndProlog
%%BeginSetup
%%EndSetup
%%Page: 1 1
%%BeginPageSetup
%%PageBoundingBox: 0 20 512 492
%%EndPageSetup
q 0 20 512 472 rectclip q
0 g
90.43 153.02 m 88.57 151.16 87.5 148.59 87.5 145.949 c 87.5 143.32 88.57
 140.742 90.43 138.883 c 92.289 137.023 94.871 135.949 97.5 135.949 c 100.129
 135.949 102.711 137.02 104.57 138.883 c 106.43 140.742 107.5 143.32 107.5
 145.949 c 107.5 148.582 106.43 151.16 104.57 153.02 c 102.711 154.879 100.129
 155.949 97.5 155.949 c 94.859 155.949 92.289 154.879 90.43 153.02 c h
90.43 153.02 m f
64 230.949 m 61.371 230.949 58.789 229.879 56.93 228.02 c 55.07 226.16 
54 223.59 54 220.949 c 54 218.32 55.07 215.738 56.93 213.879 c 58.789 212.02
 61.371 210.949 64 210.949 c 66.629 210.949 69.211 212.02 71.07 213.879 
c 72.93 215.738 74 218.32 74 220.949 c 74 223.578 72.93 226.16 71.07 228.02
 c 69.211 229.879 66.629 230.949 64 230.949 c h
64 230.949 m f
256 230.949 m 253.371 230.949 250.789 229.879 248.93 228.02 c 247.07 226.16
 246 223.578 246 220.949 c 246 218.32 247.07 215.738 248.93 213.879 c 250.789
 212.02 253.371 210.949 256 210.949 c 258.629 210.949 261.211 212.02 263.07
 213.879 c 264.93 215.738 266 218.32 266 220.949 c 266 223.578 264.93 226.16
 263.07 228.02 c 261.211 229.879 258.629 230.949 256 230.949 c h
256 230.949 m f
192 230.949 m 189.371 230.949 186.789 229.879 184.93 228.02 c 183.07 226.16
 182 223.578 182 220.949 c 182 218.32 183.07 215.738 184.93 213.879 c 186.789
 212.02 189.371 210.949 192 210.949 c 194.629 210.949 197.211 212.02 199.07
 213.879 c 200.93 215.738 202 218.32 202 220.949 c 202 223.578 200.93 226.16
 199.07 228.02 c 197.211 229.879 194.629 230.949 192 230.949 c h
192 230.949 m f
128 230.949 m 125.371 230.949 122.789 229.879 120.93 228.02 c 119.07 226.16
 118 223.578 118 220.949 c 118 218.32 119.07 215.738 120.93 213.879 c 122.789
 212.02 125.371 210.949 128 210.949 c 130.629 210.949 133.211 212.02 135.07
 213.879 c 136.93 215.738 138 218.32 138 220.949 c 138 223.578 136.93 226.16
 135.07 228.02 c 133.211 229.879 130.629 230.949 128 230.949 c h
128 230.949 m f
448 230.949 m 445.371 230.949 442.789 229.879 440.93 228.02 c 439.07 226.16
 438 223.578 438 220.949 c 438 218.32 439.07 215.738 440.93 213.879 c 442.789
 212.02 445.371 210.949 448 210.949 c 450.629 210.949 453.211 212.02 455.07
 213.879 c 456.93 215.738 458 218.32 458 220.949 c 458 223.578 456.93 226.16
 455.07 228.02 c 453.211 229.879 450.629 230.949 448 230.949 c h
448 230.949 m f
320 230.949 m 317.371 230.949 314.789 229.879 312.93 228.02 c 311.07 226.16
 310 223.59 310 220.949 c 310 218.32 311.07 215.738 312.93 213.879 c 314.789
 212.02 317.371 210.949 320 210.949 c 322.629 210.949 325.211 212.02 327.07
 213.879 c 328.93 215.738 330 218.32 330 220.949 c 330 223.578 328.93 226.16
 327.07 228.02 c 325.211 229.879 322.629 230.949 320 230.949 c h
320 230.949 m f
384 230.949 m 381.371 230.949 378.789 229.879 376.93 228.02 c 375.07 226.16
 374 223.578 374 220.949 c 374 218.32 375.07 215.738 376.93 213.879 c 378.789
 212.02 381.371 210.949 384 210.949 c 386.629 210.949 389.211 212.02 391.07
 213.879 c 392.93 215.738 394 218.32 394 220.949 c 394 223.578 392.93 226.16
 391.07 228.02 c 389.211 229.879 386.629 230.949 384 230.949 c h
384 230.949 m f
363 40 m 360.371 40 357.789 38.93 355.93 37.07 c 354.07 35.211 353 32.629
 353 30 c 353 27.371 354.07 24.789 355.93 22.93 c 357.789 21.07 360.371 
20 363 20 c 365.629 20 368.211 21.07 370.07 22.93 c 371.93 24.789 373 27.371
 373 30 c 373 32.629 371.93 35.211 370.07 37.07 c 368.211 38.93 365.629 
40 363 40 c h
363 40 m f
466.07 390.75 m 471.062 397.883 474 406.555 474 415.902 c 474 428.941 l
 477.832 430.344 480.574 434.012 480.574 438.328 c 480.574 441.426 l 480.574
 469.312 457.887 492 430 492 c 402.113 492 379.426 469.312 379.426 441.426
 c 379.426 438.328 l 379.426 434.012 382.168 430.344 386 428.941 c 386 415.902
 l 386 406.555 388.938 397.883 393.93 390.75 c 367.754 385.387 348 362.176
 348 334.434 c 348 265.949 l 338 265.949 l 338 334.434 l 338 362.172 318.246
 385.387 292.07 390.75 c 297.062 397.883 300 406.555 300 415.902 c 300 428.941
 l 303.832 430.344 306.574 434.012 306.574 438.328 c 306.574 441.426 l 306.574
 469.312 283.887 492 256 492 c 228.113 492 205.426 469.312 205.426 441.426
 c 205.426 438.328 l 205.426 434.012 208.168 430.344 212 428.941 c 212 415.902
 l 212 406.555 214.938 397.883 219.93 390.75 c 193.754 385.387 174 362.176
 174 334.434 c 174 265.949 l 164 265.949 l 164 334.434 l 164 362.172 144.246
 385.387 118.07 390.75 c 123.062 397.883 126 406.555 126 415.902 c 126 428.941
 l 129.832 430.344 132.574 434.012 132.574 438.328 c 132.574 441.426 l 132.574
 469.312 109.887 492 82 492 c 54.113 492 31.426 469.312 31.426 441.426 c
 31.426 438.328 l 31.426 434.012 34.168 430.344 38 428.941 c 38 415.902 
l 38 406.555 40.938 397.883 45.93 390.75 c 19.754 385.387 0 362.176 0 334.434
 c 0 30 l 0 24.477 4.477 20 10 20 c 320 20 l 325.523 20 330 24.477 330 30
 c 330 35.523 325.523 40 320 40 c 20 40 l 20 135.949 l 54 135.949 l 59.523
 135.949 64 140.43 64 145.949 c 64 151.473 59.523 155.949 54 155.949 c 20
 155.949 l 20 175.949 l 492 175.949 l 492 40 l 403 40 l 397.477 40 393 35.523
 393 30 c 393 24.477 397.477 20 403 20 c 502 20 l 507.523 20 512 24.477 
512 30 c 512 334.434 l 512 362.176 492.246 385.387 466.07 390.75 c h
429.461 391.914 m 416.477 392.203 406 402.852 406 415.902 c 406 428.328
 l 454 428.328 l 454 415.902 l 454 402.848 443.523 392.203 430.539 391.914
 c h
459.789 448.328 m 440 448.328 l 440 470.316 l 449.836 466.902 457.41 458.602
 459.789 448.328 c h
420 470.316 m 420 448.328 l 400.211 448.328 l 402.59 458.602 410.164 466.902
 420 470.316 c h
368 334.434 m 368 355.102 384.812 371.914 405.48 371.914 c 429.461 371.914
 l 429.641 371.914 429.82 371.902 430 371.902 c 430.18 371.902 430.359 371.914
 430.539 371.914 c 454.52 371.914 l 475.188 371.914 492 355.102 492 334.434
 c 492 265.953 l 476 265.953 l 476 327.953 l 476 333.473 471.523 337.953
 466 337.953 c 394 337.953 l 388.477 337.953 384 333.473 384 327.953 c 384
 265.953 l 368 265.953 l h
456 265.949 m 404 265.949 l 404 317.949 l 456 317.949 l h
255.461 391.914 m 242.477 392.203 232 402.852 232 415.902 c 232 428.328
 l 280 428.328 l 280 415.902 l 280 402.848 269.523 392.203 256.539 391.914
 c h
285.789 448.328 m 266 448.328 l 266 470.316 l 275.836 466.902 283.41 458.602
 285.789 448.328 c h
246 470.316 m 246 448.328 l 226.211 448.328 l 228.59 458.602 236.164 466.902
 246 470.316 c h
194 334.434 m 194 355.102 210.812 371.914 231.48 371.914 c 255.461 371.914
 l 255.641 371.914 255.82 371.902 256 371.902 c 256.18 371.902 256.359 371.914
 256.539 371.914 c 280.52 371.914 l 301.188 371.914 318 355.102 318 334.434
 c 318 265.953 l 302 265.953 l 302 327.953 l 302 333.473 297.523 337.953
 292 337.953 c 220 337.953 l 214.477 337.953 210 333.473 210 327.953 c 210
 265.953 l 194 265.953 l h
282 265.949 m 230 265.949 l 230 317.949 l 282 317.949 l h
81.461 391.914 m 68.477 392.203 58 402.852 58 415.902 c 58 428.328 l 106
 428.328 l 106 415.902 l 106 402.848 95.523 392.203 82.539 391.914 c h
111.789 448.328 m 92 448.328 l 92 470.316 l 101.836 466.902 109.41 458.602
 111.789 448.328 c h
72 470.316 m 72 448.328 l 52.211 448.328 l 54.59 458.602 62.164 466.902
 72 470.316 c h
20 334.434 m 20 355.102 36.812 371.914 57.48 371.914 c 81.461 371.914 l
 81.641 371.914 81.82 371.902 82 371.902 c 82.18 371.902 82.359 371.914 
82.539 371.914 c 106.52 371.914 l 127.188 371.914 144 355.102 144 334.434
 c 144 265.953 l 128 265.953 l 128 327.953 l 128 333.473 123.523 337.953
 118 337.953 c 46 337.953 l 40.477 337.953 36 333.473 36 327.953 c 36 265.953
 l 20 265.953 l h
108 265.949 m 56 265.949 l 56 317.949 l 108 317.949 l h
20 245.949 m 492 245.949 l 492 195.949 l 20 195.949 l h
20 245.949 m f
Q Q
showpage
%%Trailer
end restore
%%EOF
