%!PS-Adobe-3.0 EPSF-3.0
%%Creator: cairo 1.14.2 (http://cairographics.org)
%%CreationDate: Mon Oct  8 09:05:16 2018
%%Pages: 1
%%DocumentData: Clean7Bit
%%LanguageLevel: 2
%%BoundingBox: 0 0 511 511
%%EndComments
%%BeginProlog
save
50 dict begin
/q { gsave } bind def
/Q { grestore } bind def
/cm { 6 array astore concat } bind def
/w { setlinewidth } bind def
/J { setlinecap } bind def
/j { setlinejoin } bind def
/M { setmiterlimit } bind def
/d { setdash } bind def
/m { moveto } bind def
/l { lineto } bind def
/c { curveto } bind def
/h { closepath } bind def
/re { exch dup neg 3 1 roll 5 3 roll moveto 0 rlineto
      0 exch rlineto 0 rlineto closepath } bind def
/S { stroke } bind def
/f { fill } bind def
/f* { eofill } bind def
/n { newpath } bind def
/W { clip } bind def
/W* { eoclip } bind def
/BT { } bind def
/ET { } bind def
/pdfmark where { pop globaldict /?pdfmark /exec load put }
    { globaldict begin /?pdfmark /pop load def /pdfmark
    /cleartomark load def end } ifelse
/BDC { mark 3 1 roll /BDC pdfmark } bind def
/EMC { mark /EMC pdfmark } bind def
/cairo_store_point { /cairo_point_y exch def /cairo_point_x exch def } def
/Tj { show currentpoint cairo_store_point } bind def
/TJ {
  {
    dup
    type /stringtype eq
    { show } { -0.001 mul 0 cairo_font_matrix dtransform rmoveto } ifelse
  } forall
  currentpoint cairo_store_point
} bind def
/cairo_selectfont { cairo_font_matrix aload pop pop pop 0 0 6 array astore
    cairo_font exch selectfont cairo_point_x cairo_point_y moveto } bind def
/Tf { pop /cairo_font exch def /cairo_font_matrix where
      { pop cairo_selectfont } if } bind def
/Td { matrix translate cairo_font_matrix matrix concatmatrix dup
      /cairo_font_matrix exch def dup 4 get exch 5 get cairo_store_point
      /cairo_font where { pop cairo_selectfont } if } bind def
/Tm { 2 copy 8 2 roll 6 array astore /cairo_font_matrix exch def
      cairo_store_point /cairo_font where { pop cairo_selectfont } if } bind def
/g { setgray } bind def
/rg { setrgbcolor } bind def
/d1 { setcachedevice } bind def
%%EndProlog
%%BeginSetup
%%EndSetup
%%Page: 1 1
%%BeginPageSetup
%%PageBoundingBox: 0 0 511 511
%%EndPageSetup
q 0 0 511 511 rectclip q
0 g
148.332 127.801 m 150.953 127.801 153.527 128.855 155.387 130.723 c 157.242
 132.582 158.312 135.152 158.312 137.781 c 158.312 140.406 157.242 142.969
 155.387 144.836 c 153.527 146.695 150.953 147.762 148.332 147.762 c 145.703
 147.762 143.129 146.695 141.273 144.836 c 139.418 142.977 138.352 140.406
 138.352 137.781 c 138.352 135.145 139.418 132.582 141.273 130.723 c 143.129
 128.855 145.703 127.801 148.332 127.801 c h
148.332 127.801 m f
509.324 197.285 m 507.832 201.121 504.133 203.648 500.023 203.648 c 385.582
 203.648 l 398.547 206.961 409.059 216.457 413.809 228.785 c 414.508 228.629
 415.238 228.543 415.992 228.543 c 446.129 228.543 l 451.641 228.543 456.109
 233.008 456.109 238.523 c 456.109 285.566 l 456.109 303.59 447.348 319.605
 433.871 329.586 c 465.262 388.895 l 466.699 391.613 466.805 394.84 465.547
 397.648 c 441.578 451.117 l 446.129 451.117 l 451.641 451.117 456.109 455.586
 456.109 461.098 c 456.109 491.039 l 500.023 491.039 l 505.535 491.039 510.004
 495.508 510.004 501.02 c 510.004 506.531 505.535 511 500.023 511 c 8.984
 511 l 3.469 511 -1 506.531 -1 501.02 c -1 495.508 3.469 491.039 8.984 491.039
 c 52.898 491.039 l 52.898 461.098 l 52.898 455.586 57.363 451.117 62.879
 451.117 c 67.426 451.117 l 43.453 397.648 l 42.199 394.84 42.305 391.613
 43.742 388.895 c 75.133 329.586 l 61.656 319.602 52.898 303.59 52.898 285.566
 c 52.898 238.523 l 52.898 235.871 53.949 233.328 55.824 231.457 c 57.695
 229.59 60.234 228.543 62.879 228.543 c 62.891 228.543 l 107.828 228.609
 l 112.609 216.367 123.078 206.945 135.984 203.648 c 8.984 203.648 l 4.867
 203.648 1.172 201.121 -0.32 197.285 c -1.809 193.449 -0.797 189.09 2.238
 186.312 c 59.957 133.387 l 59.957 9.98 l 59.957 4.473 64.426 0 69.938 0
 c 439.066 0 l 444.578 0 449.047 4.473 449.047 9.98 c 449.047 133.387 l 
506.766 186.312 l 509.801 189.09 510.812 193.449 509.324 197.285 c h
375.391 222.332 m 363.707 222.332 354.199 231.836 354.199 243.523 c 354.199
 255.207 363.707 264.715 375.391 264.715 c 387.078 264.715 396.586 255.207
 396.586 243.523 c 396.586 231.836 387.078 222.332 375.391 222.332 c h
436.148 248.504 m 416.238 248.504 l 413.77 268.852 396.398 284.676 375.391
 284.676 c 354.41 284.676 337.059 268.895 334.559 248.578 c 257.781 248.578
 l 257.781 320.355 l 401.359 320.355 l 420.539 320.355 436.148 304.746 436.148
 285.566 c h
217.242 451.117 m 222.754 451.117 227.223 455.586 227.223 461.098 c 227.223
 491.039 l 281.781 491.039 l 281.781 461.098 l 281.781 455.586 286.25 451.117
 291.762 451.117 c 301.742 451.117 l 301.742 421.254 l 207.262 421.254 l
 207.262 451.117 l h
257.781 401.293 m 306.867 401.293 l 317.156 401.293 326.398 395.57 330.98
 386.359 c 353.902 340.316 l 257.781 340.316 l h
188.73 401.293 m 237.82 401.293 l 237.82 340.316 l 141.699 340.316 l 164.621
 386.359 l 169.203 395.57 178.445 401.293 188.73 401.293 c h
445.34 393.93 m 415.918 338.336 l 411.277 339.617 406.398 340.316 401.359
 340.316 c 376.199 340.316 l 348.848 395.258 l 343.16 406.684 333.352 415.023
 321.703 418.871 c 321.703 451.117 l 331.684 451.117 l 337.195 451.117 341.664
 455.586 341.664 461.098 c 341.664 491.039 l 396.227 491.039 l 396.227 461.098
 l 396.227 455.586 400.691 451.117 406.207 451.117 c 419.703 451.117 l h
436.148 491.039 m 436.148 471.078 l 416.188 471.078 l 416.188 491.039 l
 h
321.703 491.039 m 321.703 471.078 l 301.742 471.078 l 301.742 491.039 l
 h
207.262 491.039 m 207.262 471.078 l 187.301 471.078 l 187.301 491.039 l
 h
92.82 491.039 m 92.82 471.078 l 72.859 471.078 l 72.859 491.039 l h
63.664 393.93 m 89.301 451.117 l 102.801 451.117 l 108.312 451.117 112.781
 455.586 112.781 461.098 c 112.781 491.039 l 167.34 491.039 l 167.34 461.098
 l 167.34 455.586 171.809 451.117 177.32 451.117 c 187.301 451.117 l 187.301
 421.227 l 169.969 420.711 154.523 410.863 146.75 395.258 c 119.402 340.316
 l 107.648 340.316 l 102.609 340.316 97.727 339.617 93.09 338.336 c h
72.859 285.566 m 72.859 304.746 88.465 320.355 107.645 320.355 c 237.82
 320.355 l 237.82 248.578 l 187.008 248.578 l 184.508 268.895 167.156 284.676
 146.176 284.676 c 125.191 284.676 107.836 268.887 105.34 248.566 c 72.859
 248.516 l h
124.98 243.523 m 124.98 255.211 134.488 264.715 146.176 264.715 c 157.863
 264.715 167.367 255.211 167.367 243.523 c 167.367 231.84 157.863 222.332
 146.176 222.332 c 134.488 222.332 124.98 231.84 124.98 243.523 c h
184.527 228.617 m 337.043 228.617 l 341.82 216.371 352.297 206.945 365.199
 203.648 c 348.629 203.648 l 346.137 203.648 343.727 202.711 341.887 201.02
 c 287.68 151.316 l 233.473 201.02 l 231.633 202.707 229.223 203.648 226.727
 203.648 c 156.367 203.648 l 169.273 206.945 179.746 216.371 184.527 228.617
 c h
107.289 147.758 m 73.816 147.758 l 34.637 183.688 l 222.844 183.688 l 262.027
 147.758 l 189.629 147.758 l 184.117 147.758 179.648 143.289 179.648 137.777
 c 179.648 132.266 184.117 127.797 189.629 127.797 c 277.699 127.797 l 277.699
 19.961 l 79.918 19.961 l 79.918 127.797 l 107.289 127.797 l 112.801 127.797
 117.27 132.266 117.27 137.777 c 117.27 143.289 112.801 147.758 107.289 
147.758 c h
429.086 19.961 m 409.125 19.961 l 409.125 55.891 l 409.125 61.402 404.656
 65.871 399.145 65.871 c 393.633 65.871 389.164 61.402 389.164 55.891 c 
389.164 19.961 l 297.66 19.961 l 297.66 127.797 l 429.086 127.797 l h
435.184 147.758 m 313.332 147.758 l 352.516 183.688 l 474.367 183.688 l
 h
435.184 147.758 m f
208.398 277.414 m 213.91 277.414 218.379 281.887 218.379 287.395 c 218.379
 287.512 l 218.379 293.023 213.91 297.492 208.398 297.492 c 202.883 297.492
 198.418 293.023 198.418 287.512 c 198.418 287.395 l 198.418 281.883 202.883
 277.414 208.398 277.414 c h
208.398 277.414 m f
399.148 81.84 m 401.773 81.84 404.348 82.906 406.207 84.77 c 408.062 86.621
 409.129 89.195 409.129 91.82 c 409.129 94.449 408.062 97.02 406.207 98.875
 c 404.348 100.734 401.773 101.801 399.148 101.801 c 396.523 101.801 393.949
 100.738 392.094 98.875 c 390.238 97.02 389.168 94.449 389.168 91.82 c 389.168
 89.195 390.238 86.621 392.094 84.77 c 393.949 82.906 396.523 81.84 399.148
 81.84 c h
399.148 81.84 m f
Q Q
showpage
%%Trailer
end restore
%%EOF
