%!PS-Adobe-3.0 EPSF-3.0
%%Creator: cairo 1.14.2 (http://cairographics.org)
%%CreationDate: Mon Oct  8 09:05:16 2018
%%Pages: 1
%%DocumentData: Clean7Bit
%%LanguageLevel: 2
%%BoundingBox: 0 47 512 466
%%EndComments
%%BeginProlog
save
50 dict begin
/q { gsave } bind def
/Q { grestore } bind def
/cm { 6 array astore concat } bind def
/w { setlinewidth } bind def
/J { setlinecap } bind def
/j { setlinejoin } bind def
/M { setmiterlimit } bind def
/d { setdash } bind def
/m { moveto } bind def
/l { lineto } bind def
/c { curveto } bind def
/h { closepath } bind def
/re { exch dup neg 3 1 roll 5 3 roll moveto 0 rlineto
      0 exch rlineto 0 rlineto closepath } bind def
/S { stroke } bind def
/f { fill } bind def
/f* { eofill } bind def
/n { newpath } bind def
/W { clip } bind def
/W* { eoclip } bind def
/BT { } bind def
/ET { } bind def
/pdfmark where { pop globaldict /?pdfmark /exec load put }
    { globaldict begin /?pdfmark /pop load def /pdfmark
    /cleartomark load def end } ifelse
/BDC { mark 3 1 roll /BDC pdfmark } bind def
/EMC { mark /EMC pdfmark } bind def
/cairo_store_point { /cairo_point_y exch def /cairo_point_x exch def } def
/Tj { show currentpoint cairo_store_point } bind def
/TJ {
  {
    dup
    type /stringtype eq
    { show } { -0.001 mul 0 cairo_font_matrix dtransform rmoveto } ifelse
  } forall
  currentpoint cairo_store_point
} bind def
/cairo_selectfont { cairo_font_matrix aload pop pop pop 0 0 6 array astore
    cairo_font exch selectfont cairo_point_x cairo_point_y moveto } bind def
/Tf { pop /cairo_font exch def /cairo_font_matrix where
      { pop cairo_selectfont } if } bind def
/Td { matrix translate cairo_font_matrix matrix concatmatrix dup
      /cairo_font_matrix exch def dup 4 get exch 5 get cairo_store_point
      /cairo_font where { pop cairo_selectfont } if } bind def
/Tm { 2 copy 8 2 roll 6 array astore /cairo_font_matrix exch def
      cairo_store_point /cairo_font where { pop cairo_selectfont } if } bind def
/g { setgray } bind def
/rg { setrgbcolor } bind def
/d1 { setcachedevice } bind def
%%EndProlog
%%BeginSetup
%%EndSetup
%%Page: 1 1
%%BeginPageSetup
%%PageBoundingBox: 0 47 512 466
%%EndPageSetup
q 0 47 512 419 rectclip q
0 g
456.926 215.129 m 387.113 231.098 l 400.07 244.039 408.098 261.918 408.098
 281.633 c 408.098 315.172 l 417.121 315.172 l 422.645 315.172 427.121 319.648
 427.121 325.172 c 427.121 363.441 l 427.121 367.828 424.289 371.551 420.352
 372.895 c 420.352 375.453 l 420.352 418.352 387.914 453.797 346.281 458.598
 c 345.137 462.859 341.258 466 336.633 466 c 332.012 466 328.133 462.859
 326.984 458.598 c 292.902 454.668 265.004 430.199 256 397.914 c 246.992
 430.199 219.094 454.668 185.012 458.598 c 183.867 462.859 179.988 466 175.363
 466 c 170.742 466 166.863 462.859 165.719 458.598 c 124.086 453.797 91.645
 418.352 91.645 375.453 c 91.645 372.895 l 87.711 371.551 84.879 367.828
 84.879 363.441 c 84.879 325.172 l 84.879 319.648 89.355 315.172 94.879 
315.172 c 103.902 315.172 l 103.902 281.633 l 103.902 261.918 111.93 244.039
 124.887 231.098 c 55.07 215.129 l 22.648 207.711 0 179.301 0 146.035 c 
0 57 l 0 51.477 4.477 47 10 47 c 502 47 l 507.523 47 512 51.477 512 57 c
 512 146.035 l 512 179.301 489.352 207.711 456.926 215.129 c h
91 109 m 85.477 109 81 104.523 81 99 c 81 67 l 60.977 67 l 60.977 195.961
 l 137.562 213.48 l 137.562 190.902 l 137.562 173.52 149.359 158.848 165.367
 154.449 c 165.367 67 l 101 67 l 101 99 l 101 104.523 96.523 109 91 109 
c h
104.879 335.172 m 104.879 353.441 l 245.855 353.441 l 245.855 335.172 l
 h
407.121 335.172 m 266.145 335.172 l 266.145 353.441 l 407.121 353.441 l
 h
246.828 315.172 m 255.852 315.172 l 255.902 315.172 255.949 315.18 256 
315.18 c 256.047 315.176 256.098 315.172 256.145 315.172 c 265.168 315.172
 l 265.168 281.633 l 265.168 261.918 273.195 244.039 286.152 231.098 c 255.996
 224.199 l 225.844 231.098 l 238.801 244.039 246.828 261.918 246.828 281.633
 c h
344.625 174.984 m 339.141 187.34 330.195 197.863 318.828 205.297 c 318.828
 212.418 l 324.523 210.949 330.488 210.172 336.633 210.172 c 342.777 210.172
 348.746 210.953 354.438 212.418 c 354.438 190.902 l 354.438 184.07 350.508
 177.949 344.625 174.984 c h
175.367 173.098 m 165.551 173.098 157.562 181.086 157.562 190.902 c 157.562
 212.418 l 163.254 210.953 169.223 210.172 175.367 210.172 c 181.512 210.172
 187.477 210.953 193.172 212.418 c 193.172 190.902 l 193.172 181.086 185.184
 173.098 175.367 173.098 c h
185.367 154.449 m 201.371 158.848 213.172 173.52 213.172 190.902 c 213.172
 213.48 l 289.758 195.961 l 289.758 67 l 185.367 67 l h
309.758 187.25 m 322.66 177.938 330.73 162.855 330.73 146.035 c 330.73 
67 l 309.758 67 l h
350.098 155.578 m 364.5 161.078 374.438 175.086 374.438 190.902 c 374.438
 213.48 l 451.023 195.961 l 451.023 67 l 350.73 67 l 350.73 146.035 l 350.73
 149.27 350.512 152.453 350.098 155.578 c h
388.098 281.633 m 388.098 253.258 365.012 230.172 336.637 230.172 c 308.258
 230.172 285.172 253.258 285.172 281.633 c 285.172 315.172 l 388.098 315.172
 l h
272.914 375.449 m 272.914 407.184 296.234 433.566 326.637 438.379 c 326.637
 400.5 l 326.637 394.977 331.113 390.5 336.637 390.5 c 342.156 390.5 346.637
 394.977 346.637 400.5 c 346.637 438.379 l 377.035 433.566 400.355 407.184
 400.355 375.449 c 400.355 373.438 l 272.914 373.438 l h
111.645 375.449 m 111.645 407.184 134.965 433.566 165.367 438.379 c 165.367
 400.5 l 165.367 394.977 169.844 390.5 175.367 390.5 c 180.891 390.5 185.367
 394.977 185.367 400.5 c 185.367 438.379 l 215.766 433.566 239.086 407.184
 239.086 375.449 c 239.086 373.438 l 111.645 373.438 l h
123.902 281.633 m 123.902 315.172 l 226.828 315.172 l 226.828 281.633 l
 226.828 253.258 203.742 230.172 175.367 230.172 c 146.988 230.172 123.902
 253.258 123.902 281.633 c h
20 146.035 m 20 162.855 28.074 177.938 40.977 187.25 c 40.977 67 l 20 67
 l h
492 67 m 471.023 67 l 471.023 187.25 l 483.926 177.938 492 162.855 492 
146.035 c h
492 67 m f
385.293 129.684 m 424.805 129.684 l 430.328 129.684 434.805 134.16 434.805
 139.684 c 434.805 145.203 430.328 149.684 424.805 149.684 c 385.293 149.684
 l 379.77 149.684 375.293 145.203 375.293 139.684 c 375.293 134.16 379.77
 129.684 385.293 129.684 c h
385.293 129.684 m f
98.07 143.07 m 96.211 144.93 93.629 146 91 146 c 88.371 146 85.789 144.93
 83.93 143.07 c 82.07 141.211 81 138.629 81 136 c 81 133.371 82.07 130.789
 83.93 128.93 c 85.789 127.07 88.371 126 91 126 c 93.629 126 96.211 127.07
 98.07 128.93 c 99.93 130.789 101 133.371 101 136 c 101 138.629 99.93 141.211
 98.07 143.07 c h
98.07 143.07 m f
263.535 149.684 m 224.023 149.684 l 218.504 149.684 214.023 145.203 214.023
 139.684 c 214.023 134.16 218.504 129.684 224.023 129.684 c 263.535 129.684
 l 269.059 129.684 273.535 134.16 273.535 139.684 c 273.535 145.203 269.059
 149.684 263.535 149.684 c h
263.535 149.684 m f
Q Q
showpage
%%Trailer
end restore
%%EOF
