%!PS-Adobe-3.0 EPSF-3.0
%%Creator: cairo 1.14.2 (http://cairographics.org)
%%CreationDate: Mon Oct  8 09:05:16 2018
%%Pages: 1
%%DocumentData: Clean7Bit
%%LanguageLevel: 2
%%BoundingBox: 0 0 512 512
%%EndComments
%%BeginProlog
save
50 dict begin
/q { gsave } bind def
/Q { grestore } bind def
/cm { 6 array astore concat } bind def
/w { setlinewidth } bind def
/J { setlinecap } bind def
/j { setlinejoin } bind def
/M { setmiterlimit } bind def
/d { setdash } bind def
/m { moveto } bind def
/l { lineto } bind def
/c { curveto } bind def
/h { closepath } bind def
/re { exch dup neg 3 1 roll 5 3 roll moveto 0 rlineto
      0 exch rlineto 0 rlineto closepath } bind def
/S { stroke } bind def
/f { fill } bind def
/f* { eofill } bind def
/n { newpath } bind def
/W { clip } bind def
/W* { eoclip } bind def
/BT { } bind def
/ET { } bind def
/pdfmark where { pop globaldict /?pdfmark /exec load put }
    { globaldict begin /?pdfmark /pop load def /pdfmark
    /cleartomark load def end } ifelse
/BDC { mark 3 1 roll /BDC pdfmark } bind def
/EMC { mark /EMC pdfmark } bind def
/cairo_store_point { /cairo_point_y exch def /cairo_point_x exch def } def
/Tj { show currentpoint cairo_store_point } bind def
/TJ {
  {
    dup
    type /stringtype eq
    { show } { -0.001 mul 0 cairo_font_matrix dtransform rmoveto } ifelse
  } forall
  currentpoint cairo_store_point
} bind def
/cairo_selectfont { cairo_font_matrix aload pop pop pop 0 0 6 array astore
    cairo_font exch selectfont cairo_point_x cairo_point_y moveto } bind def
/Tf { pop /cairo_font exch def /cairo_font_matrix where
      { pop cairo_selectfont } if } bind def
/Td { matrix translate cairo_font_matrix matrix concatmatrix dup
      /cairo_font_matrix exch def dup 4 get exch 5 get cairo_store_point
      /cairo_font where { pop cairo_selectfont } if } bind def
/Tm { 2 copy 8 2 roll 6 array astore /cairo_font_matrix exch def
      cairo_store_point /cairo_font where { pop cairo_selectfont } if } bind def
/g { setgray } bind def
/rg { setrgbcolor } bind def
/d1 { setcachedevice } bind def
%%EndProlog
%%BeginSetup
%%EndSetup
%%Page: 1 1
%%BeginPageSetup
%%PageBoundingBox: 0 0 512 512
%%EndPageSetup
q 0 0 512 512 rectclip q
0 g
64 55 m 61.371 55 58.789 53.93 56.93 52.07 c 55.07 50.211 54 47.629 54 
45 c 54 42.371 55.07 39.789 56.93 37.93 c 58.789 36.07 61.371 35 64 35 c
 66.629 35 69.211 36.07 71.07 37.93 c 72.93 39.789 74 42.371 74 45 c 74 
47.629 72.93 50.211 71.07 52.07 c 69.211 53.93 66.629 55 64 55 c h
64 55 m f
256 55 m 253.371 55 250.789 53.93 248.93 52.07 c 247.07 50.211 246 47.629
 246 45 c 246 42.371 247.07 39.789 248.93 37.93 c 250.789 36.07 253.371 
35 256 35 c 258.629 35 261.211 36.07 263.07 37.93 c 264.93 39.789 266 42.371
 266 45 c 266 47.629 264.93 50.211 263.07 52.07 c 261.211 53.93 258.629 
55 256 55 c h
256 55 m f
192 55 m 189.371 55 186.789 53.93 184.93 52.07 c 183.07 50.211 182 47.629
 182 45 c 182 42.371 183.07 39.789 184.93 37.93 c 186.789 36.07 189.371 
35 192 35 c 194.629 35 197.211 36.07 199.07 37.93 c 200.93 39.789 202 42.371
 202 45 c 202 47.629 200.93 50.211 199.07 52.07 c 197.211 53.93 194.629 
55 192 55 c h
192 55 m f
128 55 m 125.371 55 122.789 53.93 120.93 52.07 c 119.07 50.211 118 47.629
 118 45 c 118 42.371 119.07 39.789 120.93 37.93 c 122.789 36.07 125.371 
35 128 35 c 130.629 35 133.211 36.07 135.07 37.93 c 136.93 39.789 138 42.371
 138 45 c 138 47.629 136.93 50.211 135.07 52.07 c 133.211 53.93 130.629 
55 128 55 c h
128 55 m f
448 55 m 445.371 55 442.789 53.93 440.93 52.07 c 439.07 50.211 438 47.629
 438 45 c 438 42.371 439.07 39.789 440.93 37.93 c 442.789 36.07 445.371 
35 448 35 c 450.629 35 453.211 36.07 455.07 37.93 c 456.93 39.789 458 42.371
 458 45 c 458 47.629 456.93 50.211 455.07 52.07 c 453.211 53.93 450.629 
55 448 55 c h
448 55 m f
320 55 m 317.371 55 314.789 53.93 312.93 52.07 c 311.07 50.211 310 47.629
 310 45 c 310 42.371 311.07 39.789 312.93 37.93 c 314.789 36.07 317.371 
35 320 35 c 322.629 35 325.211 36.07 327.07 37.93 c 328.93 39.789 330 42.371
 330 45 c 330 47.629 328.93 50.211 327.07 52.07 c 325.211 53.93 322.629 
55 320 55 c h
320 55 m f
384 55 m 381.371 55 378.789 53.93 376.93 52.07 c 375.07 50.211 374 47.629
 374 45 c 374 42.371 375.07 39.789 376.93 37.93 c 378.789 36.07 381.371 
35 384 35 c 386.629 35 389.211 36.07 391.07 37.93 c 392.93 39.789 394 42.371
 394 45 c 394 47.629 392.93 50.211 391.07 52.07 c 389.211 53.93 386.629 
55 384 55 c h
384 55 m f
100 492 m 102.629 492 105.211 493.07 107.07 494.93 c 108.93 496.789 110
 499.371 110 502 c 110 504.629 108.93 507.211 107.07 509.07 c 105.211 510.93
 102.629 512 100 512 c 97.371 512 94.789 510.93 92.93 509.07 c 91.07 507.211
 90 504.629 90 502 c 90 499.371 91.07 496.789 92.93 494.93 c 94.789 493.07
 97.371 492 100 492 c h
100 492 m f
267.5 364 m 270.129 364 272.711 365.07 274.57 366.93 c 276.43 368.789 277.5
 371.371 277.5 374 c 277.5 376.629 276.43 379.211 274.57 381.07 c 272.711
 382.93 270.129 384 267.5 384 c 264.871 384 262.289 382.93 260.43 381.07
 c 258.57 379.211 257.5 376.629 257.5 374 c 257.5 371.371 258.57 368.789
 260.43 366.93 c 262.289 365.07 264.871 364 267.5 364 c h
267.5 364 m f
400.82 268.805 m 425.07 293.055 l 426.945 294.93 428 297.473 428 300.125
 c 428 364 l 480 364 l 485.523 364 490 368.477 490 374 c 490 412 l 502 412
 l 507.523 412 512 416.477 512 422 c 512 502 l 512 507.523 507.523 512 502
 512 c 143.668 512 l 138.145 512 133.668 507.523 133.668 502 c 133.668 496.477
 138.145 492 143.668 492 c 492 492 l 492 432 l 20 432 l 20 492 l 55.504 
492 l 61.027 492 65.504 496.477 65.504 502 c 65.504 507.523 61.027 512 55.504
 512 c 10 512 l 4.477 512 0 507.523 0 502 c 0 422 l 0 416.477 4.477 412 
10 412 c 22 412 l 22 374 l 22 368.477 26.477 364 32 364 c 104 364 l 104 
300.125 l 104 297.473 105.055 294.93 106.93 293.055 c 131.18 268.805 l 133.055
 266.93 135.598 265.875 138.25 265.875 c 143.891 265.875 l 143.891 253.023
 l 140.852 245.816 l 138.336 239.852 132.527 236 126.059 236 c 106.176 236
 90 219.824 90 199.941 c 90 188.246 l 75.707 180.348 66 165.121 66 147.668
 c 66 146 l 54 146 l 48.477 146 44 141.523 44 136 c 44 89.977 l 19.648 89.438
 0 69.477 0 45 c 0 20.188 20.188 0 45 0 c 467 0 l 491.812 0 512 20.188 512
 45 c 512 69.477 492.352 89.438 468 89.977 c 468 136 l 468 141.523 463.523
 146 458 146 c 446 146 l 446 147.668 l 446 167.477 433.496 184.418 415.973
 191.031 c 419.777 196.879 422 203.852 422 211.332 c 422 213.938 l 422 223.512
 418.289 232.527 411.547 239.324 c 395.891 255.117 l 395.891 266.113 l 397.742
 266.52 399.461 267.441 400.82 268.805 c h
408 304.27 m 389.609 285.875 l 374.391 285.875 l 356 304.27 l 356 364 l
 408 364 l h
42 412 m 470 412 l 470 384 l 312.5 384 l 306.977 384 302.5 379.523 302.5
 374 c 302.5 368.477 306.977 364 312.5 364 c 336 364 l 336 300.125 l 336
 297.473 337.055 294.93 338.93 293.055 c 363.18 268.805 l 365.055 266.93
 367.598 265.875 370.25 265.875 c 375.891 265.875 l 375.891 253.023 l 372.852
 245.816 l 370.336 239.852 364.527 236 358.059 236 c 338.176 236 322 219.824
 322 199.941 c 322 188.246 l 307.707 180.348 298 165.121 298 147.668 c 298
 146 l 286 146 l 280.477 146 276 141.523 276 136 c 276 90 l 236 90 l 236
 136 l 236 141.523 231.523 146 226 146 c 214 146 l 214 147.668 l 214 167.477
 201.496 184.418 183.973 191.031 c 187.777 196.879 190 203.852 190 211.332
 c 190 213.938 l 190 223.512 186.289 232.527 179.547 239.324 c 163.891 255.117
 l 163.891 266.113 l 165.742 266.52 167.461 267.441 168.82 268.805 c 193.07
 293.055 l 194.945 294.93 196 297.473 196 300.125 c 196 364 l 223.5 364 
l 229.023 364 233.5 368.477 233.5 374 c 233.5 379.523 229.023 384 223.5 
384 c 42 384 l h
124 304.27 m 124 364 l 176 364 l 176 304.27 l 157.609 285.875 l 142.391
 285.875 l h
110 199.941 m 110 208.797 117.203 216 126.059 216 c 138.918 216 150.609
 222.777 157.047 233.613 c 165.344 225.246 l 168.348 222.219 170 218.199
 170 213.938 c 170 211.332 l 170 201.773 162.223 194 152.668 194 c 112.336
 194 l 111.551 194 110.773 193.98 110 193.941 c h
86 147.668 m 86 162.188 97.812 174 112.332 174 c 167.664 174 l 182.188 
174 194 162.188 194 147.668 c 194 146 l 86 146 l h
64 126 m 216 126 l 216 90 l 64 90 l h
492 45 m 492 31.215 480.785 20 467 20 c 45 20 l 31.215 20 20 31.215 20 
45 c 20 58.785 31.215 70 45 70 c 467 70 l 480.785 70 492 58.785 492 45 c
 h
448 90 m 296 90 l 296 126 l 448 126 l h
426 147.668 m 426 146 l 318 146 l 318 147.668 l 318 162.188 329.812 174
 344.332 174 c 399.664 174 l 414.188 174 426 162.188 426 147.668 c h
402 213.938 m 402 211.332 l 402 201.773 394.223 194 384.668 194 c 344.336
 194 l 343.551 194 342.773 193.98 342 193.941 c 342 199.941 l 342 208.797
 349.203 216 358.059 216 c 370.918 216 382.613 222.777 389.047 233.617 c
 397.348 225.246 l 400.348 222.219 402 218.199 402 213.938 c h
402 213.938 m f
Q Q
showpage
%%Trailer
end restore
%%EOF
