%!PS-Adobe-3.0 EPSF-3.0
%%Creator: cairo 1.14.2 (http://cairographics.org)
%%CreationDate: Mon Oct  8 09:05:16 2018
%%Pages: 1
%%DocumentData: Clean7Bit
%%LanguageLevel: 2
%%BoundingBox: 0 0 512 512
%%EndComments
%%BeginProlog
save
50 dict begin
/q { gsave } bind def
/Q { grestore } bind def
/cm { 6 array astore concat } bind def
/w { setlinewidth } bind def
/J { setlinecap } bind def
/j { setlinejoin } bind def
/M { setmiterlimit } bind def
/d { setdash } bind def
/m { moveto } bind def
/l { lineto } bind def
/c { curveto } bind def
/h { closepath } bind def
/re { exch dup neg 3 1 roll 5 3 roll moveto 0 rlineto
      0 exch rlineto 0 rlineto closepath } bind def
/S { stroke } bind def
/f { fill } bind def
/f* { eofill } bind def
/n { newpath } bind def
/W { clip } bind def
/W* { eoclip } bind def
/BT { } bind def
/ET { } bind def
/pdfmark where { pop globaldict /?pdfmark /exec load put }
    { globaldict begin /?pdfmark /pop load def /pdfmark
    /cleartomark load def end } ifelse
/BDC { mark 3 1 roll /BDC pdfmark } bind def
/EMC { mark /EMC pdfmark } bind def
/cairo_store_point { /cairo_point_y exch def /cairo_point_x exch def } def
/Tj { show currentpoint cairo_store_point } bind def
/TJ {
  {
    dup
    type /stringtype eq
    { show } { -0.001 mul 0 cairo_font_matrix dtransform rmoveto } ifelse
  } forall
  currentpoint cairo_store_point
} bind def
/cairo_selectfont { cairo_font_matrix aload pop pop pop 0 0 6 array astore
    cairo_font exch selectfont cairo_point_x cairo_point_y moveto } bind def
/Tf { pop /cairo_font exch def /cairo_font_matrix where
      { pop cairo_selectfont } if } bind def
/Td { matrix translate cairo_font_matrix matrix concatmatrix dup
      /cairo_font_matrix exch def dup 4 get exch 5 get cairo_store_point
      /cairo_font where { pop cairo_selectfont } if } bind def
/Tm { 2 copy 8 2 roll 6 array astore /cairo_font_matrix exch def
      cairo_store_point /cairo_font where { pop cairo_selectfont } if } bind def
/g { setgray } bind def
/rg { setrgbcolor } bind def
/d1 { setcachedevice } bind def
%%EndProlog
%%BeginSetup
%%EndSetup
%%Page: 1 1
%%BeginPageSetup
%%PageBoundingBox: 0 0 512 512
%%EndPageSetup
q 0 0 512 512 rectclip q
0 g
218 256.828 m 215.371 256.828 212.789 255.762 210.93 253.898 c 209.07 252.039
 208 249.461 208 246.828 c 208 244.199 209.07 241.621 210.93 239.762 c 212.789
 237.902 215.359 236.828 218 236.828 c 220.629 236.828 223.211 237.898 225.07
 239.762 c 226.93 241.621 228 244.199 228 246.828 c 228 249.461 226.93 252.039
 225.07 253.898 c 223.211 255.762 220.629 256.828 218 256.828 c h
218 256.828 m f
178.141 286.688 m 174.234 282.781 174.234 276.449 178.141 272.547 c 182.047
 268.641 188.379 268.641 192.285 272.547 c 206.465 286.727 229.539 286.727
 243.719 272.547 c 245.672 270.594 248.23 269.617 250.789 269.617 c 253.348
 269.617 255.906 270.594 257.859 272.547 c 261.766 276.449 261.766 282.781
 257.859 286.688 c 235.883 308.668 200.117 308.668 178.141 286.688 c h
178.141 286.688 m f
294.504 323.336 m 252.32 365.52 183.68 365.52 141.496 323.336 c 137.59 
319.43 137.59 313.098 141.496 309.191 c 145.402 305.285 151.73 305.285 155.637
 309.191 c 190.023 343.578 245.977 343.578 280.363 309.191 c 282.316 307.238
 284.875 306.262 287.434 306.262 c 289.992 306.262 292.551 307.238 294.504
 309.191 c 298.41 313.098 298.41 319.43 294.504 323.336 c h
294.504 323.336 m f
507.109 240.434 m 436 282.684 l 436 331.203 l 436 336.727 431.523 341.203
 426 341.203 c 396.035 341.203 l 391.828 357.102 385.535 372.281 377.254
 386.496 c 398.457 407.699 l 402.359 411.605 402.359 417.938 398.457 421.844
 c 345.844 474.457 l 341.938 478.359 335.605 478.359 331.699 474.457 c 310.496
 453.254 l 296.281 461.535 281.102 467.828 265.203 472.035 c 265.203 502
 l 265.203 507.523 260.727 512 255.203 512 c 180.797 512 l 175.273 512 170.797
 507.523 170.797 502 c 170.797 472.094 l 154.867 467.902 139.664 461.613
 125.422 453.336 c 104.301 474.457 l 100.395 478.359 94.062 478.359 90.156
 474.457 c 37.543 421.844 l 33.641 417.938 33.641 411.605 37.543 407.699
 c 58.613 386.633 l 50.289 372.375 43.969 357.148 39.75 341.203 c 10 341.203
 l 4.477 341.203 0 336.727 0 331.203 c 0 256.797 l 0 251.273 4.477 246.797
 10 246.797 c 39.691 246.797 l 43.898 230.82 50.211 215.57 58.531 201.289
 c 37.543 180.301 l 33.641 176.395 33.641 170.062 37.543 166.156 c 90.156
 113.543 l 94.062 109.641 100.395 109.641 104.301 113.543 c 125.289 134.531
 l 139.57 126.211 154.82 119.898 170.797 115.691 c 170.797 86 l 170.797 
80.477 175.273 76 180.797 76 c 255.203 76 l 260.727 76 265.203 80.477 265.203
 86 c 265.203 97.125 l 287.035 52.324 326.27 16.898 375.93 0.504 c 376.945
 0.168 378.004 0 379.062 0 c 380.121 0 381.18 0.168 382.199 0.504 c 459.836
 26.137 512 98.285 512 180.047 c 512 231.836 l 512 235.363 510.141 238.633
 507.109 240.434 c h
245.203 123.621 m 245.203 96 l 190.797 96 l 190.797 123.574 l 190.797 128.281
 187.516 132.352 182.914 133.348 c 163.766 137.5 145.691 144.98 129.195 
155.586 c 125.238 158.129 120.043 157.57 116.715 154.242 c 97.227 134.758
 l 58.758 173.227 l 78.242 192.715 l 81.57 196.039 82.129 201.234 79.586
 205.195 c 68.98 221.691 61.5 239.766 57.352 258.914 c 56.352 263.516 52.281
 266.797 47.578 266.797 c 20 266.797 l 20 321.203 l 47.621 321.203 l 52.324
 321.203 56.391 324.477 57.395 329.07 c 61.566 348.191 69.059 366.238 79.664
 382.715 c 82.215 386.672 81.656 391.871 78.328 395.199 c 58.758 414.77 
l 97.23 453.242 l 116.848 433.625 l 120.172 430.301 125.359 429.742 129.316
 432.281 c 145.777 442.84 163.809 450.293 182.918 454.438 c 187.516 455.434
 190.797 459.504 190.797 464.207 c 190.797 492 l 245.203 492 l 245.203 464.16
 l 245.203 459.461 248.48 455.395 253.074 454.391 c 272.148 450.23 290.156
 442.762 306.594 432.199 c 310.551 429.656 315.742 430.215 319.07 433.539
 c 338.773 453.242 l 377.242 414.77 l 357.543 395.07 l 354.215 391.742 353.656
 386.547 356.199 382.59 c 366.766 366.152 374.23 348.148 378.395 329.07 
c 379.395 324.477 383.461 321.203 388.164 321.203 c 416 321.203 l 416 294.566
 l 384.172 313.477 l 381.023 315.348 377.105 315.348 373.953 313.477 c 337.812
 292.004 l 337.824 292.668 337.836 293.336 337.836 294 c 337.836 360.074
 284.078 413.836 218 413.836 c 151.922 413.836 98.164 360.078 98.164 294
 c 98.164 227.922 151.922 174.164 218 174.164 c 227.551 174.164 236.977 
175.301 246.152 177.512 c 246.352 162.277 248.363 147.391 252.012 133.094
 c 247.984 131.738 245.203 127.953 245.203 123.621 c h
251.02 240.434 m 247.988 238.633 246.129 235.367 246.129 231.836 c 246.129
 198.184 l 237.031 195.52 227.59 194.164 218 194.164 c 162.949 194.164 118.164
 238.949 118.164 294 c 118.164 349.051 162.949 393.836 218 393.836 c 273.051
 393.836 317.836 349.051 317.836 294 c 317.836 289.145 317.465 284.281 316.77
 279.5 c h
492 180.047 m 492 108.043 446.754 44.371 379.062 20.566 c 311.371 44.371
 266.125 108.043 266.125 180.047 c 266.125 226.148 l 379.062 293.25 l 492
 226.145 l h
492 180.047 m f
373.953 266.949 m 291.02 217.672 l 287.984 215.871 286.125 212.605 286.125
 209.074 c 286.125 180.047 l 286.125 120.945 321.023 67.406 375.035 43.645
 c 376.316 43.082 377.691 42.797 379.062 42.797 c 380.434 42.797 381.805
 43.078 383.09 43.645 c 437.102 67.406 472 120.945 472 180.047 c 472 209.074
 l 472 212.602 470.141 215.871 467.109 217.672 c 384.172 266.949 l 381.023
 268.82 377.105 268.82 373.953 266.949 c h
452 203.387 m 452 180.047 l 452 130.359 423.52 85.215 379.062 63.805 c 
334.609 85.215 306.125 130.359 306.125 180.047 c 306.125 203.387 l 379.062
 246.723 l h
452 203.387 m f
366.738 162.645 m 362.832 166.551 356.504 166.551 352.594 162.645 c 348.691
 158.742 348.691 152.41 352.594 148.504 c 368.883 132.215 l 370.836 130.266
 373.395 129.285 375.953 129.285 c 378.512 129.285 381.07 130.266 383.023
 132.215 c 422.652 171.844 l 426.559 175.75 426.559 182.082 422.652 185.988
 c 418.746 189.891 412.414 189.891 408.508 185.988 c 375.953 153.43 l h
366.738 162.645 m f
Q Q
showpage
%%Trailer
end restore
%%EOF
