%!PS-Adobe-3.0 EPSF-3.0
%%Creator: cairo 1.14.2 (http://cairographics.org)
%%CreationDate: Mon Oct  8 09:05:16 2018
%%Pages: 1
%%DocumentData: Clean7Bit
%%LanguageLevel: 2
%%BoundingBox: 0 39 512 472
%%EndComments
%%BeginProlog
save
50 dict begin
/q { gsave } bind def
/Q { grestore } bind def
/cm { 6 array astore concat } bind def
/w { setlinewidth } bind def
/J { setlinecap } bind def
/j { setlinejoin } bind def
/M { setmiterlimit } bind def
/d { setdash } bind def
/m { moveto } bind def
/l { lineto } bind def
/c { curveto } bind def
/h { closepath } bind def
/re { exch dup neg 3 1 roll 5 3 roll moveto 0 rlineto
      0 exch rlineto 0 rlineto closepath } bind def
/S { stroke } bind def
/f { fill } bind def
/f* { eofill } bind def
/n { newpath } bind def
/W { clip } bind def
/W* { eoclip } bind def
/BT { } bind def
/ET { } bind def
/pdfmark where { pop globaldict /?pdfmark /exec load put }
    { globaldict begin /?pdfmark /pop load def /pdfmark
    /cleartomark load def end } ifelse
/BDC { mark 3 1 roll /BDC pdfmark } bind def
/EMC { mark /EMC pdfmark } bind def
/cairo_store_point { /cairo_point_y exch def /cairo_point_x exch def } def
/Tj { show currentpoint cairo_store_point } bind def
/TJ {
  {
    dup
    type /stringtype eq
    { show } { -0.001 mul 0 cairo_font_matrix dtransform rmoveto } ifelse
  } forall
  currentpoint cairo_store_point
} bind def
/cairo_selectfont { cairo_font_matrix aload pop pop pop 0 0 6 array astore
    cairo_font exch selectfont cairo_point_x cairo_point_y moveto } bind def
/Tf { pop /cairo_font exch def /cairo_font_matrix where
      { pop cairo_selectfont } if } bind def
/Td { matrix translate cairo_font_matrix matrix concatmatrix dup
      /cairo_font_matrix exch def dup 4 get exch 5 get cairo_store_point
      /cairo_font where { pop cairo_selectfont } if } bind def
/Tm { 2 copy 8 2 roll 6 array astore /cairo_font_matrix exch def
      cairo_store_point /cairo_font where { pop cairo_selectfont } if } bind def
/g { setgray } bind def
/rg { setrgbcolor } bind def
/d1 { setcachedevice } bind def
%%EndProlog
%%BeginSetup
%%EndSetup
%%Page: 1 1
%%BeginPageSetup
%%PageBoundingBox: 0 39 512 472
%%EndPageSetup
q 0 39 512 433 rectclip q
0 g
355 59.977 m 352.371 59.977 349.789 58.906 347.93 57.047 c 346.07 55.176
 345 52.605 345 49.977 c 345 47.348 346.07 44.766 347.93 42.895 c 349.789
 41.035 352.371 39.977 355 39.977 c 357.629 39.977 360.211 41.035 362.07
 42.895 c 363.93 44.766 365 47.348 365 49.977 c 365 52.605 363.93 55.176
 362.07 57.047 c 360.211 58.906 357.629 59.977 355 59.977 c h
355 59.977 m f
478.863 150.363 m 479.59 152.496 480 154.777 480 157.152 c 480 302.484 
l 480 321.797 473.477 340.824 461.633 356.074 c 452.5 367.832 447.469 382.508
 447.469 397.395 c 447.469 452.402 l 447.469 463.211 438.68 472 427.871 
472 c 405.652 472 l 394.848 472 386.055 463.211 386.055 452.402 c 386.055
 397.355 l 386.055 382.492 381.039 367.832 371.906 356.051 c 360.09 340.812
 353.582 321.805 353.582 302.523 c 353.582 157.152 l 353.582 156.754 353.621
 156.367 353.645 155.973 c 319.148 155.973 l 319.172 156.363 319.207 156.754
 319.207 157.152 c 319.207 302.484 l 319.207 321.797 312.684 340.824 300.84
 356.074 c 291.707 367.832 286.676 382.508 286.676 397.395 c 286.676 452.402
 l 286.676 463.211 277.887 472 267.078 472 c 244.859 472 l 234.055 472 225.262
 463.211 225.262 452.402 c 225.262 397.355 l 225.262 382.488 220.246 367.832
 211.113 356.051 c 199.301 340.816 192.793 321.805 192.793 302.523 c 192.793
 157.152 l 192.793 156.754 192.828 156.367 192.852 155.973 c 158.355 155.973
 l 158.379 156.363 158.418 156.754 158.418 157.152 c 158.418 302.484 l 158.418
 321.793 151.895 340.824 140.051 356.074 c 130.914 367.832 125.887 382.508
 125.887 397.395 c 125.887 452.402 l 125.887 463.211 117.094 472 106.289
 472 c 84.07 472 l 73.262 472 64.473 463.211 64.473 452.402 c 64.473 397.355
 l 64.473 382.488 59.453 367.832 50.32 356.051 c 38.508 340.816 32 321.805
 32 302.523 c 32 157.152 l 32 154.777 32.41 152.496 33.137 150.363 c 13.562
 141.035 0 121.059 0 97.973 c 0 65.992 26.02 39.973 58 39.973 c 317 39.973
 l 322.523 39.973 327 44.449 327 49.973 c 327 55.492 322.523 59.973 317 
59.973 c 299.762 59.973 l 308.617 70.16 314 83.445 314 97.973 c 314 112.5
 308.617 125.785 299.762 135.973 c 410.238 135.973 l 401.383 125.785 396
 112.5 396 97.973 c 396 83.445 401.383 70.16 410.238 59.973 c 391.668 59.973
 l 386.145 59.973 381.668 55.492 381.668 49.973 c 381.668 44.449 386.145
 39.973 391.668 39.973 c 454 39.973 l 485.98 39.973 512 65.992 512 97.973
 c 512 121.059 498.438 141.035 478.863 150.363 c h
373.582 263.086 m 460 263.086 l 460 203.086 l 373.582 203.086 l h
427.469 452 m 427.469 420.98 l 406.055 420.98 l 406.055 452 l h
387.734 343.828 m 399.547 359.066 406.055 378.078 406.055 397.355 c 406.055
 400.98 l 427.469 400.98 l 427.469 397.395 l 427.469 378.086 433.992 359.055
 445.836 343.805 c 454.969 332.047 460 317.375 460 302.484 c 460 283.086
 l 373.582 283.086 l 373.582 302.523 l 373.582 317.391 378.602 332.047 387.734
 343.828 c h
212.793 263.086 m 299.207 263.086 l 299.207 203.086 l 212.793 203.086 l
 h
266.676 452 m 266.676 420.98 l 245.266 420.98 l 245.266 452 l h
226.941 343.828 m 238.758 359.066 245.262 378.074 245.262 397.355 c 245.262
 400.98 l 266.676 400.98 l 266.676 397.395 l 266.676 378.086 273.199 359.055
 285.043 343.805 c 294.176 332.047 299.207 317.371 299.207 302.484 c 299.207
 283.086 l 212.789 283.086 l 212.789 302.523 l 212.793 317.391 217.809 332.047
 226.941 343.828 c h
212.793 157.152 m 212.793 183.086 l 299.207 183.086 l 299.207 157.152 l
 299.207 156.504 298.68 155.973 298.027 155.973 c 213.973 155.973 l 213.32
 155.973 212.793 156.504 212.793 157.152 c h
212.238 59.973 m 101.762 59.973 l 110.617 70.16 116 83.445 116 97.973 c
 116 112.5 110.617 125.785 101.762 135.973 c 212.238 135.973 l 203.383 125.785
 198 112.5 198 97.973 c 198 83.445 203.383 70.16 212.238 59.973 c h
105.887 452 m 105.887 420.98 l 84.473 420.98 l 84.473 452 l h
66.148 343.828 m 77.965 359.066 84.473 378.074 84.473 397.355 c 84.473 
400.98 l 105.887 400.98 l 105.887 397.395 l 105.887 378.086 112.406 359.055
 124.254 343.805 c 133.387 332.047 138.414 317.371 138.414 302.484 c 138.414
 203.086 l 52 203.086 l 52 263.086 l 75.984 263.086 l 81.508 263.086 85.984
 267.562 85.984 273.086 c 85.984 278.609 81.508 283.086 75.984 283.086 c
 52 283.086 l 52 302.523 l 52 317.391 57.016 332.047 66.148 343.828 c h
53.18 155.973 m 52.531 155.973 52 156.5 52 157.152 c 52 183.086 l 138.418
 183.086 l 138.418 157.152 l 138.418 156.504 137.887 155.973 137.234 155.973
 c h
20 97.973 m 20 118.926 37.047 135.973 58 135.973 c 78.953 135.973 96 118.926
 96 97.973 c 96 77.02 78.953 59.973 58 59.973 c 37.047 59.973 20 77.02 20
 97.973 c h
218 97.973 m 218 118.926 235.047 135.973 256 135.973 c 276.953 135.973 
294 118.926 294 97.973 c 294 77.02 276.953 59.973 256 59.973 c 235.047 59.973
 218 77.02 218 97.973 c h
373.582 157.152 m 373.582 183.086 l 460 183.086 l 460 157.152 l 460 156.504
 459.473 155.973 458.82 155.973 c 374.766 155.973 l 374.113 155.973 373.582
 156.504 373.582 157.152 c h
454 59.973 m 433.047 59.973 416 77.02 416 97.973 c 416 118.926 433.047 
135.973 454 135.973 c 474.953 135.973 492 118.926 492 97.973 c 492 77.02
 474.953 59.973 454 59.973 c h
454 59.973 m f
256 107.965 m 253.359 107.965 250.789 106.906 248.93 105.047 c 247.07 103.188
 246 100.605 246 97.977 c 246 95.336 247.07 92.766 248.93 90.906 c 250.789
 89.035 253.371 87.977 256 87.977 c 258.629 87.977 261.211 89.035 263.07
 90.906 c 264.93 92.766 266 95.336 266 97.977 c 266 100.605 264.93 103.176
 263.07 105.047 c 261.211 106.906 258.629 107.965 256 107.965 c h
256 107.965 m f
454 107.977 m 451.371 107.977 448.789 106.906 446.93 105.047 c 445.07 103.188
 444 100.605 444 97.977 c 444 95.336 445.07 92.766 446.93 90.906 c 448.789
 89.035 451.371 87.977 454 87.977 c 456.629 87.977 459.211 89.035 461.07
 90.906 c 462.93 92.766 464 95.336 464 97.977 c 464 100.605 462.93 103.188
 461.07 105.047 c 459.211 106.906 456.629 107.977 454 107.977 c h
454 107.977 m f
65.07 90.906 m 66.93 92.766 68 95.336 68 97.977 c 68 100.605 66.93 103.188
 65.07 105.047 c 63.211 106.906 60.629 107.977 58 107.977 c 55.371 107.977
 52.789 106.906 50.93 105.047 c 49.07 103.188 48 100.605 48 97.977 c 48 
95.336 49.07 92.766 50.93 90.906 c 52.789 89.035 55.371 87.977 58 87.977
 c 60.629 87.977 63.211 89.035 65.07 90.906 c h
65.07 90.906 m f
114 263.086 m 116.629 263.086 119.211 264.156 121.07 266.016 c 122.93 267.879
 124 270.457 124 273.086 c 124 275.719 122.93 278.297 121.07 280.156 c 119.211
 282.016 116.629 283.086 114 283.086 c 111.371 283.086 108.789 282.016 106.93
 280.156 c 105.07 278.297 104 275.727 104 273.086 c 104 270.457 105.07 267.879
 106.93 266.016 c 108.789 264.156 111.371 263.086 114 263.086 c h
114 263.086 m f
Q Q
showpage
%%Trailer
end restore
%%EOF
