%!PS-Adobe-3.0 EPSF-3.0
%%Creator: cairo 1.14.2 (http://cairographics.org)
%%CreationDate: Mon Oct  8 09:05:16 2018
%%Pages: 1
%%DocumentData: Clean7Bit
%%LanguageLevel: 2
%%BoundingBox: 0 0 512 512
%%EndComments
%%BeginProlog
save
50 dict begin
/q { gsave } bind def
/Q { grestore } bind def
/cm { 6 array astore concat } bind def
/w { setlinewidth } bind def
/J { setlinecap } bind def
/j { setlinejoin } bind def
/M { setmiterlimit } bind def
/d { setdash } bind def
/m { moveto } bind def
/l { lineto } bind def
/c { curveto } bind def
/h { closepath } bind def
/re { exch dup neg 3 1 roll 5 3 roll moveto 0 rlineto
      0 exch rlineto 0 rlineto closepath } bind def
/S { stroke } bind def
/f { fill } bind def
/f* { eofill } bind def
/n { newpath } bind def
/W { clip } bind def
/W* { eoclip } bind def
/BT { } bind def
/ET { } bind def
/pdfmark where { pop globaldict /?pdfmark /exec load put }
    { globaldict begin /?pdfmark /pop load def /pdfmark
    /cleartomark load def end } ifelse
/BDC { mark 3 1 roll /BDC pdfmark } bind def
/EMC { mark /EMC pdfmark } bind def
/cairo_store_point { /cairo_point_y exch def /cairo_point_x exch def } def
/Tj { show currentpoint cairo_store_point } bind def
/TJ {
  {
    dup
    type /stringtype eq
    { show } { -0.001 mul 0 cairo_font_matrix dtransform rmoveto } ifelse
  } forall
  currentpoint cairo_store_point
} bind def
/cairo_selectfont { cairo_font_matrix aload pop pop pop 0 0 6 array astore
    cairo_font exch selectfont cairo_point_x cairo_point_y moveto } bind def
/Tf { pop /cairo_font exch def /cairo_font_matrix where
      { pop cairo_selectfont } if } bind def
/Td { matrix translate cairo_font_matrix matrix concatmatrix dup
      /cairo_font_matrix exch def dup 4 get exch 5 get cairo_store_point
      /cairo_font where { pop cairo_selectfont } if } bind def
/Tm { 2 copy 8 2 roll 6 array astore /cairo_font_matrix exch def
      cairo_store_point /cairo_font where { pop cairo_selectfont } if } bind def
/g { setgray } bind def
/rg { setrgbcolor } bind def
/d1 { setcachedevice } bind def
%%EndProlog
%%BeginSetup
%%EndSetup
%%Page: 1 1
%%BeginPageSetup
%%PageBoundingBox: 0 0 512 512
%%EndPageSetup
q 0 0 512 512 rectclip q
0 g
317.328 360 m 319.969 360 322.539 361.07 324.398 362.93 c 326.27 364.789
 327.328 367.371 327.328 370 c 327.328 372.629 326.27 375.211 324.398 377.07
 c 322.539 378.93 319.961 380 317.328 380 c 314.699 380 312.121 378.93 310.262
 377.07 c 308.398 375.211 307.328 372.629 307.328 370 c 307.328 367.371 
308.398 364.789 310.262 362.93 c 312.121 361.07 314.699 360 317.328 360 
c h
317.328 360 m f
398 436 m 402.836 436 406.871 439.434 407.801 444 c 502 444 l 507.523 444
 512 448.477 512 454 c 512 502 l 512 507.52 507.523 512 502 512 c 10 512
 l 4.477 512 0 507.523 0 502 c 0 454 l 0 448.477 4.477 444 10 444 c 316.199
 444 l 317.129 439.438 321.164 436 326 436 c 352 436 l 352 338.145 l 318.93
 305.07 l 317.055 303.195 316 300.652 316 298 c 316 271.141 l 316 268.488
 317.055 265.945 318.93 264.07 c 325.324 257.676 l 327.277 255.723 329.836
 254.746 332.395 254.746 c 334.953 254.746 337.516 255.723 339.469 257.676
 c 343.371 261.578 343.371 267.91 339.469 271.816 c 336 275.285 l 336 293.855
 l 362 319.855 l 388 293.855 l 388 275.285 l 384.93 272.211 l 381.023 268.309
 381.023 261.977 384.93 258.07 c 388.836 254.164 395.164 254.164 399.07 
258.07 c 405.07 264.07 l 406.945 265.945 408 268.488 408 271.141 c 408 298
 l 408 300.652 406.945 303.195 405.07 305.07 c 372 338.145 l 372 360 l 447.996
 360 l 464.539 360 477.996 346.543 477.996 330 c 477.996 76 l 458 76 l 458
 151 l 458 156.523 453.523 161 448 161 c 442.477 161 438 156.523 438 151
 c 438 76 l 381.168 76 l 381.168 120.098 l 381.168 125.621 376.688 130.098
 371.168 130.098 c 351.414 130.098 l 348.492 140.508 344.352 150.488 339.051
 159.918 c 353.027 173.895 l 356.93 177.801 356.93 184.133 353.027 188.039
 c 314.703 226.359 l 310.801 230.262 304.473 230.266 300.562 226.359 c 286.586
 212.383 l 277.156 217.688 267.176 221.824 256.766 224.75 c 256.766 244.5
 l 256.766 250.023 252.285 254.5 246.766 254.5 c 192.57 254.5 l 187.047 
254.5 182.57 250.023 182.57 244.5 c 182.57 224.793 l 172.141 221.879 162.137
 217.742 152.691 212.441 c 138.773 226.359 l 134.867 230.262 128.539 230.262
 124.629 226.359 c 86.309 188.035 l 84.434 186.16 83.379 183.617 83.379 
180.965 c 83.379 178.312 84.434 175.77 86.309 173.895 c 100.184 160.02 l
 94.855 150.559 90.695 140.543 87.762 130.098 c 68.168 130.098 l 62.645 
130.098 58.168 125.621 58.168 120.098 c 58.168 76 l 33.996 76 l 33.996 330
 l 33.996 346.543 47.453 360 63.996 360 c 279.668 360 l 285.188 360 289.668
 364.477 289.668 370 c 289.668 375.523 285.188 380 279.668 380 c 63.996 
380 l 36.426 380 13.996 357.57 13.996 330 c 13.996 76 l 10 76 l 4.477 76
 0 71.523 0 66 c 0 49 l 0 21.98 21.98 0 49 0 c 463 0 l 490.02 0 512 21.98
 512 49 c 512 66 l 512 71.523 507.523 76 502 76 c 497.996 76 l 497.996 330
 l 497.996 357.57 475.566 380 447.996 380 c 372 380 l 372 436 l h
78.168 110.098 m 95.57 110.098 l 100.27 110.098 104.34 113.371 105.34 117.969
 c 108.309 131.578 113.645 144.422 121.191 156.145 c 123.742 160.102 123.184
 165.301 119.855 168.633 c 107.523 180.965 l 131.703 205.145 l 144.07 192.777
 l 147.391 189.457 152.582 188.895 156.539 191.434 c 168.258 198.949 181.094
 204.254 194.688 207.203 c 199.289 208.199 202.57 212.27 202.57 216.977 
c 202.57 234.5 l 236.766 234.5 l 236.766 216.941 l 236.766 212.238 240.039
 208.172 244.633 207.168 c 258.211 204.207 271.027 198.895 282.727 191.375
 c 286.684 188.828 291.875 189.391 295.203 192.715 c 307.633 205.145 l 331.812
 180.965 l 319.383 168.535 l 316.059 165.211 315.496 160.016 318.043 156.055
 c 325.562 144.355 330.875 131.539 333.836 117.965 c 334.84 113.371 338.906
 110.098 343.609 110.098 c 361.168 110.098 l 361.168 76 l 308.039 76 l 309.109
 81.578 309.668 87.262 309.668 93 c 309.668 142.625 269.297 183 219.668 
183 c 170.043 183 129.668 142.625 129.668 93 c 129.668 87.262 130.23 81.582
 131.301 76 c 78.168 76 l h
202.668 93 m 202.668 102.375 210.293 110 219.668 110 c 229.039 110 236.668
 102.375 236.668 93 c 236.668 83.625 229.039 76 219.668 76 c 210.293 76 
202.668 83.625 202.668 93 c h
219.668 130 m 199.266 130 182.668 113.402 182.668 93 c 182.668 86.871 184.172
 81.094 186.82 76 c 151.754 76 l 150.367 81.539 149.668 87.23 149.668 93
 c 149.668 131.598 181.07 163 219.668 163 c 258.266 163 289.668 131.598 
289.668 93 c 289.668 87.23 288.969 81.539 287.582 76 c 252.516 76 l 255.16
 81.094 256.668 86.871 256.668 93 c 256.668 113.402 240.07 130 219.668 130
 c h
492 49 m 492 33.012 478.988 20 463 20 c 49 20 l 33.012 20 20 33.012 20 
49 c 20 56 l 492 56 l h
492 464 m 408 464 l 408 492 l 492 492 l h
20 492 m 316 492 l 316 464 l 20 464 l h
336 492 m 388 492 l 388 456 l 336 456 l h
336 492 m f
369.07 466.93 m 370.93 468.789 372 471.371 372 474 c 372 476.629 370.93
 479.211 369.07 481.07 c 367.211 482.93 364.629 484 362 484 c 359.371 484
 356.789 482.93 354.93 481.07 c 353.07 479.211 352 476.629 352 474 c 352
 471.371 353.07 468.789 354.93 466.93 c 356.789 465.07 359.371 464 362 464
 c 364.629 464 367.211 465.07 369.07 466.93 c h
369.07 466.93 m f
448 176.75 m 450.629 176.75 453.211 177.82 455.07 179.68 c 456.93 181.539
 458 184.121 458 186.75 c 458 189.379 456.93 191.961 455.07 193.82 c 453.211
 195.68 450.629 196.75 448 196.75 c 445.371 196.75 442.789 195.68 440.93
 193.82 c 439.07 191.961 438 189.379 438 186.75 c 438 184.121 439.07 181.539
 440.93 179.68 c 442.789 177.82 445.371 176.75 448 176.75 c h
448 176.75 m f
Q Q
showpage
%%Trailer
end restore
%%EOF
