%!PS-Adobe-3.0 EPSF-3.0
%%Creator: cairo 1.14.2 (http://cairographics.org)
%%CreationDate: Mon Oct  8 09:05:16 2018
%%Pages: 1
%%DocumentData: Clean7Bit
%%LanguageLevel: 2
%%BoundingBox: 0 0 512 512
%%EndComments
%%BeginProlog
save
50 dict begin
/q { gsave } bind def
/Q { grestore } bind def
/cm { 6 array astore concat } bind def
/w { setlinewidth } bind def
/J { setlinecap } bind def
/j { setlinejoin } bind def
/M { setmiterlimit } bind def
/d { setdash } bind def
/m { moveto } bind def
/l { lineto } bind def
/c { curveto } bind def
/h { closepath } bind def
/re { exch dup neg 3 1 roll 5 3 roll moveto 0 rlineto
      0 exch rlineto 0 rlineto closepath } bind def
/S { stroke } bind def
/f { fill } bind def
/f* { eofill } bind def
/n { newpath } bind def
/W { clip } bind def
/W* { eoclip } bind def
/BT { } bind def
/ET { } bind def
/pdfmark where { pop globaldict /?pdfmark /exec load put }
    { globaldict begin /?pdfmark /pop load def /pdfmark
    /cleartomark load def end } ifelse
/BDC { mark 3 1 roll /BDC pdfmark } bind def
/EMC { mark /EMC pdfmark } bind def
/cairo_store_point { /cairo_point_y exch def /cairo_point_x exch def } def
/Tj { show currentpoint cairo_store_point } bind def
/TJ {
  {
    dup
    type /stringtype eq
    { show } { -0.001 mul 0 cairo_font_matrix dtransform rmoveto } ifelse
  } forall
  currentpoint cairo_store_point
} bind def
/cairo_selectfont { cairo_font_matrix aload pop pop pop 0 0 6 array astore
    cairo_font exch selectfont cairo_point_x cairo_point_y moveto } bind def
/Tf { pop /cairo_font exch def /cairo_font_matrix where
      { pop cairo_selectfont } if } bind def
/Td { matrix translate cairo_font_matrix matrix concatmatrix dup
      /cairo_font_matrix exch def dup 4 get exch 5 get cairo_store_point
      /cairo_font where { pop cairo_selectfont } if } bind def
/Tm { 2 copy 8 2 roll 6 array astore /cairo_font_matrix exch def
      cairo_store_point /cairo_font where { pop cairo_selectfont } if } bind def
/g { setgray } bind def
/rg { setrgbcolor } bind def
/d1 { setcachedevice } bind def
%%EndProlog
%%BeginSetup
%%EndSetup
%%Page: 1 1
%%BeginPageSetup
%%PageBoundingBox: 0 0 512 512
%%EndPageSetup
q 0 0 512 512 rectclip q
0 g
502 194 m 104 194 l 104 296.645 l 157.789 242.855 l 159.656 240.992 162.184
 239.938 164.82 239.93 c 197.613 239.805 l 218.035 219.383 l 219.988 217.43
 222.547 216.453 225.105 216.453 c 227.664 216.453 230.223 217.43 232.176
 219.383 c 236.082 223.285 236.082 229.617 232.176 233.523 c 211.754 253.945
 l 211.629 286.734 l 211.617 289.375 210.566 291.902 208.699 293.77 c 91.758
 410.715 l 91.719 410.754 91.676 410.785 91.633 410.824 c 83.23 419.84 71.266
 425.488 58 425.488 c 32.637 425.488 12 404.855 12 379.488 c 12 119.438 
l 4.77 114.59 0 106.34 0 97 c 0 10 l 0 4.477 4.477 0 10 0 c 502 0 l 507.523
 0 512 4.477 512 10 c 512 184 l 512 189.523 507.523 194 502 194 c h
492 174 m 492 124 l 104 124 l 104 174 l h
57.969 333.789 m 67.633 333.789 76.598 336.801 84 341.922 c 84 124 l 32
 124 l 32 341.879 l 39.391 336.781 48.336 333.789 57.969 333.789 c h
191.73 259.824 m 169.02 259.914 l 104 324.934 l 104 370.188 l 191.645 282.539
 l h
58 405.488 m 71.816 405.488 83.145 394.656 83.949 381.039 c 83.887 380.59
 83.844 380.133 83.844 379.668 c 83.844 365.398 72.238 353.789 57.969 353.789
 c 43.703 353.789 32.094 365.398 32.094 379.668 c 32.094 380.035 32.07 380.402
 32.031 380.762 c 32.695 394.512 44.09 405.488 58 405.488 c h
20 97 m 20 100.859 23.141 104 27 104 c 89 104 l 92.859 104 96 100.859 96
 97 c 96 20 l 20 20 l h
116 20 m 116 97 l 116 99.422 115.676 101.766 115.074 104 c 492 104 l 492
 83.75 l 411 83.75 l 405.477 83.75 401 79.273 401 73.75 c 401 68.227 405.477
 63.75 411 63.75 c 492 63.75 l 492 20 l h
116 20 m f
261 139 m 263.629 139 266.211 140.07 268.07 141.93 c 269.93 143.789 271
 146.371 271 149 c 271 151.629 269.93 154.211 268.07 156.07 c 266.211 157.93
 263.629 159 261 159 c 258.371 159 255.789 157.93 253.93 156.07 c 252.07
 154.211 251 151.629 251 149 c 251 146.371 252.07 143.789 253.93 141.93 
c 255.789 140.07 258.371 139 261 139 c h
261 139 m f
197 139 m 199.629 139 202.211 140.07 204.07 141.93 c 205.93 143.789 207
 146.371 207 149 c 207 151.629 205.93 154.211 204.07 156.07 c 202.211 157.93
 199.629 159 197 159 c 194.371 159 191.789 157.93 189.93 156.07 c 188.07
 154.211 187 151.629 187 149 c 187 146.371 188.07 143.789 189.93 141.93 
c 191.789 140.07 194.371 139 197 139 c h
197 139 m f
125.93 141.93 m 127.789 140.07 130.371 139 133 139 c 135.629 139 138.211
 140.07 140.07 141.93 c 141.93 143.789 143 146.371 143 149 c 143 151.629
 141.93 154.211 140.07 156.07 c 138.211 157.93 135.629 159 133 159 c 130.371
 159 127.789 157.93 125.93 156.07 c 124.07 154.211 123 151.629 123 149 c
 123 146.371 124.07 143.789 125.93 141.93 c h
125.93 141.93 m f
453 139 m 455.629 139 458.211 140.07 460.07 141.93 c 461.93 143.789 463
 146.371 463 149 c 463 151.629 461.93 154.211 460.07 156.07 c 458.211 157.93
 455.629 159 453 159 c 450.371 159 447.789 157.93 445.93 156.07 c 444.07
 154.211 443 151.629 443 149 c 443 146.371 444.07 143.789 445.93 141.93 
c 447.789 140.07 450.371 139 453 139 c h
453 139 m f
325 139 m 327.629 139 330.211 140.07 332.07 141.93 c 333.93 143.789 335
 146.371 335 149 c 335 151.629 333.93 154.211 332.07 156.07 c 330.211 157.93
 327.629 159 325 159 c 322.371 159 319.789 157.93 317.93 156.07 c 316.07
 154.211 315 151.629 315 149 c 315 146.371 316.07 143.789 317.93 141.93 
c 319.789 140.07 322.371 139 325 139 c h
325 139 m f
389 139 m 391.629 139 394.211 140.07 396.07 141.93 c 397.93 143.789 399
 146.371 399 149 c 399 151.641 397.93 154.211 396.07 156.07 c 394.211 157.93
 391.641 159 389 159 c 386.359 159 383.789 157.93 381.93 156.07 c 380.07
 154.211 379 151.641 379 149 c 379 146.371 380.07 143.789 381.93 141.93 
c 383.789 140.07 386.371 139 389 139 c h
389 139 m f
57.969 369.672 m 60.602 369.672 63.18 370.73 65.039 372.602 c 66.898 374.461
 67.969 377.039 67.969 379.672 c 67.969 382.301 66.898 384.879 65.039 386.738
 c 63.18 388.602 60.602 389.672 57.969 389.672 c 55.34 389.672 52.762 388.602
 50.898 386.738 c 49.039 384.879 47.969 382.301 47.969 379.672 c 47.969 
377.031 49.039 374.461 50.898 372.602 c 52.762 370.73 55.34 369.672 57.969
 369.672 c h
57.969 369.672 m f
502 512 m 10 512 l 4.477 512 0 507.523 0 502 c 0 462 l 0 456.477 4.477 
452 10 452 c 89 452 l 94.523 452 99 456.477 99 462 c 99 467.523 94.523 472
 89 472 c 20 472 l 20 492 l 492 492 l 492 472 l 266 472 l 266 475 l 266 
480.523 261.523 485 256 485 c 250.477 485 246 480.523 246 475 c 246 472 
l 182 472 l 176.477 472 172 467.523 172 462 c 172 456.477 176.477 452 182
 452 c 246 452 l 246 407.785 l 220.383 382.168 l 218.508 380.289 217.453
 377.746 217.453 375.098 c 217.453 351.977 l 217.453 349.324 218.508 346.781
 220.383 344.906 c 231.156 334.133 l 233.109 332.18 235.668 331.203 238.227
 331.203 c 240.785 331.203 243.344 332.18 245.297 334.133 c 249.203 338.039
 249.203 344.371 245.297 348.277 c 237.453 356.121 l 237.453 370.953 l 256
 389.5 l 274.547 370.953 l 274.547 356.117 l 266.984 348.555 l 263.078 344.648
 263.078 338.316 266.984 334.41 c 270.887 330.504 277.223 330.508 281.125
 334.41 c 291.617 344.906 l 293.492 346.781 294.547 349.324 294.547 351.977
 c 294.547 375.094 l 294.547 377.746 293.492 380.289 291.617 382.164 c 266
 407.785 l 266 452 l 392.242 452 l 388.289 445.598 386 438.062 386 430 c
 386 418.434 390.699 407.945 398.289 400.344 c 398.105 399.59 398 398.809
 398 398 c 398 328.965 l 345.082 276.043 l 335.863 266.824 333.918 253.055
 339.227 241.906 c 323.41 226.09 l 319.508 222.184 319.508 215.852 323.41
 211.945 c 325.363 209.992 327.926 209.016 330.484 209.016 c 333.043 209.016
 335.602 209.992 337.555 211.945 c 353.355 227.75 l 357.348 225.84 361.742
 224.828 366.297 224.828 c 374.309 224.828 381.844 227.949 387.508 233.617
 c 444.078 290.188 l 452.441 295.52 458 304.867 458 315.492 c 458 398 l 
458 398.809 457.895 399.59 457.711 400.344 c 465.301 407.945 470 418.434
 470 430 c 470 438.062 467.711 445.598 463.758 452 c 502 452 l 507.523 452
 512 456.477 512 462 c 512 502 l 512 507.523 507.523 512 502 512 c h
438 315.492 m 438 312.164 436.359 309.219 433.848 307.398 c 433.301 307.141
 432.77 306.828 432.266 306.465 c 430.969 305.848 429.527 305.492 428 305.492
 c 422.484 305.492 418 309.98 418 315.492 c 418 389.211 l 421.207 388.426
 424.555 388 428 388 c 431.445 388 434.793 388.426 438 389.211 c h
373.367 247.758 m 371.477 245.871 368.969 244.828 366.297 244.828 c 363.625
 244.828 361.117 245.867 359.23 247.754 c 359.227 247.754 359.227 247.758
 359.223 247.758 c 359.223 247.758 359.223 247.762 359.219 247.762 c 355.324
 251.66 355.328 258.004 359.223 261.898 c 400.609 303.285 l 403.41 297.02
 408.297 291.891 414.383 288.773 c h
450 430 m 450 417.867 440.133 408 428 408 c 415.867 408 406 417.867 406
 430 c 406 442.133 415.867 452 428 452 c 440.133 452 450 442.133 450 430
 c h
450 430 m f
145.07 454.93 m 146.93 456.789 148 459.371 148 462 c 148 464.629 146.93
 467.211 145.07 469.07 c 143.211 470.93 140.641 472 138 472 c 135.371 472
 132.789 470.93 130.93 469.07 c 129.07 467.211 128 464.629 128 462 c 128
 459.371 129.07 456.789 130.93 454.93 c 132.789 453.07 135.371 452 138 452
 c 140.629 452 143.211 453.07 145.07 454.93 c h
145.07 454.93 m f
428 420 m 430.629 420 433.211 421.07 435.07 422.93 c 436.93 424.789 438
 427.371 438 430 c 438 432.629 436.93 435.211 435.07 437.07 c 433.211 438.93
 430.629 440 428 440 c 425.371 440 422.789 438.93 420.93 437.07 c 419.07
 435.211 418 432.629 418 430 c 418 427.371 419.07 424.789 420.93 422.93 
c 422.789 421.07 425.371 420 428 420 c h
428 420 m f
58 88.5 m 43.387 88.5 31.5 76.613 31.5 62 c 31.5 47.387 43.387 35.5 58 
35.5 c 72.613 35.5 84.5 47.387 84.5 62 c 84.5 76.613 72.613 88.5 58 88.5
 c h
58 55.5 m 54.414 55.5 51.5 58.414 51.5 62 c 51.5 65.586 54.414 68.5 58 
68.5 c 61.586 68.5 64.5 65.586 64.5 62 c 64.5 58.414 61.586 55.5 58 55.5
 c h
58 55.5 m f
371.078 83.75 m 368.449 83.75 365.879 82.68 364.012 80.82 c 362.148 78.961
 361.078 76.379 361.078 73.75 c 361.078 71.121 362.148 68.539 364.012 66.68
 c 365.879 64.82 368.449 63.75 371.078 63.75 c 373.711 63.75 376.289 64.82
 378.148 66.68 c 380.008 68.539 381.078 71.121 381.078 73.75 c 381.078 76.379
 380.012 78.961 378.148 80.82 c 376.289 82.68 373.711 83.75 371.078 83.75
 c h
371.078 83.75 m f
Q Q
showpage
%%Trailer
end restore
%%EOF
