%!PS-Adobe-3.0 EPSF-3.0
%%Creator: cairo 1.14.2 (http://cairographics.org)
%%CreationDate: Mon Oct  8 09:05:16 2018
%%Pages: 1
%%DocumentData: Clean7Bit
%%LanguageLevel: 2
%%BoundingBox: 0 54 512 458
%%EndComments
%%BeginProlog
save
50 dict begin
/q { gsave } bind def
/Q { grestore } bind def
/cm { 6 array astore concat } bind def
/w { setlinewidth } bind def
/J { setlinecap } bind def
/j { setlinejoin } bind def
/M { setmiterlimit } bind def
/d { setdash } bind def
/m { moveto } bind def
/l { lineto } bind def
/c { curveto } bind def
/h { closepath } bind def
/re { exch dup neg 3 1 roll 5 3 roll moveto 0 rlineto
      0 exch rlineto 0 rlineto closepath } bind def
/S { stroke } bind def
/f { fill } bind def
/f* { eofill } bind def
/n { newpath } bind def
/W { clip } bind def
/W* { eoclip } bind def
/BT { } bind def
/ET { } bind def
/pdfmark where { pop globaldict /?pdfmark /exec load put }
    { globaldict begin /?pdfmark /pop load def /pdfmark
    /cleartomark load def end } ifelse
/BDC { mark 3 1 roll /BDC pdfmark } bind def
/EMC { mark /EMC pdfmark } bind def
/cairo_store_point { /cairo_point_y exch def /cairo_point_x exch def } def
/Tj { show currentpoint cairo_store_point } bind def
/TJ {
  {
    dup
    type /stringtype eq
    { show } { -0.001 mul 0 cairo_font_matrix dtransform rmoveto } ifelse
  } forall
  currentpoint cairo_store_point
} bind def
/cairo_selectfont { cairo_font_matrix aload pop pop pop 0 0 6 array astore
    cairo_font exch selectfont cairo_point_x cairo_point_y moveto } bind def
/Tf { pop /cairo_font exch def /cairo_font_matrix where
      { pop cairo_selectfont } if } bind def
/Td { matrix translate cairo_font_matrix matrix concatmatrix dup
      /cairo_font_matrix exch def dup 4 get exch 5 get cairo_store_point
      /cairo_font where { pop cairo_selectfont } if } bind def
/Tm { 2 copy 8 2 roll 6 array astore /cairo_font_matrix exch def
      cairo_store_point /cairo_font where { pop cairo_selectfont } if } bind def
/g { setgray } bind def
/rg { setrgbcolor } bind def
/d1 { setcachedevice } bind def
%%EndProlog
%%BeginSetup
%%EndSetup
%%Page: 1 1
%%BeginPageSetup
%%PageBoundingBox: 0 54 512 458
%%EndPageSetup
q 0 54 512 404 rectclip q
0 g
304 156 m 298.477 156 294 160.477 294 166 c 294 382 l 294 387.523 298.477
 392 304 392 c 309.523 392 314 387.523 314 382 c 314 166 l 314 160.477 309.523
 156 304 156 c h
304 156 m f
352 156 m 349.371 156 346.789 157.07 344.93 158.93 c 343.07 160.789 342
 163.371 342 166 c 342 168.629 343.07 171.211 344.93 173.07 c 346.789 174.93
 349.371 176 352 176 c 354.629 176 357.211 174.93 359.07 173.07 c 360.93
 171.211 362 168.629 362 166 c 362 163.371 360.93 160.789 359.07 158.93 
c 357.211 157.07 354.629 156 352 156 c h
352 156 m f
352 193 m 346.477 193 342 197.477 342 203 c 342 382 l 342 387.523 346.477
 392 352 392 c 357.523 392 362 387.523 362 382 c 362 203 l 362 197.477 357.523
 193 352 193 c h
352 193 m f
400 120 m 394.477 120 390 124.477 390 130 c 390 382 l 390 387.523 394.477
 392 400 392 c 405.523 392 410 387.523 410 382 c 410 130 l 410 124.477 405.523
 120 400 120 c h
400 120 m f
448 156 m 442.477 156 438 160.477 438 166 c 438 382 l 438 387.523 442.477
 392 448 392 c 453.523 392 458 387.523 458 382 c 458 166 l 458 160.477 453.523
 156 448 156 c h
448 156 m f
112 120 m 106.477 120 102 124.477 102 130 c 102 382 l 102 387.523 106.477
 392 112 392 c 117.523 392 122 387.523 122 382 c 122 130 l 122 124.477 117.523
 120 112 120 c h
112 120 m f
160 193 m 154.477 193 150 197.477 150 203 c 150 382 l 150 387.523 154.477
 392 160 392 c 165.523 392 170 387.523 170 382 c 170 203 l 170 197.477 165.523
 193 160 193 c h
160 193 m f
160 156 m 157.371 156 154.789 157.07 152.93 158.93 c 151.07 160.789 150
 163.371 150 166 c 150 168.629 151.07 171.211 152.93 173.07 c 154.789 174.93
 157.371 176 160 176 c 162.629 176 165.211 174.93 167.07 173.07 c 168.93
 171.211 170 168.629 170 166 c 170 163.371 168.93 160.789 167.07 158.93 
c 165.211 157.07 162.629 156 160 156 c h
160 156 m f
64 156 m 58.477 156 54 160.477 54 166 c 54 382 l 54 387.523 58.477 392 
64 392 c 69.523 392 74 387.523 74 382 c 74 166 l 74 160.477 69.523 156 64
 156 c h
64 156 m f
208 156 m 202.477 156 198 160.477 198 166 c 198 382 l 198 387.523 202.477
 392 208 392 c 213.523 392 218 387.523 218 382 c 218 166 l 218 160.477 213.523
 156 208 156 c h
208 156 m f
256 156 m 250.477 156 246 160.477 246 166 c 246 382 l 246 387.523 250.477
 392 256 392 c 261.523 392 266 387.523 266 382 c 266 166 l 266 160.477 261.523
 156 256 156 c h
256 156 m f
502 54 m 10 54 l 4.477 54 0 58.477 0 64 c 0 448 l 0 453.523 4.477 458 10
 458 c 502 458 l 507.523 458 512 453.523 512 448 c 512 64 l 512 58.477 507.523
 54 502 54 c h
20 74 m 492 74 l 492 438 l 20 438 l h
20 74 m f
Q Q
showpage
%%Trailer
end restore
%%EOF
