%!PS-Adobe-3.0 EPSF-3.0
%%Creator: cairo 1.14.2 (http://cairographics.org)
%%CreationDate: Mon Oct  8 09:05:16 2018
%%Pages: 1
%%DocumentData: Clean7Bit
%%LanguageLevel: 2
%%BoundingBox: 0 0 512 512
%%EndComments
%%BeginProlog
save
50 dict begin
/q { gsave } bind def
/Q { grestore } bind def
/cm { 6 array astore concat } bind def
/w { setlinewidth } bind def
/J { setlinecap } bind def
/j { setlinejoin } bind def
/M { setmiterlimit } bind def
/d { setdash } bind def
/m { moveto } bind def
/l { lineto } bind def
/c { curveto } bind def
/h { closepath } bind def
/re { exch dup neg 3 1 roll 5 3 roll moveto 0 rlineto
      0 exch rlineto 0 rlineto closepath } bind def
/S { stroke } bind def
/f { fill } bind def
/f* { eofill } bind def
/n { newpath } bind def
/W { clip } bind def
/W* { eoclip } bind def
/BT { } bind def
/ET { } bind def
/pdfmark where { pop globaldict /?pdfmark /exec load put }
    { globaldict begin /?pdfmark /pop load def /pdfmark
    /cleartomark load def end } ifelse
/BDC { mark 3 1 roll /BDC pdfmark } bind def
/EMC { mark /EMC pdfmark } bind def
/cairo_store_point { /cairo_point_y exch def /cairo_point_x exch def } def
/Tj { show currentpoint cairo_store_point } bind def
/TJ {
  {
    dup
    type /stringtype eq
    { show } { -0.001 mul 0 cairo_font_matrix dtransform rmoveto } ifelse
  } forall
  currentpoint cairo_store_point
} bind def
/cairo_selectfont { cairo_font_matrix aload pop pop pop 0 0 6 array astore
    cairo_font exch selectfont cairo_point_x cairo_point_y moveto } bind def
/Tf { pop /cairo_font exch def /cairo_font_matrix where
      { pop cairo_selectfont } if } bind def
/Td { matrix translate cairo_font_matrix matrix concatmatrix dup
      /cairo_font_matrix exch def dup 4 get exch 5 get cairo_store_point
      /cairo_font where { pop cairo_selectfont } if } bind def
/Tm { 2 copy 8 2 roll 6 array astore /cairo_font_matrix exch def
      cairo_store_point /cairo_font where { pop cairo_selectfont } if } bind def
/g { setgray } bind def
/rg { setrgbcolor } bind def
/d1 { setcachedevice } bind def
%%EndProlog
%%BeginSetup
%%EndSetup
%%Page: 1 1
%%BeginPageSetup
%%PageBoundingBox: 0 0 512 512
%%EndPageSetup
q 0 0 512 512 rectclip q
0 g
502 458 m 357.473 458 l 351.949 458 347.473 453.523 347.473 448 c 347.473
 442.477 351.949 438 357.473 438 c 492 438 l 492 20 l 79.184 20 l 46.551
 20 20 46.551 20 79.184 c 20 105.105 41.09 126.199 67.016 126.199 c 87.359
 126.199 103.914 109.688 104 89.363 c 104 89.055 l 103.918 73.285 91.066
 60.484 75.277 60.484 c 63.195 60.484 53.363 70.316 53.363 82.398 c 53.363
 91.387 60.676 98.699 69.664 98.699 c 75.188 98.699 79.664 103.18 79.664
 108.699 c 79.664 114.223 75.188 118.699 69.664 118.699 c 49.648 118.699
 33.363 102.414 33.363 82.398 c 33.363 59.285 52.168 40.484 75.277 40.484
 c 100.785 40.484 121.762 60.188 123.824 85.172 c 123.934 85.77 124 86.383
 124 87.012 c 124 89.055 l 124 89.105 124.004 89.156 124.004 89.207 c 124.004
 89.262 124 89.312 124 89.363 c 124 438 l 277.098 438 l 282.621 438 287.098
 442.477 287.098 448 c 287.098 453.523 282.621 458 277.098 458 c 123.922
 458 l 122.363 488.039 97.434 512 67.016 512 c 30.062 512 0 481.938 0 444.984
 c 0 79.184 l 0 35.52 35.52 0 79.184 0 c 502 0 l 507.523 0 512 4.48 512 
10 c 512 448 l 512 453.523 507.523 458 502 458 c h
39.996 483.426 m 39.996 367.402 l 39.996 361.879 44.477 357.402 49.996 
357.402 c 55.52 357.402 59.996 361.879 59.996 367.402 c 59.996 491.473 l
 62.289 491.816 64.629 492 67.016 492 c 87.406 492 104 475.406 104 455.012
 c 104 132.512 l 94.039 141.035 81.121 146.195 67.016 146.195 c 48.715 146.195
 32.105 138.812 20 126.879 c 20 444.984 l 20 460.859 27.914 474.91 39.996
 483.426 c h
39.996 483.426 m f
317.25 438 m 319.879 438 322.461 439.07 324.32 440.93 c 326.18 442.789 
327.25 445.371 327.25 448 c 327.25 450.629 326.18 453.211 324.32 455.07 
c 322.461 456.93 319.879 458 317.25 458 c 314.621 458 312.039 456.93 310.18
 455.07 c 308.32 453.211 307.25 450.629 307.25 448 c 307.25 445.371 308.32
 442.789 310.18 440.93 c 312.039 439.07 314.621 438 317.25 438 c h
317.25 438 m f
448 379 m 160.699 379 l 155.176 379 150.699 374.523 150.699 369 c 150.699
 363.477 155.176 359 160.699 359 c 448 359 l 453.523 359 458 363.477 458
 369 c 458 374.523 453.523 379 448 379 c h
448 379 m f
177.668 323 m 160.699 323 l 155.176 323 150.699 318.523 150.699 313 c 150.699
 307.477 155.176 303 160.699 303 c 177.668 303 l 183.191 303 187.668 307.477
 187.668 313 c 187.668 318.523 183.191 323 177.668 323 c h
177.668 323 m f
177.668 267 m 160.699 267 l 155.176 267 150.699 262.523 150.699 257 c 150.699
 251.477 155.176 247 160.699 247 c 177.668 247 l 183.191 247 187.668 251.477
 187.668 257 c 187.668 262.523 183.191 267 177.668 267 c h
177.668 267 m f
177.668 211 m 160.699 211 l 155.176 211 150.699 206.523 150.699 201 c 150.699
 195.48 155.176 191 160.699 191 c 177.668 191 l 183.191 191 187.668 195.48
 187.668 201 c 187.668 206.523 183.191 211 177.668 211 c h
177.668 211 m f
177.668 155 m 160.699 155 l 155.176 155 150.699 150.523 150.699 145 c 150.699
 139.48 155.176 135 160.699 135 c 177.668 135 l 183.191 135 187.668 139.48
 187.668 145 c 187.668 150.523 183.191 155 177.668 155 c h
177.668 155 m f
177.668 99 m 160.699 99 l 155.176 99 150.699 94.523 150.699 89 c 150.699
 83.48 155.176 79 160.699 79 c 177.668 79 l 183.191 79 187.668 83.48 187.668
 89 c 187.668 94.523 183.191 99 177.668 99 c h
177.668 99 m f
461.227 290.09 m 466.012 292.852 467.648 298.965 464.887 303.75 c 456.66
 318 l 454.875 321.094 451.57 323 448 323 c 444.43 323 441.125 321.094 439.34
 318 c 431.113 303.75 l 428.352 298.969 429.988 292.852 434.773 290.09 c
 435.801 289.496 436.895 289.117 438 288.918 c 438 177.09 l 436.883 176.895
 435.777 176.512 434.734 175.91 c 429.953 173.148 428.312 167.035 431.074
 162.25 c 439.305 148 l 441.09 144.906 444.391 143 447.965 143 c 451.535
 143 454.836 144.906 456.625 148 c 464.852 162.25 l 467.613 167.035 465.973
 173.148 461.191 175.91 c 460.172 176.5 459.094 176.875 458 177.078 c 458
 288.926 l 459.105 289.125 460.199 289.496 461.227 290.09 c h
461.227 290.09 m f
386.625 105.871 m 381.84 108.629 375.727 106.992 372.965 102.211 c 372.371
 101.18 371.988 100.09 371.789 98.98 c 259.965 98.98 l 259.766 100.102 259.383
 101.207 258.785 102.246 c 256.023 107.027 249.906 108.668 245.125 105.906
 c 230.875 97.68 l 227.781 95.895 225.875 92.59 225.875 89.02 c 225.875 
85.445 227.781 82.145 230.875 80.359 c 245.125 72.129 l 246.699 71.223 248.418
 70.789 250.113 70.789 c 253.57 70.789 256.93 72.582 258.785 75.789 c 259.371
 76.809 259.75 77.887 259.949 78.98 c 371.789 78.98 l 371.988 77.875 372.371
 76.781 372.965 75.754 c 374.816 72.543 378.176 70.75 381.633 70.75 c 383.328
 70.75 385.051 71.184 386.625 72.094 c 400.875 80.32 l 403.969 82.105 405.875
 85.41 405.875 88.98 c 405.875 92.555 403.969 95.855 400.875 97.641 c h
386.625 105.871 m f
405.875 313 m 405.875 318.523 401.395 323 395.875 323 c 235.875 323 l 230.352
 323 225.875 318.523 225.875 313 c 225.875 271.508 l 225.875 265.984 230.352
 261.508 235.875 261.508 c 241.395 261.508 245.875 265.984 245.875 271.508
 c 245.875 303 l 280.609 303 l 280.609 245.633 l 280.609 241.602 283.031
 237.965 286.75 236.406 c 290.473 234.852 294.762 235.68 297.633 238.512
 c 315.875 256.5 l 334.113 238.512 l 336.023 236.629 338.559 235.633 341.137
 235.633 c 342.438 235.633 343.746 235.883 344.996 236.406 c 348.715 237.961
 351.137 241.598 351.137 245.633 c 351.137 303 l 385.871 303 l 385.871 163
 l 245.871 163 l 245.871 195.105 l 245.871 200.629 241.395 205.105 235.871
 205.105 c 230.352 205.105 225.871 200.629 225.871 195.105 c 225.871 153
 l 225.871 147.48 230.352 143 235.871 143 c 395.871 143 l 401.395 143 405.871
 147.48 405.871 153 c 405.871 313 l h
331.137 269.539 m 322.895 277.664 l 320.949 279.586 318.41 280.543 315.875
 280.543 c 313.336 280.543 310.801 279.586 308.852 277.664 c 300.613 269.539
 l 300.613 303 l 331.137 303 l h
331.137 269.539 m f
235.871 223 m 238.512 223 241.082 224.07 242.941 225.93 c 244.809 227.789
 245.871 230.371 245.871 233 c 245.871 235.629 244.809 238.211 242.941 240.07
 c 241.082 241.93 238.508 243 235.871 243 c 233.242 243 230.66 241.93 228.801
 240.07 c 226.941 238.211 225.871 235.629 225.871 233 c 225.871 230.371 
226.941 227.789 228.801 225.93 c 230.66 224.07 233.242 223 235.871 223 c
 h
235.871 223 m f
362.977 185.105 m 368.5 185.105 372.977 189.582 372.977 195.105 c 372.977
 200.629 368.5 205.105 362.977 205.105 c 333.504 205.105 l 327.98 205.105
 323.504 200.629 323.504 195.105 c 323.504 189.582 327.98 185.105 333.504
 185.105 c h
362.977 185.105 m f
50 314.801 m 52.633 314.801 55.211 315.871 57.07 317.73 c 58.93 319.602
 60 322.168 60 324.801 c 60 327.43 58.93 330.008 57.07 331.879 c 55.211 
333.738 52.633 334.801 50 334.801 c 47.359 334.801 44.789 333.738 42.93 
331.879 c 41.062 330.008 40 327.43 40 324.801 c 40 322.168 41.062 319.602
 42.93 317.73 c 44.789 315.871 47.359 314.801 50 314.801 c h
50 314.801 m f
Q Q
showpage
%%Trailer
end restore
%%EOF
