%!PS-Adobe-3.0 EPSF-3.0
%%Creator: cairo 1.14.2 (http://cairographics.org)
%%CreationDate: Mon Oct  8 09:05:16 2018
%%Pages: 1
%%DocumentData: Clean7Bit
%%LanguageLevel: 2
%%BoundingBox: 0 0 512 512
%%EndComments
%%BeginProlog
save
50 dict begin
/q { gsave } bind def
/Q { grestore } bind def
/cm { 6 array astore concat } bind def
/w { setlinewidth } bind def
/J { setlinecap } bind def
/j { setlinejoin } bind def
/M { setmiterlimit } bind def
/d { setdash } bind def
/m { moveto } bind def
/l { lineto } bind def
/c { curveto } bind def
/h { closepath } bind def
/re { exch dup neg 3 1 roll 5 3 roll moveto 0 rlineto
      0 exch rlineto 0 rlineto closepath } bind def
/S { stroke } bind def
/f { fill } bind def
/f* { eofill } bind def
/n { newpath } bind def
/W { clip } bind def
/W* { eoclip } bind def
/BT { } bind def
/ET { } bind def
/pdfmark where { pop globaldict /?pdfmark /exec load put }
    { globaldict begin /?pdfmark /pop load def /pdfmark
    /cleartomark load def end } ifelse
/BDC { mark 3 1 roll /BDC pdfmark } bind def
/EMC { mark /EMC pdfmark } bind def
/cairo_store_point { /cairo_point_y exch def /cairo_point_x exch def } def
/Tj { show currentpoint cairo_store_point } bind def
/TJ {
  {
    dup
    type /stringtype eq
    { show } { -0.001 mul 0 cairo_font_matrix dtransform rmoveto } ifelse
  } forall
  currentpoint cairo_store_point
} bind def
/cairo_selectfont { cairo_font_matrix aload pop pop pop 0 0 6 array astore
    cairo_font exch selectfont cairo_point_x cairo_point_y moveto } bind def
/Tf { pop /cairo_font exch def /cairo_font_matrix where
      { pop cairo_selectfont } if } bind def
/Td { matrix translate cairo_font_matrix matrix concatmatrix dup
      /cairo_font_matrix exch def dup 4 get exch 5 get cairo_store_point
      /cairo_font where { pop cairo_selectfont } if } bind def
/Tm { 2 copy 8 2 roll 6 array astore /cairo_font_matrix exch def
      cairo_store_point /cairo_font where { pop cairo_selectfont } if } bind def
/g { setgray } bind def
/rg { setrgbcolor } bind def
/d1 { setcachedevice } bind def
%%EndProlog
%%BeginSetup
%%EndSetup
%%Page: 1 1
%%BeginPageSetup
%%PageBoundingBox: 0 0 512 512
%%EndPageSetup
q 0 0 512 512 rectclip q
0 g
97.309 40.062 m 91.785 40.062 87.309 35.582 87.309 30.062 c 87.309 10.062
 l 87.309 4.539 91.785 0.062 97.309 0.062 c 102.828 0.062 107.309 4.539 
107.309 10.062 c 107.309 30.062 l 107.309 35.582 102.828 40.062 97.309 40.062
 c h
97.309 40.062 m f
97.309 78.062 m 94.672 78.062 92.102 76.992 90.238 75.133 c 88.371 73.27
 87.309 70.691 87.309 68.062 c 87.309 65.43 88.371 62.852 90.238 60.992 
c 92.102 59.133 94.672 58.062 97.309 58.062 c 99.941 58.062 102.52 59.133
 104.379 60.992 c 106.238 62.852 107.309 65.43 107.309 68.062 c 107.309 
70.691 106.238 73.27 104.379 75.133 c 102.52 76.992 99.941 78.062 97.309
 78.062 c h
97.309 78.062 m f
53.621 290.562 m 50.98 290.562 48.41 289.492 46.551 287.633 c 44.68 285.77
 43.621 283.191 43.621 280.562 c 43.621 277.93 44.68 275.352 46.551 273.492
 c 48.41 271.633 50.988 270.562 53.621 270.562 c 56.25 270.562 58.828 271.633
 60.691 273.492 c 62.551 275.352 63.621 277.93 63.621 280.562 c 63.621 283.191
 62.551 285.77 60.691 287.633 c 58.828 289.492 56.25 290.562 53.621 290.562
 c h
53.621 290.562 m f
176.871 299.973 m 174.23 299.973 171.66 298.902 169.801 297.043 c 167.93
 295.18 166.871 292.602 166.871 289.961 c 166.871 287.332 167.93 284.75 
169.801 282.891 c 171.66 281.031 174.23 279.961 176.871 279.961 c 179.5 
279.961 182.07 281.031 183.941 282.891 c 185.801 284.762 186.871 287.332
 186.871 289.961 c 186.871 292.602 185.801 295.18 183.941 297.043 c 182.078
 298.902 179.5 299.973 176.871 299.973 c h
176.871 299.973 m f
482.332 379.965 m 387.902 379.965 l 306.066 421.957 l 302.195 423.941 297.484
 423.199 294.414 420.117 c 201.27 326.586 l 194.281 331.266 185.887 334 
176.863 334 c 53.578 334 l 53.555 334 53.531 333.996 53.508 333.996 c 23.988
 333.918 0 309.883 0 280.348 c 0 10.062 l 0 4.539 4.477 0.062 10 0.062 c
 15.523 0.062 20 4.539 20 10.062 c 20 238.98 l 29.195 231.531 40.891 227.059
 53.617 227.059 c 66.379 227.059 78.102 231.555 87.309 239.039 c 87.309 
112.562 l 87.309 107.039 91.785 102.562 97.309 102.562 c 102.828 102.562
 107.309 107.039 107.309 112.562 c 107.309 246.062 l 176.867 246.062 l 185.855
 246.062 194.219 248.777 201.191 253.426 c 294.414 159.816 l 296.336 157.883
 298.902 156.871 301.504 156.871 c 303.078 156.871 304.664 157.246 306.129
 158.008 c 386.453 199.969 l 482.332 199.969 l 498.691 199.969 512 213.277
 512 229.633 c 512 350.301 l 512 366.656 498.691 379.965 482.332 379.965
 c h
333.309 220.914 m 314.109 220.914 l 266 268.793 l 266 311.141 l 314.109
 359.02 l 333.309 359.02 l 332.461 356.262 332 353.332 332 350.301 c 332
 229.633 l 332 226.602 332.461 223.672 333.309 220.914 c h
218.059 305.398 m 246 305.398 l 246 274.535 l 218.008 274.535 l 219.828
 279.359 220.836 284.578 220.836 290.031 c 220.836 295.434 219.852 300.609
 218.059 305.398 c h
303.434 400.828 m 345.938 379.02 l 309.98 379.02 l 307.336 379.02 304.801
 377.973 302.926 376.105 c 251.973 325.395 l 228.309 325.395 l h
53.617 247.059 m 35.145 247.059 20.113 262.086 20.113 280.562 c 20.113 
280.969 20.086 281.367 20.035 281.758 c 20.781 299.664 35.57 314 53.652 
314 c 71.605 314 86.316 299.871 87.258 282.148 c 87.176 281.629 87.121 281.102
 87.121 280.562 c 87.117 262.086 72.09 247.059 53.617 247.059 c h
176.867 266.062 m 107.309 266.062 l 107.309 280.348 l 107.309 293.082 102.84
 304.789 95.398 314 c 176.867 314 l 190.082 314 200.836 303.246 200.836 
290.031 c 200.836 276.812 190.082 266.062 176.867 266.062 c h
303.395 179.141 m 228.309 254.535 l 251.973 254.535 l 302.926 203.828 l
 304.801 201.961 307.336 200.914 309.98 200.914 c 345.074 200.914 l h
482.332 219.965 m 472 219.965 l 472 231.207 l 472 236.727 467.523 241.207
 462 241.207 c 456.477 241.207 452 236.727 452 231.207 c 452 219.965 l 432
 219.965 l 432 231.207 l 432 236.727 427.523 241.207 422 241.207 c 416.477
 241.207 412 236.727 412 231.207 c 412 219.965 l 392 219.965 l 392 231.207
 l 392 236.727 387.523 241.207 382 241.207 c 376.477 241.207 372 236.727
 372 231.207 c 372 219.965 l 361.664 219.965 l 361.02 219.965 360.391 220.031
 359.777 220.152 c 359.191 220.398 358.574 220.59 357.934 220.719 c 354.453
 222.18 352 225.625 352 229.633 c 352 239.969 l 363.238 239.969 l 368.762
 239.969 373.238 244.445 373.238 249.969 c 373.238 255.488 368.762 259.969
 363.238 259.969 c 352 259.969 l 352 279.969 l 363.238 279.969 l 368.762
 279.969 373.238 284.445 373.238 289.969 c 373.238 295.488 368.762 299.969
 363.238 299.969 c 352 299.969 l 352 319.969 l 363.238 319.969 l 368.762
 319.969 373.238 324.445 373.238 329.969 c 373.238 335.488 368.762 339.969
 363.238 339.969 c 352 339.969 l 352 350.301 l 352 354.309 354.453 357.758
 357.941 359.219 c 358.574 359.348 359.188 359.535 359.773 359.777 c 360.387
 359.898 361.02 359.965 361.668 359.965 c 372 359.965 l 372 348.727 l 372
 343.207 376.477 338.727 382 338.727 c 387.523 338.727 392 343.207 392 348.727
 c 392 359.965 l 412 359.965 l 412 348.727 l 412 343.207 416.477 338.727
 422 338.727 c 427.523 338.727 432 343.207 432 348.727 c 432 359.965 l 452
 359.965 l 452 348.727 l 452 343.207 456.477 338.727 462 338.727 c 467.523
 338.727 472 343.207 472 348.727 c 472 359.965 l 482.336 359.965 l 487.664
 359.965 492 355.629 492 350.301 c 492 339.965 l 480.762 339.965 l 475.238
 339.965 470.762 335.488 470.762 329.965 c 470.762 324.445 475.238 319.965
 480.762 319.965 c 492 319.965 l 492 299.965 l 480.762 299.965 l 475.238
 299.965 470.762 295.488 470.762 289.965 c 470.762 284.445 475.238 279.965
 480.762 279.965 c 492 279.965 l 492 259.965 l 480.762 259.965 l 475.238
 259.965 470.762 255.488 470.762 249.965 c 470.762 244.445 475.238 239.965
 480.762 239.965 c 492 239.965 l 492 229.633 l 492 224.305 487.664 219.965
 482.332 219.965 c h
482.332 219.965 m f
446 323.965 m 398 323.965 l 392.477 323.965 388 319.488 388 313.965 c 388
 265.965 l 388 260.445 392.477 255.965 398 255.965 c 446 255.965 l 451.523
 255.965 456 260.445 456 265.965 c 456 313.965 l 456 319.488 451.523 323.965
 446 323.965 c h
436 275.965 m 408 275.965 l 408 303.965 l 436 303.965 l h
436 275.965 m f
118.93 387.961 m 117.07 386.102 116 383.52 116 380.891 c 116 378.25 117.07
 375.68 118.93 373.82 c 120.789 371.953 123.371 370.883 126 370.883 c 128.629
 370.883 131.211 371.953 133.07 373.82 c 134.93 375.68 136 378.254 136 380.891
 c 136 383.52 134.93 386.09 133.07 387.961 c 131.211 389.82 128.629 390.891
 126 390.891 c 123.371 390.891 120.789 389.82 118.93 387.961 c h
118.93 387.961 m f
166.461 411.348 m 169.02 411.348 171.578 412.328 173.531 414.277 c 177.438
 418.184 177.438 424.516 173.531 428.422 c 147.32 454.629 104.68 454.629
 78.469 428.422 c 74.562 424.516 74.562 418.184 78.469 414.277 c 82.371 
410.375 88.703 410.375 92.609 414.277 c 111.023 432.691 140.98 432.691 159.391
 414.277 c 161.344 412.324 163.902 411.348 166.461 411.348 c h
166.461 411.348 m f
47.391 459.5 m 90.734 502.848 161.266 502.848 204.613 459.5 c 206.566 457.547
 209.125 456.57 211.684 456.57 c 214.242 456.57 216.801 457.547 218.754 
459.5 c 222.66 463.402 222.66 469.734 218.754 473.641 c 167.609 524.785 
84.391 524.785 33.246 473.641 c 29.34 469.734 29.34 463.402 33.246 459.5
 c 37.152 455.594 43.484 455.594 47.391 459.5 c h
47.391 459.5 m f
Q Q
showpage
%%Trailer
end restore
%%EOF
