%!PS-Adobe-3.0 EPSF-3.0
%%Creator: cairo 1.14.2 (http://cairographics.org)
%%CreationDate: Mon Oct  8 09:05:16 2018
%%Pages: 1
%%DocumentData: Clean7Bit
%%LanguageLevel: 2
%%BoundingBox: 0 20 512 492
%%EndComments
%%BeginProlog
save
50 dict begin
/q { gsave } bind def
/Q { grestore } bind def
/cm { 6 array astore concat } bind def
/w { setlinewidth } bind def
/J { setlinecap } bind def
/j { setlinejoin } bind def
/M { setmiterlimit } bind def
/d { setdash } bind def
/m { moveto } bind def
/l { lineto } bind def
/c { curveto } bind def
/h { closepath } bind def
/re { exch dup neg 3 1 roll 5 3 roll moveto 0 rlineto
      0 exch rlineto 0 rlineto closepath } bind def
/S { stroke } bind def
/f { fill } bind def
/f* { eofill } bind def
/n { newpath } bind def
/W { clip } bind def
/W* { eoclip } bind def
/BT { } bind def
/ET { } bind def
/pdfmark where { pop globaldict /?pdfmark /exec load put }
    { globaldict begin /?pdfmark /pop load def /pdfmark
    /cleartomark load def end } ifelse
/BDC { mark 3 1 roll /BDC pdfmark } bind def
/EMC { mark /EMC pdfmark } bind def
/cairo_store_point { /cairo_point_y exch def /cairo_point_x exch def } def
/Tj { show currentpoint cairo_store_point } bind def
/TJ {
  {
    dup
    type /stringtype eq
    { show } { -0.001 mul 0 cairo_font_matrix dtransform rmoveto } ifelse
  } forall
  currentpoint cairo_store_point
} bind def
/cairo_selectfont { cairo_font_matrix aload pop pop pop 0 0 6 array astore
    cairo_font exch selectfont cairo_point_x cairo_point_y moveto } bind def
/Tf { pop /cairo_font exch def /cairo_font_matrix where
      { pop cairo_selectfont } if } bind def
/Td { matrix translate cairo_font_matrix matrix concatmatrix dup
      /cairo_font_matrix exch def dup 4 get exch 5 get cairo_store_point
      /cairo_font where { pop cairo_selectfont } if } bind def
/Tm { 2 copy 8 2 roll 6 array astore /cairo_font_matrix exch def
      cairo_store_point /cairo_font where { pop cairo_selectfont } if } bind def
/g { setgray } bind def
/rg { setrgbcolor } bind def
/d1 { setcachedevice } bind def
%%EndProlog
%%BeginSetup
%%EndSetup
%%Page: 1 1
%%BeginPageSetup
%%PageBoundingBox: 0 20 512 492
%%EndPageSetup
q 0 20 512 472 rectclip q
0 g
502 265.949 m 266 265.949 l 266 327.949 l 266 333.473 261.523 337.949 256
 337.949 c 184 337.949 l 178.477 337.949 174 333.473 174 327.949 c 174 265.949
 l 124 265.949 l 124 327.949 l 124 333.473 119.523 337.949 114 337.949 c
 42 337.949 l 36.477 337.949 32 333.473 32 327.949 c 32 265.949 l 10 265.949
 l 4.477 265.949 0 261.473 0 255.949 c 0 30 l 0 24.477 4.477 20 10 20 c 
320 20 l 325.523 20 330 24.477 330 30 c 330 35.523 325.523 40 320 40 c 20
 40 l 20 135.949 l 54 135.949 l 59.523 135.949 64 140.43 64 145.949 c 64
 151.473 59.523 155.949 54 155.949 c 20 155.949 l 20 175.949 l 492 175.949
 l 492 40 l 403 40 l 397.477 40 393 35.523 393 30 c 393 24.477 397.477 20
 403 20 c 502 20 l 507.523 20 512 24.477 512 30 c 512 255.949 l 512 261.473
 507.523 265.949 502 265.949 c h
194 317.949 m 246 317.949 l 246 265.949 l 194 265.949 l h
52 317.949 m 104 317.949 l 104 265.949 l 52 265.949 l h
20 245.949 m 492 245.949 l 492 195.949 l 20 195.949 l h
20 245.949 m f
90.43 153.02 m 88.57 151.16 87.5 148.582 87.5 145.949 c 87.5 143.32 88.57
 140.742 90.43 138.883 c 92.289 137.023 94.871 135.949 97.5 135.949 c 100.129
 135.949 102.711 137.02 104.57 138.883 c 106.43 140.742 107.5 143.32 107.5
 145.949 c 107.5 148.582 106.43 151.16 104.57 153.02 c 102.711 154.891 100.129
 155.949 97.5 155.949 c 94.871 155.949 92.289 154.891 90.43 153.02 c h
90.43 153.02 m f
64 230.949 m 61.371 230.949 58.789 229.879 56.93 228.02 c 55.07 226.16 
54 223.59 54 220.949 c 54 218.32 55.07 215.738 56.93 213.879 c 58.789 212.02
 61.371 210.949 64 210.949 c 66.629 210.949 69.211 212.02 71.07 213.879 
c 72.93 215.738 74 218.32 74 220.949 c 74 223.578 72.93 226.16 71.07 228.02
 c 69.211 229.879 66.629 230.949 64 230.949 c h
64 230.949 m f
256 230.949 m 253.371 230.949 250.789 229.879 248.93 228.02 c 247.07 226.16
 246 223.578 246 220.949 c 246 218.32 247.07 215.738 248.93 213.879 c 250.789
 212.02 253.371 210.949 256 210.949 c 258.629 210.949 261.211 212.02 263.07
 213.879 c 264.93 215.738 266 218.32 266 220.949 c 266 223.578 264.93 226.16
 263.07 228.02 c 261.211 229.879 258.641 230.949 256 230.949 c h
256 230.949 m f
192 230.949 m 189.371 230.949 186.789 229.879 184.93 228.02 c 183.07 226.16
 182 223.59 182 220.949 c 182 218.32 183.07 215.738 184.93 213.879 c 186.789
 212.02 189.371 210.949 192 210.949 c 194.629 210.949 197.211 212.02 199.07
 213.879 c 200.93 215.738 202 218.32 202 220.949 c 202 223.578 200.93 226.16
 199.07 228.02 c 197.211 229.879 194.629 230.949 192 230.949 c h
192 230.949 m f
128 230.949 m 125.371 230.949 122.789 229.879 120.93 228.02 c 119.07 226.16
 118 223.578 118 220.949 c 118 218.32 119.07 215.738 120.93 213.879 c 122.789
 212.02 125.371 210.949 128 210.949 c 130.629 210.949 133.211 212.02 135.07
 213.879 c 136.93 215.738 138 218.32 138 220.949 c 138 223.578 136.93 226.16
 135.07 228.02 c 133.211 229.879 130.629 230.949 128 230.949 c h
128 230.949 m f
448 230.949 m 445.371 230.949 442.789 229.879 440.93 228.02 c 439.07 226.16
 438 223.578 438 220.949 c 438 218.32 439.07 215.738 440.93 213.879 c 442.789
 212.02 445.371 210.949 448 210.949 c 450.629 210.949 453.211 212.02 455.07
 213.879 c 456.93 215.738 458 218.32 458 220.949 c 458 223.578 456.93 226.16
 455.07 228.02 c 453.211 229.879 450.629 230.949 448 230.949 c h
448 230.949 m f
320 230.949 m 317.371 230.949 314.789 229.879 312.93 228.02 c 311.07 226.16
 310 223.59 310 220.949 c 310 218.32 311.07 215.738 312.93 213.879 c 314.789
 212.02 317.371 210.949 320 210.949 c 322.629 210.949 325.211 212.02 327.07
 213.879 c 328.93 215.738 330 218.32 330 220.949 c 330 223.59 328.93 226.16
 327.07 228.02 c 325.211 229.879 322.629 230.949 320 230.949 c h
320 230.949 m f
384 230.949 m 381.371 230.949 378.789 229.879 376.93 228.02 c 375.07 226.16
 374 223.578 374 220.949 c 374 218.32 375.07 215.738 376.93 213.879 c 378.789
 212.02 381.371 210.949 384 210.949 c 386.629 210.949 389.211 212.02 391.07
 213.879 c 392.93 215.738 394 218.32 394 220.949 c 394 223.578 392.93 226.16
 391.07 228.02 c 389.211 229.879 386.629 230.949 384 230.949 c h
384 230.949 m f
363 40 m 360.371 40 357.789 38.93 355.93 37.07 c 354.07 35.211 353 32.629
 353 30 c 353 27.371 354.07 24.789 355.93 22.93 c 357.789 21.07 360.371 
20 363 20 c 365.629 20 368.211 21.07 370.07 22.93 c 371.93 24.789 373 27.371
 373 30 c 373 32.629 371.93 35.211 370.07 37.07 c 368.211 38.93 365.629 
40 363 40 c h
363 40 m f
68.102 381.898 m 66.238 380.039 65.172 377.461 65.172 374.828 c 65.172 
372.191 66.238 369.621 68.102 367.762 c 69.961 365.891 72.539 364.828 75.172
 364.828 c 77.801 364.828 80.379 365.891 82.238 367.762 c 84.102 369.621
 85.172 372.199 85.172 374.828 c 85.172 377.461 84.102 380.031 82.238 381.898
 c 80.379 383.758 77.801 384.828 75.172 384.828 c 72.539 384.828 69.961 
383.762 68.102 381.898 c h
68.102 381.898 m f
97.598 387.258 m 100.156 387.258 102.719 388.234 104.668 390.188 c 108.574
 394.09 108.574 400.422 104.668 404.328 c 88.402 420.594 61.934 420.594 
45.668 404.328 c 41.762 400.426 41.762 394.094 45.668 390.188 c 49.57 386.281
 55.902 386.281 59.809 390.188 c 68.277 398.656 82.059 398.652 90.527 390.188
 c 92.48 388.234 95.039 387.258 97.598 387.258 c h
97.598 387.258 m f
34.742 415.254 m 45.539 426.055 59.895 432 75.168 432 c 90.441 432 104.797
 426.055 115.594 415.254 c 117.547 413.301 120.105 412.324 122.664 412.324
 c 125.227 412.324 127.785 413.301 129.738 415.254 c 133.641 419.16 133.645
 425.492 129.738 429.398 c 115.16 443.973 95.781 452 75.168 452 c 54.555
 452 35.176 443.973 20.598 429.395 c 16.691 425.492 16.691 419.16 20.598
 415.254 c 24.504 411.352 30.836 411.352 34.742 415.254 c h
34.742 415.254 m f
212.93 381.898 m 211.07 380.039 210 377.461 210 374.828 c 210 372.191 211.07
 369.621 212.93 367.762 c 214.789 365.891 217.371 364.828 220 364.828 c 
222.629 364.828 225.211 365.891 227.07 367.762 c 228.93 369.621 230 372.191
 230 374.828 c 230 377.461 228.93 380.039 227.07 381.898 c 225.211 383.758
 222.629 384.828 220 384.828 c 217.371 384.828 214.789 383.762 212.93 381.898
 c h
212.93 381.898 m f
249.5 390.188 m 253.406 394.09 253.406 400.422 249.5 404.328 c 233.234 
420.594 206.766 420.594 190.5 404.328 c 186.594 400.426 186.594 394.094 
190.5 390.188 c 192.453 388.234 195.012 387.258 197.57 387.258 c 200.129
 387.258 202.688 388.234 204.641 390.188 c 213.109 398.652 226.891 398.656
 235.359 390.188 c 239.266 386.281 245.598 386.281 249.5 390.188 c h
249.5 390.188 m f
179.574 415.254 m 190.371 426.055 204.73 432 220 432 c 235.27 432 249.629
 426.055 260.426 415.254 c 262.379 413.301 264.938 412.324 267.496 412.324
 c 270.059 412.324 272.617 413.301 274.57 415.254 c 278.473 419.16 278.477
 425.492 274.57 429.398 c 259.992 443.973 240.613 452 220 452 c 199.387 
452 180.008 443.973 165.43 429.395 c 161.523 425.492 161.523 419.16 165.43
 415.254 c 169.336 411.352 175.668 411.352 179.574 415.254 c h
179.574 415.254 m f
382.93 421.898 m 381.07 420.031 380 417.461 380 414.828 c 380 412.199 381.07
 409.621 382.93 407.762 c 384.789 405.891 387.371 404.82 390 404.82 c 392.629
 404.82 395.211 405.891 397.07 407.762 c 398.93 409.621 400 412.191 400 
414.828 c 400 417.461 398.93 420.039 397.07 421.898 c 395.211 423.758 392.629
 424.828 390 424.828 c 387.371 424.828 384.789 423.762 382.93 421.898 c 
h
382.93 421.898 m f
412.43 427.258 m 414.988 427.258 417.551 428.234 419.5 430.188 c 423.406
 434.09 423.406 440.422 419.5 444.328 c 403.234 460.594 376.766 460.594 
360.5 444.328 c 356.594 440.426 356.594 434.094 360.5 430.188 c 364.406 
426.281 370.738 426.281 374.641 430.188 c 383.109 438.656 396.891 438.656
 405.359 430.188 c 407.312 428.234 409.871 427.258 412.43 427.258 c h
412.43 427.258 m f
349.574 455.254 m 360.371 466.055 374.73 472 390 472 c 405.27 472 419.629
 466.055 430.426 455.254 c 432.379 453.301 434.938 452.324 437.496 452.324
 c 440.059 452.324 442.617 453.301 444.57 455.254 c 448.473 459.16 448.477
 465.492 444.57 469.398 c 429.992 483.973 410.613 492 390 492 c 369.387 
492 350.008 483.973 335.43 469.395 c 331.523 465.492 331.523 459.16 335.43
 455.254 c 339.336 451.352 345.668 451.352 349.574 455.254 c h
349.574 455.254 m f
502 492 m 496.477 492 492 487.523 492 482 c 492 341.949 l 477.219 341.949
 l 456.188 373.496 l 454.336 376.281 451.211 377.949 447.867 377.949 c 427.75
 377.949 l 427.453 377.949 427.164 377.934 426.875 377.906 c 426.586 377.934
 426.297 377.949 426 377.949 c 354 377.949 l 348.477 377.949 344 373.473
 344 367.949 c 344 295.949 l 344 290.43 348.477 285.949 354 285.949 c 426
 285.949 l 426.297 285.949 426.586 285.969 426.875 285.996 c 427.164 285.969
 427.453 285.949 427.75 285.949 c 447.867 285.949 l 451.215 285.949 454.336
 287.621 456.188 290.402 c 477.219 321.949 l 502 321.949 l 507.523 321.949
 512 326.43 512 331.949 c 512 482 l 512 487.523 507.523 492 502 492 c h
416 305.949 m 364 305.949 l 364 357.949 l 416 357.949 l h
442.516 305.949 m 436 305.949 l 436 357.949 l 442.516 357.949 l 459.848
 331.949 l h
442.516 305.949 m f
Q Q
showpage
%%Trailer
end restore
%%EOF
