%!PS-Adobe-3.0 EPSF-3.0
%%Creator: cairo 1.14.2 (http://cairographics.org)
%%CreationDate: Mon Oct  8 09:05:16 2018
%%Pages: 1
%%DocumentData: Clean7Bit
%%LanguageLevel: 2
%%BoundingBox: 0 20 512 492
%%EndComments
%%BeginProlog
save
50 dict begin
/q { gsave } bind def
/Q { grestore } bind def
/cm { 6 array astore concat } bind def
/w { setlinewidth } bind def
/J { setlinecap } bind def
/j { setlinejoin } bind def
/M { setmiterlimit } bind def
/d { setdash } bind def
/m { moveto } bind def
/l { lineto } bind def
/c { curveto } bind def
/h { closepath } bind def
/re { exch dup neg 3 1 roll 5 3 roll moveto 0 rlineto
      0 exch rlineto 0 rlineto closepath } bind def
/S { stroke } bind def
/f { fill } bind def
/f* { eofill } bind def
/n { newpath } bind def
/W { clip } bind def
/W* { eoclip } bind def
/BT { } bind def
/ET { } bind def
/pdfmark where { pop globaldict /?pdfmark /exec load put }
    { globaldict begin /?pdfmark /pop load def /pdfmark
    /cleartomark load def end } ifelse
/BDC { mark 3 1 roll /BDC pdfmark } bind def
/EMC { mark /EMC pdfmark } bind def
/cairo_store_point { /cairo_point_y exch def /cairo_point_x exch def } def
/Tj { show currentpoint cairo_store_point } bind def
/TJ {
  {
    dup
    type /stringtype eq
    { show } { -0.001 mul 0 cairo_font_matrix dtransform rmoveto } ifelse
  } forall
  currentpoint cairo_store_point
} bind def
/cairo_selectfont { cairo_font_matrix aload pop pop pop 0 0 6 array astore
    cairo_font exch selectfont cairo_point_x cairo_point_y moveto } bind def
/Tf { pop /cairo_font exch def /cairo_font_matrix where
      { pop cairo_selectfont } if } bind def
/Td { matrix translate cairo_font_matrix matrix concatmatrix dup
      /cairo_font_matrix exch def dup 4 get exch 5 get cairo_store_point
      /cairo_font where { pop cairo_selectfont } if } bind def
/Tm { 2 copy 8 2 roll 6 array astore /cairo_font_matrix exch def
      cairo_store_point /cairo_font where { pop cairo_selectfont } if } bind def
/g { setgray } bind def
/rg { setrgbcolor } bind def
/d1 { setcachedevice } bind def
%%EndProlog
%%BeginSetup
%%EndSetup
%%Page: 1 1
%%BeginPageSetup
%%PageBoundingBox: 0 20 512 492
%%EndPageSetup
q 0 20 512 472 rectclip q
0 g
421.5 183.66 m 418.871 183.66 416.289 182.602 414.43 180.73 c 412.57 178.871
 411.5 176.301 411.5 173.66 c 411.5 171.031 412.57 168.449 414.43 166.59
 c 416.289 164.73 418.871 163.66 421.5 163.66 c 424.129 163.66 426.711 164.73
 428.57 166.59 c 430.43 168.449 431.5 171.031 431.5 173.66 c 431.5 176.301
 430.43 178.871 428.57 180.73 c 426.711 182.602 424.129 183.66 421.5 183.66
 c h
421.5 183.66 m f
235.957 152.207 m 230.434 152.207 225.957 147.73 225.957 142.207 c 225.957
 136.684 230.434 132.207 235.957 132.207 c 236.043 132.207 l 241.566 132.207
 246 136.684 246 142.207 c 246 147.73 241.48 152.207 235.957 152.207 c h
235.957 152.207 m f
512 263 m 512 286.121 494.469 305.219 472 307.715 c 472 428.84 l 472 448.414
 456.074 464.34 436.5 464.34 c 422 464.34 l 422 482 l 422 487.523 417.523
 492 412 492 c 228 492 l 222.477 492 218 487.523 218 482 c 218 464.336 l
 35.5 464.336 l 15.926 464.336 0 448.41 0 428.836 c 0 133.5 l 0 113.926 
15.926 98 35.5 98 c 188 98 l 188 40 l 154.098 40 l 148.574 40 144.098 35.523
 144.098 30 c 144.098 24.477 148.574 20 154.098 20 c 317.902 20 l 323.426
 20 327.902 24.477 327.902 30 c 327.902 35.523 323.426 40 317.902 40 c 284
 40 l 284 98 l 436.5 98 l 456.074 98 472 113.926 472 133.5 c 472 218.285
 l 494.469 220.781 512 239.879 512 263 c h
436.5 444.34 m 445.047 444.34 452 437.387 452 428.84 c 452 308 l 422 308
 l 422 444.34 l h
339.055 472 m 339.055 428.434 l 327.023 440.297 l 325.074 442.215 322.539
 443.176 320 443.176 c 317.465 443.176 314.926 442.215 312.98 440.297 c 
300.949 428.434 l 300.949 472 l h
238 472 m 280.945 472 l 280.945 404.527 l 280.945 400.492 283.367 396.855
 287.09 395.301 c 290.809 393.742 295.098 394.574 297.969 397.406 c 320 
419.133 l 342.031 397.406 l 343.941 395.523 346.477 394.527 349.055 394.527
 c 350.355 394.527 351.664 394.777 352.91 395.301 c 356.633 396.855 359.051
 400.492 359.051 404.527 c 359.051 472 l 402 472 l 402 308 l 238 308 l h
264 40 m 208 40 l 208 98 l 264 98 l h
436.5 118 m 35.5 118 l 26.953 118 20 124.953 20 133.5 c 20 163.664 l 379
 163.664 l 384.523 163.664 389 168.141 389 173.664 c 389 179.184 384.523
 183.664 379 183.664 c 20 183.664 l 20 428.836 l 20 437.383 26.953 444.336
 35.5 444.336 c 218 444.336 l 218 348.289 l 142.914 348.289 l 137.395 348.289
 132.914 343.812 132.914 338.289 c 132.914 332.77 137.395 328.289 142.914
 328.289 c 218 328.289 l 218 308 l 163 308 l 138.188 308 118 287.812 118
 263 c 118 238.188 138.188 218 163 218 c 452 218 l 452 133.5 l 452 124.953
 445.047 118 436.5 118 c h
467 238 m 163 238 l 149.215 238 138 249.215 138 263 c 138 276.785 149.215
 288 163 288 c 467 288 l 480.785 288 492 276.785 492 263 c 492 249.215 480.785
 238 467 238 c h
467 238 m f
256 273 m 253.371 273 250.789 271.93 248.93 270.07 c 247.07 268.211 246
 265.629 246 263 c 246 260.371 247.07 257.789 248.93 255.93 c 250.789 254.07
 253.371 253 256 253 c 258.629 253 261.211 254.07 263.07 255.93 c 264.93
 257.789 266 260.371 266 263 c 266 265.629 264.93 268.211 263.07 270.07 
c 261.211 271.93 258.629 273 256 273 c h
256 273 m f
192 273 m 189.371 273 186.789 271.93 184.93 270.07 c 183.07 268.211 182
 265.629 182 263 c 182 260.371 183.07 257.789 184.93 255.93 c 186.789 254.07
 189.371 253 192 253 c 194.629 253 197.211 254.07 199.07 255.93 c 200.93
 257.789 202 260.371 202 263 c 202 265.629 200.93 268.211 199.07 270.07 
c 197.211 271.93 194.629 273 192 273 c h
192 273 m f
448 273 m 445.371 273 442.789 271.93 440.93 270.07 c 439.07 268.211 438
 265.629 438 263 c 438 260.371 439.07 257.789 440.93 255.93 c 442.789 254.07
 445.371 253 448 253 c 450.629 253 453.211 254.07 455.07 255.93 c 456.93
 257.789 458 260.371 458 263 c 458 265.629 456.93 268.211 455.07 270.07 
c 453.211 271.93 450.629 273 448 273 c h
448 273 m f
320 273 m 317.371 273 314.789 271.93 312.93 270.07 c 311.07 268.211 310
 265.629 310 263 c 310 260.371 311.07 257.789 312.93 255.93 c 314.789 254.07
 317.371 253 320 253 c 322.629 253 325.211 254.07 327.07 255.93 c 328.93
 257.789 330 260.371 330 263 c 330 265.629 328.93 268.211 327.07 270.07 
c 325.211 271.93 322.629 273 320 273 c h
320 273 m f
384 273 m 381.371 273 378.789 271.93 376.93 270.07 c 375.07 268.211 374
 265.629 374 263 c 374 260.371 375.07 257.789 376.93 255.93 c 378.789 254.07
 381.371 253 384 253 c 386.629 253 389.211 254.07 391.07 255.93 c 392.93
 257.789 394 260.371 394 263 c 394 265.629 392.93 268.211 391.07 270.07 
c 389.211 271.93 386.629 273 384 273 c h
384 273 m f
374.172 356.422 m 340.277 356.422 l 334.754 356.422 330.277 351.941 330.277
 346.422 c 330.277 340.898 334.754 336.422 340.277 336.422 c 374.172 336.422
 l 379.695 336.422 384.172 340.898 384.172 346.422 c 384.172 351.941 379.695
 356.422 374.172 356.422 c h
374.172 356.422 m f
101.41 348.289 m 98.781 348.289 96.199 347.219 94.34 345.359 c 92.48 343.5
 91.41 340.922 91.41 338.289 c 91.41 335.66 92.48 333.078 94.34 331.219 
c 96.199 329.359 98.781 328.289 101.41 328.289 c 104.039 328.289 106.621
 329.359 108.48 331.219 c 110.352 333.078 111.41 335.66 111.41 338.289 c
 111.41 340.922 110.352 343.5 108.48 345.359 c 106.621 347.219 104.051 348.289
 101.41 348.289 c h
101.41 348.289 m f
184.418 368.285 m 189.941 368.285 194.418 372.766 194.418 378.285 c 194.418
 383.809 189.941 388.285 184.418 388.285 c 120.766 388.285 l 115.242 388.285
 110.766 383.809 110.766 378.285 c 110.766 372.766 115.242 368.285 120.766
 368.285 c h
184.418 368.285 m f
Q Q
showpage
%%Trailer
end restore
%%EOF
