%!PS-Adobe-3.0 EPSF-3.0
%%Creator: cairo 1.14.2 (http://cairographics.org)
%%CreationDate: Mon Oct  8 09:05:16 2018
%%Pages: 1
%%DocumentData: Clean7Bit
%%LanguageLevel: 2
%%BoundingBox: 3 0 511 512
%%EndComments
%%BeginProlog
save
50 dict begin
/q { gsave } bind def
/Q { grestore } bind def
/cm { 6 array astore concat } bind def
/w { setlinewidth } bind def
/J { setlinecap } bind def
/j { setlinejoin } bind def
/M { setmiterlimit } bind def
/d { setdash } bind def
/m { moveto } bind def
/l { lineto } bind def
/c { curveto } bind def
/h { closepath } bind def
/re { exch dup neg 3 1 roll 5 3 roll moveto 0 rlineto
      0 exch rlineto 0 rlineto closepath } bind def
/S { stroke } bind def
/f { fill } bind def
/f* { eofill } bind def
/n { newpath } bind def
/W { clip } bind def
/W* { eoclip } bind def
/BT { } bind def
/ET { } bind def
/pdfmark where { pop globaldict /?pdfmark /exec load put }
    { globaldict begin /?pdfmark /pop load def /pdfmark
    /cleartomark load def end } ifelse
/BDC { mark 3 1 roll /BDC pdfmark } bind def
/EMC { mark /EMC pdfmark } bind def
/cairo_store_point { /cairo_point_y exch def /cairo_point_x exch def } def
/Tj { show currentpoint cairo_store_point } bind def
/TJ {
  {
    dup
    type /stringtype eq
    { show } { -0.001 mul 0 cairo_font_matrix dtransform rmoveto } ifelse
  } forall
  currentpoint cairo_store_point
} bind def
/cairo_selectfont { cairo_font_matrix aload pop pop pop 0 0 6 array astore
    cairo_font exch selectfont cairo_point_x cairo_point_y moveto } bind def
/Tf { pop /cairo_font exch def /cairo_font_matrix where
      { pop cairo_selectfont } if } bind def
/Td { matrix translate cairo_font_matrix matrix concatmatrix dup
      /cairo_font_matrix exch def dup 4 get exch 5 get cairo_store_point
      /cairo_font where { pop cairo_selectfont } if } bind def
/Tm { 2 copy 8 2 roll 6 array astore /cairo_font_matrix exch def
      cairo_store_point /cairo_font where { pop cairo_selectfont } if } bind def
/g { setgray } bind def
/rg { setrgbcolor } bind def
/d1 { setcachedevice } bind def
%%EndProlog
%%BeginSetup
%%EndSetup
%%Page: 1 1
%%BeginPageSetup
%%PageBoundingBox: 3 0 511 512
%%EndPageSetup
q 3 0 508 512 rectclip q
0 g
159.297 326.613 m 161.926 326.613 164.508 327.684 166.367 329.551 c 168.227
 331.41 169.297 333.98 169.297 336.621 c 169.297 339.254 168.227 341.832
 166.367 343.691 c 164.508 345.551 161.926 346.621 159.297 346.621 c 156.668
 346.621 154.086 345.551 152.227 343.691 c 150.367 341.832 149.297 339.254
 149.297 336.621 c 149.297 333.98 150.367 331.41 152.227 329.551 c 154.086
 327.684 156.664 326.613 159.297 326.613 c h
159.297 326.613 m f
283.941 461.789 m 285.801 459.918 288.379 458.855 291.012 458.855 c 293.641
 458.855 296.223 459.918 298.082 461.789 c 299.941 463.648 301.012 466.227
 301.012 468.855 c 301.012 471.488 299.941 474.066 298.082 475.926 c 296.223
 477.789 293.641 478.859 291.012 478.859 c 288.379 478.859 285.801 477.789
 283.941 475.926 c 282.07 474.066 281.012 471.488 281.012 468.855 c 281.012
 466.227 282.07 463.648 283.941 461.789 c h
283.941 461.789 m f
176.152 188.785 m 142.352 188.785 l 136.828 188.785 132.352 184.305 132.352
 178.781 c 132.352 173.262 136.828 168.781 142.352 168.781 c 176.152 168.781
 l 181.676 168.781 186.152 173.262 186.152 178.781 c 186.152 184.305 181.676
 188.785 176.152 188.785 c h
176.152 188.785 m f
106.664 188.777 m 104.023 188.777 101.445 187.715 99.582 185.855 c 97.723
 183.988 96.664 181.418 96.664 178.785 c 96.664 176.148 97.723 173.578 99.582
 171.715 c 101.445 169.848 104.023 168.785 106.664 168.785 c 109.293 168.785
 111.875 169.848 113.734 171.715 c 115.594 173.578 116.664 176.148 116.664
 178.785 c 116.664 181.418 115.594 183.988 113.734 185.855 c 111.875 187.715
 109.293 188.777 106.664 188.777 c h
106.664 188.777 m f
211.84 188.777 m 209.207 188.777 206.629 187.715 204.777 185.855 c 202.91
 183.996 201.848 181.418 201.848 178.785 c 201.848 176.148 202.91 173.578
 204.777 171.715 c 206.629 169.848 209.207 168.785 211.84 168.785 c 214.48
 168.785 217.059 169.848 218.918 171.715 c 220.777 173.578 221.848 176.148
 221.848 178.785 c 221.848 181.418 220.777 183.988 218.918 185.855 c 217.059
 187.715 214.48 188.777 211.84 188.777 c h
211.84 188.777 m f
386.176 373.836 m 388.805 373.836 391.383 374.906 393.246 376.766 c 395.105
 378.625 396.176 381.203 396.176 383.836 c 396.176 386.465 395.105 389.047
 393.246 390.906 c 391.383 392.766 388.805 393.836 386.176 393.836 c 383.535
 393.836 380.965 392.766 379.094 390.906 c 377.234 389.047 376.176 386.465
 376.176 383.836 c 376.176 381.203 377.234 378.625 379.094 376.766 c 380.965
 374.906 383.535 373.836 386.176 373.836 c h
386.176 373.836 m f
506.742 187.215 m 500.551 201.293 487.148 210.039 471.77 210.039 c 460.793
 210.039 450.34 205.312 443.086 197.074 c 404.551 153.297 l 375.184 119.938
 335.176 98.266 291.836 91.566 c 295.477 97.953 297.562 105.332 297.562 
113.191 c 297.562 136.254 279.664 155.199 257.031 156.898 c 257.031 199.367
 l 257.031 211.828 249.145 222.477 238.105 226.598 c 214.035 330.637 l 301.352
 417.953 l 356.895 362.414 l 356.895 327.629 l 318.93 289.48 l 315.82 286.355
 315.121 281.562 317.211 277.684 c 336.098 242.633 l 337.902 239.277 341.348
 237.375 344.91 237.375 c 346.512 237.375 348.137 237.758 349.645 238.57
 c 354.508 241.191 356.324 247.258 353.707 252.117 c 338.344 280.633 l 371.129
 313.578 l 401.438 313.578 l 434.223 280.633 l 418.859 252.117 l 416.242
 247.258 418.059 241.191 422.922 238.57 c 424.43 237.758 426.055 237.375
 427.656 237.375 c 431.215 237.375 434.664 239.277 436.469 242.633 c 455.352
 277.684 l 457.445 281.562 456.746 286.355 453.637 289.48 c 415.672 327.629
 l 415.672 363.039 l 415.672 363.141 415.66 363.238 415.656 363.34 c 419.844
 369.32 422.105 376.418 422.105 383.867 c 422.105 393.457 418.371 402.473
 411.59 409.25 c 321.539 499.305 l 321.531 499.309 321.523 499.316 321.52
 499.324 c 321.512 499.332 321.504 499.336 321.496 499.344 c 321.477 499.363
 l 321.473 499.371 321.465 499.375 321.457 499.383 c 313.289 507.52 302.445
 512 290.914 512 c 279.352 512 268.484 507.496 260.312 499.324 c 150.051
 389.062 l 149.98 388.996 149.926 388.922 149.859 388.852 c 125.484 384.457
 106.852 363.379 106.242 337.902 c 80.5 226.641 l 69.402 222.543 61.473 
211.867 61.473 199.367 c 61.473 134.859 l 45.426 125.766 30.789 114.047 
18.277 99.996 c 5.531 85.684 l 1.859 81.559 2.227 75.238 6.352 71.566 c 
8.258 69.867 10.633 69.035 12.996 69.035 c 15.754 69.035 18.496 70.164 20.469
 72.383 c 33.215 86.699 l 44.527 99.402 57.805 109.945 72.379 118.051 c 
75.09 118.293 77.488 119.617 79.141 121.59 c 99.562 131.633 122.219 137.039
 145.445 137.039 c 253.719 137.039 l 266.867 137.039 277.562 126.34 277.566
 113.191 c 277.566 100.043 266.867 89.348 253.719 89.348 c 186.676 89.344
 l 181.152 89.344 176.676 84.867 176.676 79.344 c 176.676 73.82 181.152 
69.344 186.676 69.344 c 263.062 69.344 l 322.949 69.344 379.992 95.125 419.566
 140.082 c 458.102 183.859 l 461.559 187.785 466.539 190.039 471.77 190.039
 c 479.211 190.039 485.441 185.973 488.438 179.16 c 491.434 172.352 490.219
 165.012 485.191 159.527 c 413.34 81.133 l 377.73 42.281 327.082 20 274.383
 20 c 13 20 l 7.477 20 3 15.523 3 10 c 3 4.477 7.477 0 13 0 c 274.383 0 
l 332.672 0 388.695 24.645 428.082 67.617 c 499.938 146.012 l 510.328 157.348
 512.938 173.137 506.742 187.215 c h
260.488 438.332 m 266.555 432.266 273.996 428.398 281.82 426.707 c 209.367
 354.254 l 203.945 369.602 191.656 381.727 176.207 386.934 c 248.875 459.602
 l 250.574 451.801 254.438 444.383 260.488 438.332 c h
395.672 333.578 m 376.898 333.578 l 376.898 349.191 l 379.898 348.395 383.02
 347.969 386.207 347.969 c 389.449 347.969 392.625 348.406 395.672 349.234
 c h
402.102 383.867 m 402.102 379.621 400.449 375.629 397.445 372.629 c 394.445
 369.625 390.453 367.973 386.207 367.973 c 381.961 367.973 377.969 369.625
 374.965 372.629 c 315.496 432.098 l 321.516 438.117 l 327.441 444.043 331.426
 451.387 333.176 459.379 c 397.445 395.109 l 400.449 392.105 402.102 388.113
 402.102 383.867 c h
307.375 485.18 m 311.77 480.785 314.191 474.938 314.191 468.719 c 314.191
 462.957 312.09 457.527 308.281 453.262 c 307.973 453.02 307.672 452.762
 307.387 452.477 c 298.355 443.445 283.66 443.445 274.629 452.477 c 265.598
 461.508 265.598 476.203 274.629 485.234 c 274.82 485.426 274.996 485.625
 275.168 485.828 c 279.473 489.801 285.02 492 290.914 492 c 297.133 492 
302.977 489.578 307.375 485.18 c h
159.297 369.711 m 177.543 369.711 192.387 354.863 192.387 336.621 c 192.387
 318.375 177.543 303.531 159.297 303.531 c 141.055 303.531 126.211 318.375
 126.211 336.621 c 126.211 354.863 141.055 369.711 159.297 369.711 c h
118.598 302.578 m 128.344 290.945 142.969 283.527 159.297 283.527 c 175.629
 283.527 190.254 290.945 200 302.578 c 217.156 228.426 l 101.441 228.426
 l h
81.473 144.531 m 81.473 199.367 l 81.473 204.359 85.535 208.426 90.531 
208.426 c 227.973 208.426 l 232.969 208.426 237.031 204.363 237.031 199.367
 c 237.031 157.039 l 145.449 157.039 l 123.289 157.039 101.59 152.691 81.473
 144.531 c h
81.473 144.531 m f
157.355 72.273 m 159.215 74.145 160.285 76.711 160.285 79.344 c 160.285
 81.984 159.215 84.551 157.355 86.422 c 155.484 88.281 152.914 89.344 150.285
 89.344 c 147.656 89.344 145.074 88.281 143.203 86.422 c 141.344 84.551 
140.285 81.984 140.285 79.344 c 140.285 76.711 141.344 74.145 143.203 72.273
 c 145.074 70.414 147.656 69.34 150.285 69.34 c 152.914 69.34 155.488 70.414
 157.355 72.273 c h
157.355 72.273 m f
Q Q
showpage
%%Trailer
end restore
%%EOF
