%!PS-Adobe-3.0 EPSF-3.0
%%Creator: cairo 1.14.2 (http://cairographics.org)
%%CreationDate: Mon Oct  8 09:05:16 2018
%%Pages: 1
%%DocumentData: Clean7Bit
%%LanguageLevel: 2
%%BoundingBox: 0 0 511 511
%%EndComments
%%BeginProlog
save
50 dict begin
/q { gsave } bind def
/Q { grestore } bind def
/cm { 6 array astore concat } bind def
/w { setlinewidth } bind def
/J { setlinecap } bind def
/j { setlinejoin } bind def
/M { setmiterlimit } bind def
/d { setdash } bind def
/m { moveto } bind def
/l { lineto } bind def
/c { curveto } bind def
/h { closepath } bind def
/re { exch dup neg 3 1 roll 5 3 roll moveto 0 rlineto
      0 exch rlineto 0 rlineto closepath } bind def
/S { stroke } bind def
/f { fill } bind def
/f* { eofill } bind def
/n { newpath } bind def
/W { clip } bind def
/W* { eoclip } bind def
/BT { } bind def
/ET { } bind def
/pdfmark where { pop globaldict /?pdfmark /exec load put }
    { globaldict begin /?pdfmark /pop load def /pdfmark
    /cleartomark load def end } ifelse
/BDC { mark 3 1 roll /BDC pdfmark } bind def
/EMC { mark /EMC pdfmark } bind def
/cairo_store_point { /cairo_point_y exch def /cairo_point_x exch def } def
/Tj { show currentpoint cairo_store_point } bind def
/TJ {
  {
    dup
    type /stringtype eq
    { show } { -0.001 mul 0 cairo_font_matrix dtransform rmoveto } ifelse
  } forall
  currentpoint cairo_store_point
} bind def
/cairo_selectfont { cairo_font_matrix aload pop pop pop 0 0 6 array astore
    cairo_font exch selectfont cairo_point_x cairo_point_y moveto } bind def
/Tf { pop /cairo_font exch def /cairo_font_matrix where
      { pop cairo_selectfont } if } bind def
/Td { matrix translate cairo_font_matrix matrix concatmatrix dup
      /cairo_font_matrix exch def dup 4 get exch 5 get cairo_store_point
      /cairo_font where { pop cairo_selectfont } if } bind def
/Tm { 2 copy 8 2 roll 6 array astore /cairo_font_matrix exch def
      cairo_store_point /cairo_font where { pop cairo_selectfont } if } bind def
/g { setgray } bind def
/rg { setrgbcolor } bind def
/d1 { setcachedevice } bind def
%%EndProlog
%%BeginSetup
%%EndSetup
%%Page: 1 1
%%BeginPageSetup
%%PageBoundingBox: 0 0 511 511
%%EndPageSetup
q 0 0 511 511 rectclip q
0 g
296.914 18.965 m 294.293 18.965 291.719 17.898 289.859 16.043 c 288.004
 14.188 286.934 11.609 286.934 8.984 c 286.934 6.363 288.004 3.785 289.859
 1.93 c 291.719 0.074 294.293 -0.996 296.914 -0.996 c 299.543 -0.996 302.117
 0.074 303.973 1.93 c 305.828 3.785 306.895 6.363 306.895 8.984 c 306.895
 11.609 305.828 14.188 303.973 16.043 c 302.117 17.898 299.543 18.965 296.914
 18.965 c h
296.914 18.965 m f
214.582 58.887 m 211.945 58.887 209.379 57.82 207.523 55.965 c 205.668 
54.109 204.602 51.531 204.602 48.906 c 204.602 46.285 205.668 43.707 207.523
 41.852 c 209.379 39.996 211.953 38.926 214.582 38.926 c 217.203 38.926 
219.777 39.996 221.633 41.852 c 223.492 43.707 224.562 46.285 224.562 48.906
 c 224.562 51.531 223.492 54.109 221.633 55.965 c 219.777 57.82 217.203 
58.887 214.582 58.887 c h
214.582 58.887 m f
379.254 58.887 m 376.629 58.887 374.055 57.82 372.199 55.965 c 370.344 
54.109 369.273 51.531 369.273 48.906 c 369.273 46.285 370.344 43.707 372.199
 41.852 c 374.055 39.996 376.629 38.926 379.254 38.926 c 381.883 38.926 
384.457 39.996 386.312 41.852 c 388.168 43.707 389.234 46.285 389.234 48.906
 c 389.234 51.531 388.168 54.109 386.312 55.965 c 384.457 57.82 381.891 
58.887 379.254 58.887 c h
379.254 58.887 m f
56.957 41.852 m 58.816 43.707 59.883 46.285 59.883 48.906 c 59.883 51.531
 58.816 54.109 56.957 55.965 c 55.102 57.82 52.527 58.887 49.902 58.887 
c 47.277 58.887 44.703 57.82 42.848 55.965 c 40.988 54.109 39.922 51.531
 39.922 48.906 c 39.922 46.285 40.988 43.707 42.848 41.852 c 44.703 39.996
 47.277 38.926 49.902 38.926 c 52.527 38.926 55.102 39.996 56.957 41.852
 c h
56.957 41.852 m f
506.902 17.043 m 458.746 52.219 l 459.633 53.09 460.469 54.031 461.227 
55.059 c 506.309 116.062 l 510.109 121.207 511.68 127.527 510.727 133.855
 c 509.781 140.184 506.426 145.762 501.277 149.562 c 459.539 180.41 l 448.914
 188.254 433.891 186 426.039 175.379 c 380.957 114.375 l 380.328 113.52 
379.762 112.629 379.254 111.711 c 379.254 178.652 l 379.254 191.859 368.512
 202.602 355.301 202.602 c 303.402 202.602 l 290.195 202.602 279.449 191.859
 279.449 178.652 c 279.449 102.801 l 279.449 101.441 279.57 100.109 279.789
 98.809 c 259.148 98.809 l 259.367 100.109 259.488 101.441 259.488 102.801
 c 259.488 178.652 l 259.488 191.859 248.746 202.602 235.535 202.602 c 183.637
 202.602 l 170.43 202.602 159.684 191.859 159.684 178.652 c 159.684 102.801
 l 159.684 101.441 159.805 100.109 160.023 98.809 c 49.902 98.809 l 22.387
 98.809 0 76.426 0 48.906 c 0 21.391 22.387 -0.996 49.902 -0.996 c 261.152
 -0.996 l 266.668 -0.996 271.133 3.473 271.133 8.984 c 271.133 14.496 266.668
 18.965 261.152 18.965 c 254.477 18.965 l 260.75 27.312 264.48 37.68 264.48
 48.906 c 264.48 60.133 260.75 70.504 254.477 78.848 c 339.359 78.848 l 
333.082 70.504 329.355 60.133 329.355 48.906 c 329.355 37.68 333.082 27.312
 339.359 18.965 c 333.012 18.965 l 327.5 18.965 323.031 14.496 323.031 8.984
 c 323.031 3.473 327.5 -0.996 333.012 -0.996 c 501.016 -0.996 l 505.336 
-0.996 509.164 1.781 510.504 5.891 c 511.844 9.996 510.395 14.5 506.902 
17.043 c h
397.012 102.516 m 442.094 163.516 l 442.875 164.578 444.086 165.133 445.309
 165.133 c 446.133 165.133 446.965 164.879 447.676 164.355 c 489.414 133.512
 l 490.57 132.656 490.895 131.504 490.988 130.895 c 491.082 130.285 491.105
 129.082 490.254 127.93 c 445.172 66.926 l 444.047 65.398 442.035 64.918
 440.367 65.648 c 424.875 76.957 l 422.211 78.93 l 422.816 78.812 423.434
 78.75 424.055 78.75 c 426.688 78.75 429.254 79.816 431.109 81.676 c 432.977
 83.531 434.035 86.105 434.035 88.73 c 434.035 91.363 432.977 93.93 431.109
 95.797 c 429.254 97.652 426.688 98.711 424.055 98.711 c 421.43 98.711 418.855
 97.652 417 95.797 c 415.141 93.93 414.074 91.363 414.074 88.73 c 414.074
 87.109 414.484 85.512 415.23 84.09 c 412.309 86.25 l 410.062 88.242 407.641
 90.039 405.059 91.605 c 397.852 96.934 l 396.691 97.789 396.371 98.938 
396.277 99.551 c 396.188 100.16 396.16 101.355 397.012 102.516 c h
179.648 102.801 m 179.648 178.652 l 179.648 180.855 181.438 182.645 183.641
 182.645 c 235.539 182.645 l 237.738 182.645 239.531 180.855 239.531 178.652
 c 239.531 102.801 l 239.531 100.602 237.738 98.809 235.539 98.809 c 213.895
 98.809 l 214.906 99.293 215.844 99.938 216.645 100.734 c 218.5 102.594 
219.566 105.168 219.566 107.793 c 219.566 110.418 218.5 112.992 216.645 
114.848 c 214.785 116.703 212.215 117.773 209.586 117.773 c 206.961 117.773
 204.391 116.703 202.531 114.848 c 200.676 112.992 199.605 110.418 199.605
 107.793 c 199.605 105.168 200.676 102.594 202.531 100.734 c 203.328 99.938
 204.27 99.293 205.281 98.809 c 183.641 98.809 l 181.438 98.809 179.648 
100.602 179.648 102.801 c h
174.688 18.965 m 89.797 18.965 l 96.078 27.312 99.805 37.684 99.805 48.906
 c 99.805 60.137 96.078 70.504 89.797 78.848 c 174.688 78.848 l 168.406 
70.504 164.68 60.137 164.68 48.906 c 164.68 37.684 168.406 27.312 174.688
 18.965 c h
19.961 48.906 m 19.961 65.418 33.391 78.848 49.902 78.848 c 66.414 78.848
 79.844 65.418 79.844 48.906 c 79.844 32.398 66.414 18.965 49.902 18.965
 c 33.391 18.965 19.961 32.398 19.961 48.906 c h
184.641 48.906 m 184.641 65.418 198.07 78.848 214.582 78.848 c 231.086 
78.848 244.523 65.418 244.523 48.906 c 244.523 32.398 231.086 18.965 214.582
 18.965 c 198.07 18.965 184.641 32.398 184.641 48.906 c h
299.41 102.801 m 299.41 178.652 l 299.41 180.855 301.203 182.645 303.402
 182.645 c 355.301 182.645 l 357.504 182.645 359.293 180.855 359.293 178.652
 c 359.293 102.801 l 359.293 100.602 357.504 98.809 355.301 98.809 c 333.66
 98.809 l 334.672 99.293 335.609 99.938 336.41 100.734 c 338.266 102.594
 339.332 105.168 339.332 107.793 c 339.332 110.418 338.266 112.992 336.41
 114.848 c 334.555 116.703 331.977 117.773 329.352 117.773 c 326.727 117.773
 324.152 116.703 322.297 114.848 c 320.441 112.992 319.371 110.418 319.371
 107.793 c 319.371 105.168 320.441 102.594 322.297 100.734 c 323.094 99.938
 324.035 99.293 325.043 98.809 c 303.402 98.809 l 301.203 98.809 299.41 
100.602 299.41 102.801 c h
349.312 48.906 m 349.312 65.418 362.746 78.848 379.254 78.848 c 384.633
 78.848 389.68 77.414 394.051 74.922 c 399.73 70.723 l 405.551 65.258 409.195
 57.504 409.195 48.906 c 409.195 32.398 395.766 18.965 379.254 18.965 c 
362.746 18.965 349.312 32.398 349.312 48.906 c h
419.148 18.965 m 425.43 27.312 429.156 37.684 429.156 48.906 c 429.156 
48.961 429.152 49.012 429.152 49.066 c 429.301 48.973 429.449 48.883 429.598
 48.793 c 470.434 18.965 l h
419.148 18.965 m f
39.738 281.688 m 39.793 281.586 39.863 281.496 39.922 281.395 c 39.922 
206.594 l 39.922 193.391 50.668 182.645 63.875 182.645 c 115.773 182.645
 l 128.98 182.645 139.727 193.391 139.727 206.594 c 139.727 281.395 l 139.785
 281.496 139.852 281.586 139.91 281.688 c 158.758 316.664 l 160.84 320.539
 160.148 325.324 157.043 328.438 c 119.152 366.512 l 119.152 465.422 l 119.152
 470.934 114.684 475.402 109.172 475.402 c 103.66 475.402 99.191 470.934
 99.191 465.422 c 99.191 372.449 l 80.457 372.449 l 80.457 500.023 l 80.457
 505.535 75.988 510.004 70.477 510.004 c 64.961 510.004 60.496 505.535 60.496
 500.023 c 60.496 366.512 l 22.605 328.438 l 19.5 325.324 18.809 320.539
 20.895 316.664 c h
119.766 206.598 m 119.766 204.398 117.973 202.605 115.773 202.605 c 94.129
 202.605 l 95.141 203.09 96.082 203.734 96.879 204.535 c 98.738 206.391 
99.805 208.961 99.805 211.59 c 99.805 214.215 98.738 216.785 96.879 218.645
 c 95.02 220.504 92.449 221.57 89.824 221.57 c 87.195 221.57 84.625 220.504
 82.77 218.645 c 80.914 216.785 79.844 214.215 79.844 211.59 c 79.844 208.961
 80.914 206.391 82.77 204.535 c 83.566 203.734 84.504 203.09 85.516 202.605
 c 63.875 202.605 l 61.672 202.605 59.883 204.398 59.883 206.598 c 59.883
 282.453 l 59.883 284.648 61.672 286.445 63.875 286.445 c 115.773 286.445
 l 117.973 286.445 119.766 284.648 119.766 282.453 c h
74.699 352.488 m 104.945 352.488 l 137.668 319.613 l 128.555 302.691 l 
124.855 305.039 120.469 306.406 115.773 306.406 c 63.875 306.406 l 59.176
 306.406 54.797 305.039 51.094 302.691 c 41.98 319.613 l h
74.699 352.488 m f
109.176 490.043 m 111.801 490.043 114.367 491.109 116.234 492.965 c 118.09
 494.82 119.156 497.398 119.156 500.023 c 119.156 502.645 118.09 505.223
 116.234 507.078 c 114.367 508.934 111.801 510.004 109.176 510.004 c 106.543
 510.004 103.977 508.934 102.109 507.078 c 100.254 505.223 99.195 502.645
 99.195 500.023 c 99.195 497.398 100.254 494.82 102.109 492.965 c 103.977
 491.109 106.543 490.043 109.176 490.043 c h
109.176 490.043 m f
Q Q
showpage
%%Trailer
end restore
%%EOF
