%!PS-Adobe-3.0 EPSF-3.0
%%Creator: cairo 1.14.2 (http://cairographics.org)
%%CreationDate: Mon Oct  8 09:05:16 2018
%%Pages: 1
%%DocumentData: Clean7Bit
%%LanguageLevel: 2
%%BoundingBox: 0 70 512 441
%%EndComments
%%BeginProlog
save
50 dict begin
/q { gsave } bind def
/Q { grestore } bind def
/cm { 6 array astore concat } bind def
/w { setlinewidth } bind def
/J { setlinecap } bind def
/j { setlinejoin } bind def
/M { setmiterlimit } bind def
/d { setdash } bind def
/m { moveto } bind def
/l { lineto } bind def
/c { curveto } bind def
/h { closepath } bind def
/re { exch dup neg 3 1 roll 5 3 roll moveto 0 rlineto
      0 exch rlineto 0 rlineto closepath } bind def
/S { stroke } bind def
/f { fill } bind def
/f* { eofill } bind def
/n { newpath } bind def
/W { clip } bind def
/W* { eoclip } bind def
/BT { } bind def
/ET { } bind def
/pdfmark where { pop globaldict /?pdfmark /exec load put }
    { globaldict begin /?pdfmark /pop load def /pdfmark
    /cleartomark load def end } ifelse
/BDC { mark 3 1 roll /BDC pdfmark } bind def
/EMC { mark /EMC pdfmark } bind def
/cairo_store_point { /cairo_point_y exch def /cairo_point_x exch def } def
/Tj { show currentpoint cairo_store_point } bind def
/TJ {
  {
    dup
    type /stringtype eq
    { show } { -0.001 mul 0 cairo_font_matrix dtransform rmoveto } ifelse
  } forall
  currentpoint cairo_store_point
} bind def
/cairo_selectfont { cairo_font_matrix aload pop pop pop 0 0 6 array astore
    cairo_font exch selectfont cairo_point_x cairo_point_y moveto } bind def
/Tf { pop /cairo_font exch def /cairo_font_matrix where
      { pop cairo_selectfont } if } bind def
/Td { matrix translate cairo_font_matrix matrix concatmatrix dup
      /cairo_font_matrix exch def dup 4 get exch 5 get cairo_store_point
      /cairo_font where { pop cairo_selectfont } if } bind def
/Tm { 2 copy 8 2 roll 6 array astore /cairo_font_matrix exch def
      cairo_store_point /cairo_font where { pop cairo_selectfont } if } bind def
/g { setgray } bind def
/rg { setrgbcolor } bind def
/d1 { setcachedevice } bind def
%%EndProlog
%%BeginSetup
%%EndSetup
%%Page: 1 1
%%BeginPageSetup
%%PageBoundingBox: 0 70 512 441
%%EndPageSetup
q 0 70 512 371 rectclip q
0 g
355.488 284.215 m 357.348 286.074 358.422 288.656 358.422 291.285 c 358.422
 293.914 357.352 296.496 355.488 298.355 c 353.629 300.215 351.059 301.285
 348.422 301.285 c 345.789 301.285 343.211 300.215 341.352 298.355 c 339.492
 296.496 338.422 293.914 338.422 291.285 c 338.422 288.656 339.488 286.074
 341.352 284.215 c 343.211 282.355 345.789 281.285 348.422 281.285 c 351.051
 281.285 353.629 282.355 355.488 284.215 c h
355.488 284.215 m f
56.93 333.355 m 55.07 331.496 54 328.918 54 326.285 c 54 323.656 55.07 
321.078 56.93 319.215 c 58.789 317.355 61.371 316.285 64 316.285 c 66.629
 316.285 69.211 317.355 71.07 319.215 c 72.93 321.078 74 323.656 74 326.285
 c 74 328.918 72.93 331.496 71.07 333.355 c 69.211 335.215 66.629 336.285
 64 336.285 c 61.371 336.285 58.789 335.215 56.93 333.355 c h
56.93 333.355 m f
248.93 333.355 m 247.07 331.496 246 328.918 246 326.285 c 246 323.656 247.07
 321.078 248.93 319.215 c 250.789 317.355 253.371 316.285 256 316.285 c 
258.629 316.285 261.211 317.355 263.07 319.215 c 264.93 321.078 266 323.656
 266 326.285 c 266 328.918 264.93 331.496 263.07 333.355 c 261.211 335.215
 258.629 336.285 256 336.285 c 253.371 336.285 250.789 335.215 248.93 333.355
 c h
248.93 333.355 m f
192 336.285 m 189.371 336.285 186.789 335.215 184.93 333.355 c 183.07 331.496
 182 328.918 182 326.285 c 182 323.656 183.07 321.078 184.93 319.215 c 186.789
 317.355 189.371 316.285 192 316.285 c 194.629 316.285 197.211 317.355 199.07
 319.215 c 200.93 321.078 202 323.656 202 326.285 c 202 328.918 200.93 331.496
 199.07 333.355 c 197.211 335.215 194.629 336.285 192 336.285 c h
192 336.285 m f
120.93 333.355 m 119.07 331.496 118 328.918 118 326.285 c 118 323.656 119.07
 321.078 120.93 319.215 c 122.789 317.355 125.371 316.285 128 316.285 c 
130.629 316.285 133.211 317.355 135.07 319.215 c 136.93 321.078 138 323.656
 138 326.285 c 138 328.918 136.93 331.496 135.07 333.355 c 133.211 335.215
 130.629 336.285 128 336.285 c 125.371 336.285 122.789 335.215 120.93 333.355
 c h
120.93 333.355 m f
455.07 319.215 m 456.93 321.074 458 323.656 458 326.285 c 458 328.914 456.93
 331.496 455.07 333.355 c 453.211 335.215 450.629 336.285 448 336.285 c 
445.371 336.285 442.789 335.215 440.93 333.355 c 439.07 331.496 438 328.914
 438 326.285 c 438 323.656 439.07 321.074 440.93 319.215 c 442.789 317.355
 445.371 316.285 448 316.285 c 450.629 316.285 453.211 317.355 455.07 319.215
 c h
455.07 319.215 m f
327.07 333.355 m 325.211 335.215 322.629 336.285 320 336.285 c 317.371 
336.285 314.789 335.215 312.93 333.355 c 311.07 331.496 310 328.926 310 
326.285 c 310 323.656 311.07 321.078 312.93 319.215 c 314.789 317.355 317.371
 316.285 320 316.285 c 322.629 316.285 325.211 317.355 327.07 319.215 c 
328.93 321.078 330 323.656 330 326.285 c 330 328.918 328.93 331.496 327.07
 333.355 c h
327.07 333.355 m f
391.07 319.215 m 392.93 321.074 394 323.656 394 326.285 c 394 328.914 392.93
 331.496 391.07 333.355 c 389.211 335.215 386.629 336.285 384 336.285 c 
381.371 336.285 378.789 335.215 376.93 333.355 c 375.07 331.496 374 328.914
 374 326.285 c 374 323.656 375.07 321.074 376.93 319.215 c 378.789 317.355
 381.371 316.285 384 316.285 c 386.629 316.285 389.211 317.355 391.07 319.215
 c h
391.07 319.215 m f
489 90.289 m 482 90.289 l 482 283.867 l 499.461 290.059 512 306.734 512
 326.289 c 512 351.102 491.812 371.289 467 371.289 c 466.699 371.289 l 470.906
 377.664 473.301 384.844 473.551 392.164 c 473.922 403.023 469.539 413.59
 461.211 421.918 c 453.141 429.988 440.973 436.531 428.66 439.422 c 413.473
 442.984 400.633 440.477 392.508 432.352 c 384.387 424.227 381.875 411.387
 385.438 396.199 c 387.52 387.324 391.508 378.531 396.594 371.289 c 345.707
 371.289 l 350.789 378.535 354.777 387.324 356.859 396.199 c 360.422 411.387
 357.91 424.227 349.789 432.352 c 332.273 449.863 296.84 437.672 281.086
 421.918 c 272.758 413.59 268.379 403.023 268.75 392.164 c 269 384.844 271.391
 377.664 275.602 371.289 c 236.398 371.289 l 240.609 377.664 243 384.844
 243.254 392.164 c 243.625 403.023 239.242 413.59 230.914 421.918 c 215.16
 437.672 179.727 449.863 162.211 432.352 c 154.09 424.227 151.578 411.387
 155.141 396.199 c 157.223 387.324 161.211 378.535 166.293 371.289 c 115.41
 371.289 l 120.492 378.535 124.48 387.324 126.562 396.199 c 130.125 411.387
 127.613 424.227 119.492 432.352 c 101.977 449.863 66.543 437.672 50.789
 421.918 c 36.398 407.527 34.594 387.391 45.277 371.289 c 45 371.289 l 20.188
 371.289 0 351.102 0 326.289 c 0 306.734 12.539 290.059 30 283.867 c 30 
90.289 l 10 90.289 l 4.477 90.289 0 85.809 0 80.289 c 0 74.766 4.477 70.289
 10 70.289 c 143.668 70.289 l 149.188 70.289 153.668 74.766 153.668 80.289
 c 153.668 85.809 149.188 90.289 143.668 90.289 c 98 90.289 l 98 281.289
 l 306.332 281.289 l 311.855 281.289 316.332 285.766 316.332 291.289 c 316.332
 296.809 311.855 301.289 306.332 301.289 c 45 301.289 l 31.215 301.289 20
 312.504 20 326.289 c 20 340.074 31.215 351.289 45 351.289 c 467 351.289
 l 480.785 351.289 492 340.074 492 326.289 c 492 312.504 480.785 301.289
 467 301.289 c 388.332 301.289 l 382.812 301.289 378.332 296.809 378.332
 291.289 c 378.332 285.766 382.812 281.289 388.332 281.289 c 414 281.289
 l 414 90.289 l 237 90.289 l 231.477 90.289 227 85.809 227 80.289 c 227 
74.766 231.477 70.289 237 70.289 c 489 70.289 l 494.523 70.289 499 74.766
 499 80.289 c 499 85.809 494.523 90.289 489 90.289 c h
406.652 418.207 m 408.551 420.109 411.789 420.973 415.711 420.973 c 425.363
 420.973 439.125 415.719 447.066 407.777 c 451.496 403.344 453.742 398.184
 453.562 392.848 c 453.383 387.68 450.934 382.48 446.656 378.203 c 442.379
 373.926 437.18 371.473 432.012 371.297 c 426.68 371.113 421.512 373.359
 417.082 377.789 c 411.699 383.172 406.922 392.191 404.91 400.766 c 403.07
 408.609 403.738 415.293 406.652 418.207 c h
295.23 407.777 m 303.176 415.719 316.934 420.973 326.59 420.973 c 330.504
 420.973 333.746 420.109 335.645 418.207 c 338.559 415.293 339.227 408.609
 337.387 400.766 c 335.375 392.191 330.598 383.172 325.215 377.789 c 320.781
 373.359 315.605 371.117 310.285 371.297 c 305.117 371.477 299.918 373.926
 295.641 378.203 c 291.363 382.48 288.91 387.68 288.734 392.848 c 288.555
 398.184 290.801 403.344 295.23 407.777 c h
176.355 418.207 m 178.254 420.109 181.496 420.973 185.41 420.973 c 195.062
 420.973 208.828 415.719 216.77 407.777 c 221.199 403.344 223.445 398.184
 223.262 392.848 c 223.086 387.68 220.633 382.48 216.359 378.203 c 212.082
 373.926 206.879 371.473 201.711 371.297 c 196.383 371.113 191.215 373.359
 186.785 377.789 c 181.398 383.172 176.621 392.191 174.613 400.766 c 172.773
 408.609 173.441 415.293 176.355 418.207 c h
64.934 407.777 m 72.875 415.719 86.637 420.973 96.289 420.973 c 100.207
 420.973 103.449 420.109 105.348 418.207 c 108.262 415.293 108.93 408.609
 107.09 400.766 c 105.078 392.191 100.301 383.172 94.914 377.789 c 90.484
 373.359 85.34 371.125 79.988 371.297 c 74.82 371.477 69.621 373.926 65.344
 378.203 c 61.066 382.477 58.613 387.68 58.438 392.848 c 58.258 398.184 
60.504 403.344 64.934 407.777 c h
78 281.289 m 78 90.289 l 50 90.289 l 50 281.289 l h
434 90.289 m 434 281.289 l 462 281.289 l 462 90.289 l h
434 90.289 m f
189.172 90.285 m 186.531 90.285 183.961 89.215 182.102 87.355 c 180.23 
85.496 179.172 82.918 179.172 80.285 c 179.172 77.656 180.23 75.078 182.102
 73.215 c 183.961 71.355 186.539 70.285 189.172 70.285 c 191.801 70.285 
194.379 71.355 196.238 73.215 c 198.098 75.078 199.172 77.656 199.172 80.285
 c 199.172 82.918 198.102 85.496 196.238 87.355 c 194.379 89.215 191.801
 90.285 189.172 90.285 c h
189.172 90.285 m f
Q Q
showpage
%%Trailer
end restore
%%EOF
