%!PS-Adobe-3.0 EPSF-3.0
%%Creator: cairo 1.14.2 (http://cairographics.org)
%%CreationDate: Mon Oct  8 09:05:16 2018
%%Pages: 1
%%DocumentData: Clean7Bit
%%LanguageLevel: 2
%%BoundingBox: 46 0 468 512
%%EndComments
%%BeginProlog
save
50 dict begin
/q { gsave } bind def
/Q { grestore } bind def
/cm { 6 array astore concat } bind def
/w { setlinewidth } bind def
/J { setlinecap } bind def
/j { setlinejoin } bind def
/M { setmiterlimit } bind def
/d { setdash } bind def
/m { moveto } bind def
/l { lineto } bind def
/c { curveto } bind def
/h { closepath } bind def
/re { exch dup neg 3 1 roll 5 3 roll moveto 0 rlineto
      0 exch rlineto 0 rlineto closepath } bind def
/S { stroke } bind def
/f { fill } bind def
/f* { eofill } bind def
/n { newpath } bind def
/W { clip } bind def
/W* { eoclip } bind def
/BT { } bind def
/ET { } bind def
/pdfmark where { pop globaldict /?pdfmark /exec load put }
    { globaldict begin /?pdfmark /pop load def /pdfmark
    /cleartomark load def end } ifelse
/BDC { mark 3 1 roll /BDC pdfmark } bind def
/EMC { mark /EMC pdfmark } bind def
/cairo_store_point { /cairo_point_y exch def /cairo_point_x exch def } def
/Tj { show currentpoint cairo_store_point } bind def
/TJ {
  {
    dup
    type /stringtype eq
    { show } { -0.001 mul 0 cairo_font_matrix dtransform rmoveto } ifelse
  } forall
  currentpoint cairo_store_point
} bind def
/cairo_selectfont { cairo_font_matrix aload pop pop pop 0 0 6 array astore
    cairo_font exch selectfont cairo_point_x cairo_point_y moveto } bind def
/Tf { pop /cairo_font exch def /cairo_font_matrix where
      { pop cairo_selectfont } if } bind def
/Td { matrix translate cairo_font_matrix matrix concatmatrix dup
      /cairo_font_matrix exch def dup 4 get exch 5 get cairo_store_point
      /cairo_font where { pop cairo_selectfont } if } bind def
/Tm { 2 copy 8 2 roll 6 array astore /cairo_font_matrix exch def
      cairo_store_point /cairo_font where { pop cairo_selectfont } if } bind def
/g { setgray } bind def
/rg { setrgbcolor } bind def
/d1 { setcachedevice } bind def
%%EndProlog
%%BeginSetup
%%EndSetup
%%Page: 1 1
%%BeginPageSetup
%%PageBoundingBox: 46 0 468 512
%%EndPageSetup
q 46 0 422 512 rectclip q
0 g
139.215 118.918 m 135.312 115.012 135.312 108.68 139.215 104.773 c 203.125
 40.867 l 205 38.992 207.543 37.938 210.195 37.938 c 212.848 37.938 215.391
 38.992 217.266 40.867 c 227.785 51.387 241.773 57.18 256.652 57.18 c 271.527
 57.18 285.516 51.387 296.035 40.867 c 297.988 38.914 300.547 37.938 303.105
 37.938 c 305.664 37.938 308.227 38.914 310.176 40.867 c 374.086 104.773
 l 375.961 106.648 377.016 109.191 377.016 111.844 c 377.016 114.496 375.961
 117.039 374.086 118.914 c 309.328 183.672 203.969 183.672 139.215 118.918
 c h
302.648 61.621 m 295.172 67.363 286.766 71.602 277.809 74.195 c 299.605
 95.992 l 303.508 99.898 303.508 106.23 299.605 110.137 c 295.699 114.039
 289.367 114.039 285.461 110.137 c 252.375 77.047 l 237.105 76.203 222.676
 70.855 210.652 61.621 c 160.668 111.605 l 165.121 115.492 169.762 119.059
 174.547 122.316 c 179.875 113.09 l 181.73 109.879 185.09 108.086 188.547
 108.086 c 190.242 108.086 191.961 108.52 193.535 109.43 c 198.32 112.191
 199.957 118.305 197.195 123.09 c 191.824 132.391 l 197.383 135.141 203.082
 137.516 208.887 139.512 c 211.047 131.445 l 212.246 126.977 216.285 124.031
 220.699 124.031 c 221.559 124.031 222.43 124.141 223.293 124.375 c 228.629
 125.805 231.797 131.285 230.367 136.621 c 228.199 144.711 l 234.266 145.906
 240.391 146.715 246.539 147.137 c 246.539 136.926 l 246.539 131.402 251.02
 126.926 256.539 126.926 c 262.062 126.926 266.539 131.402 266.539 136.926
 c 266.539 147.152 l 272.695 146.738 278.824 145.938 284.895 144.75 c 282.715
 136.621 l 281.285 131.285 284.453 125.805 289.785 124.375 c 290.652 124.141
 291.523 124.031 292.379 124.031 c 296.797 124.031 300.836 126.977 302.035
 131.445 c 304.215 139.582 l 310.027 137.59 315.734 135.219 321.305 132.473
 c 315.887 123.086 l 313.125 118.305 314.766 112.188 319.547 109.426 c 321.121
 108.52 322.84 108.086 324.535 108.086 c 327.992 108.086 331.355 109.879
 333.207 113.086 c 338.594 122.418 l 343.438 119.137 348.129 115.535 352.633
 111.605 c h
302.648 61.621 m f
417.918 228 m 420.922 228 423.766 229.352 425.664 231.68 c 464.832 279.68
 l 467.273 282.672 467.773 286.801 466.121 290.289 c 464.465 293.777 460.945
 296 457.086 296 c 374.543 296 l 374.543 502 l 374.543 507.523 370.066 512
 364.543 512 c 148.543 512 l 143.02 512 138.543 507.523 138.543 502 c 138.543
 296 l 56 296 l 52.141 296 48.621 293.777 46.965 290.289 c 45.312 286.801
 45.812 282.672 48.25 279.68 c 87.418 231.68 l 89.32 229.352 92.164 228 
95.168 228 c 116.043 228 l 121.566 228 126.043 232.477 126.043 238 c 126.043
 243.523 121.566 248 116.043 248 c 99.914 248 l 77.066 276 l 436.02 276 
l 413.168 248 l 196.043 248 l 190.52 248 186.043 243.523 186.043 238 c 186.043
 232.477 190.52 228 196.043 228 c 218.668 228 l 218.668 200.934 l 128.082
 184.621 59.137 105.211 59.137 10 c 59.137 4.477 63.613 0 69.137 0 c 443.949
 0 l 449.473 0 453.949 4.477 453.949 10 c 453.949 105.121 385.133 184.473
 294.668 200.883 c 294.668 228 l h
280.648 492 m 280.648 434.957 l 263.562 451.805 l 261.617 453.727 259.078
 454.684 256.543 454.684 c 254.004 454.684 251.469 453.727 249.523 451.805
 c 232.438 434.957 l 232.438 492 l h
158.543 296 m 158.543 492 l 212.438 492 l 212.438 411.055 l 212.438 407.02
 214.859 403.383 218.578 401.828 c 222.297 400.273 226.586 401.102 229.461
 403.934 c 256.543 430.641 l 283.625 403.934 l 285.535 402.051 288.07 401.055
 290.648 401.055 c 291.949 401.055 293.258 401.305 294.508 401.828 c 298.227
 403.383 300.648 407.02 300.648 411.055 c 300.648 492 l 354.543 492 l 354.543
 296 l h
433.664 20 m 79.418 20 l 84.617 111.309 160.547 184 253.137 184 c 259.949
 184 l 352.539 184 428.469 111.309 433.664 20 c h
274.668 204 m 238.668 204 l 238.668 228 l 274.668 228 l h
274.668 204 m f
161.941 230.93 m 163.801 232.789 164.871 235.371 164.871 238 c 164.871 
240.641 163.801 243.211 161.941 245.07 c 160.082 246.93 157.512 248 154.871
 248 c 152.242 248 149.664 246.93 147.801 245.07 c 145.941 243.211 144.871
 240.629 144.871 238 c 144.871 235.371 145.941 232.789 147.801 230.93 c 
149.664 229.07 152.242 228 154.871 228 c 157.512 228 160.082 229.07 161.941
 230.93 c h
161.941 230.93 m f
326.543 352.844 m 300.043 352.844 l 294.52 352.844 290.043 348.363 290.043
 342.844 c 290.043 337.32 294.52 332.844 300.043 332.844 c 326.543 332.844
 l 332.066 332.844 336.543 337.32 336.543 342.844 c 336.543 348.363 332.066
 352.844 326.543 352.844 c h
326.543 352.844 m f
266.844 352.84 m 264.211 352.84 261.633 351.77 259.773 349.91 c 257.914
 348.051 256.844 345.469 256.844 342.84 c 256.844 340.211 257.914 337.629
 259.773 335.77 c 261.633 333.91 264.211 332.84 266.844 332.84 c 269.473
 332.84 272.051 333.91 273.914 335.77 c 275.773 337.629 276.844 340.211 
276.844 342.84 c 276.844 345.469 275.773 348.051 273.914 349.91 c 272.051
 351.77 269.48 352.84 266.844 352.84 c h
266.844 352.84 m f
Q Q
showpage
%%Trailer
end restore
%%EOF
