%!PS-Adobe-3.0 EPSF-3.0
%%Creator: cairo 1.14.2 (http://cairographics.org)
%%CreationDate: Mon Oct  8 09:05:16 2018
%%Pages: 1
%%DocumentData: Clean7Bit
%%LanguageLevel: 2
%%BoundingBox: 0 0 512 512
%%EndComments
%%BeginProlog
save
50 dict begin
/q { gsave } bind def
/Q { grestore } bind def
/cm { 6 array astore concat } bind def
/w { setlinewidth } bind def
/J { setlinecap } bind def
/j { setlinejoin } bind def
/M { setmiterlimit } bind def
/d { setdash } bind def
/m { moveto } bind def
/l { lineto } bind def
/c { curveto } bind def
/h { closepath } bind def
/re { exch dup neg 3 1 roll 5 3 roll moveto 0 rlineto
      0 exch rlineto 0 rlineto closepath } bind def
/S { stroke } bind def
/f { fill } bind def
/f* { eofill } bind def
/n { newpath } bind def
/W { clip } bind def
/W* { eoclip } bind def
/BT { } bind def
/ET { } bind def
/pdfmark where { pop globaldict /?pdfmark /exec load put }
    { globaldict begin /?pdfmark /pop load def /pdfmark
    /cleartomark load def end } ifelse
/BDC { mark 3 1 roll /BDC pdfmark } bind def
/EMC { mark /EMC pdfmark } bind def
/cairo_store_point { /cairo_point_y exch def /cairo_point_x exch def } def
/Tj { show currentpoint cairo_store_point } bind def
/TJ {
  {
    dup
    type /stringtype eq
    { show } { -0.001 mul 0 cairo_font_matrix dtransform rmoveto } ifelse
  } forall
  currentpoint cairo_store_point
} bind def
/cairo_selectfont { cairo_font_matrix aload pop pop pop 0 0 6 array astore
    cairo_font exch selectfont cairo_point_x cairo_point_y moveto } bind def
/Tf { pop /cairo_font exch def /cairo_font_matrix where
      { pop cairo_selectfont } if } bind def
/Td { matrix translate cairo_font_matrix matrix concatmatrix dup
      /cairo_font_matrix exch def dup 4 get exch 5 get cairo_store_point
      /cairo_font where { pop cairo_selectfont } if } bind def
/Tm { 2 copy 8 2 roll 6 array astore /cairo_font_matrix exch def
      cairo_store_point /cairo_font where { pop cairo_selectfont } if } bind def
/g { setgray } bind def
/rg { setrgbcolor } bind def
/d1 { setcachedevice } bind def
%%EndProlog
%%BeginSetup
%%EndSetup
%%Page: 1 1
%%BeginPageSetup
%%PageBoundingBox: 0 0 512 512
%%EndPageSetup
q 0 0 512 512 rectclip q
0 g
466.07 353.25 m 471.059 360.387 474 369.059 474 378.406 c 474 391.445 l
 477.832 392.848 480.574 396.516 480.574 400.832 c 480.574 403.93 l 480.574
 431.816 457.887 454.504 430 454.504 c 402.113 454.504 379.426 431.816 379.426
 403.93 c 379.426 400.832 l 379.426 396.516 382.168 392.848 386 391.445 
c 386 378.406 l 386 369.059 388.938 360.387 393.93 353.25 c 368.867 348.117
 349.707 326.621 348.117 300.453 c 290 300.453 l 284.477 300.453 280 295.977
 280 290.453 c 280 228.453 l 239.434 228.453 l 239.434 290.453 l 239.434
 295.977 234.953 300.453 229.434 300.453 c 157.434 300.453 l 151.91 300.453
 147.434 295.977 147.434 290.453 c 147.434 228.453 l 111.434 228.453 l 111.434
 361.875 l 181.137 431.578 l 227.66 385.059 l 231.367 381.348 235.797 378.785
 240.5 377.363 c 240.5 360.477 l 219.598 339.574 l 217.723 337.699 216.668
 335.156 216.668 332.504 c 216.668 314.035 l 216.668 308.516 221.148 304.035
 226.668 304.035 c 232.191 304.035 236.668 308.516 236.668 314.035 c 236.668
 328.359 l 250.5 342.191 l 264.332 328.359 l 264.332 315.535 l 264.332 310.012
 268.812 305.535 274.332 305.535 c 279.855 305.535 284.332 310.012 284.332
 315.535 c 284.332 332.504 l 284.332 335.156 283.277 337.699 281.402 339.574
 c 260.5 360.477 l 260.5 378.07 l 264.438 379.57 268.129 381.895 271.297
 385.059 c 277.125 390.887 280.336 398.637 280.336 406.879 c 280.336 415.121
 277.125 422.867 271.297 428.695 c 198.723 501.273 l 198.703 501.289 198.684
 501.305 198.668 501.32 c 184.312 515.586 161.027 515.559 146.703 501.242
 c 58.16 412.699 l 37.598 408.688 22.023 390.547 22.023 368.824 c 22.023
 317.035 l 22.023 311.516 26.504 307.035 32.023 307.035 c 37.547 307.035
 42.023 311.516 42.023 317.035 c 42.023 331.594 l 49.105 326.875 57.602 
324.121 66.727 324.121 c 75.855 324.121 84.352 326.875 91.434 331.594 c 
91.434 224.879 l 90.961 224.68 90.5 224.465 90.035 224.25 c 82.586 227.027
 74.758 228.453 66.727 228.453 c 58 228.453 49.668 226.754 42.023 223.695
 c 42.023 243.039 l 42.023 248.559 37.547 253.039 32.023 253.039 c 26.5 
253.039 22.023 248.559 22.023 243.039 c 22.023 211.223 l 8.508 199 0 181.34
 0 161.727 c 0 10.035 l 0 4.516 4.477 0.035 10 0.035 c 466 0.035 l 471.52
 0.035 476 4.516 476 10.035 c 476 176.844 l 496.078 178.207 512 194.969 
512 215.391 c 512 296.938 l 512 324.676 492.25 347.891 466.07 353.25 c h
429.461 354.418 m 416.477 354.707 406 365.352 406 378.406 c 406 390.832
 l 454 390.832 l 454 378.406 l 454 365.352 443.523 354.707 430.539 354.418
 c h
459.789 410.832 m 440 410.832 l 440 432.82 l 449.836 429.402 457.41 421.102
 459.789 410.832 c h
420 432.82 m 420 410.832 l 400.211 410.832 l 402.59 421.102 410.164 429.402
 420 432.82 c h
413 208.453 m 426.785 208.453 438 197.238 438 183.453 c 438 169.668 426.785
 158.453 413 158.453 c 109 158.453 l 95.215 158.453 84 169.668 84 183.453
 c 84 197.238 95.215 208.453 109 208.453 c h
404 138.453 m 413 138.453 l 415.383 138.453 417.719 138.645 420 139 c 420
 20.035 l 404 20.035 l h
64.531 176.551 m 65.953 167.332 70.195 159.035 76.332 152.555 c 73.777 
150.141 70.367 148.742 66.727 148.742 c 59.008 148.742 52.727 155.02 52.727
 162.742 c 52.727 169.711 57.852 175.492 64.531 176.551 c h
300 280.453 m 352 280.453 l 352 228.453 l 300 228.453 l h
167.434 280.453 m 219.434 280.453 l 219.434 228.453 l 167.434 228.453 l
 h
146.848 449.367 m 151.059 445.16 156.109 442.105 161.625 440.352 c 107.781
 386.508 l 103.18 397.145 94.57 405.652 83.859 410.113 c 137.867 464.117
 l 139.586 458.723 142.574 453.645 146.848 449.367 c h
260.336 406.879 m 260.336 403.98 259.203 401.254 257.152 399.203 c 252.922
 394.969 246.031 394.969 241.801 399.203 c 195.277 445.723 l 198.754 449.195
 l 202.953 453.398 206.004 458.441 207.77 463.941 c 257.152 414.555 l 259.203
 412.504 260.336 409.777 260.336 406.879 c h
184.609 487.098 m 187.785 483.926 189.531 479.707 189.531 475.219 c 189.531
 471.129 188.066 467.273 185.41 464.219 c 185.141 464 184.875 463.766 184.621
 463.512 c 178.105 456.996 167.504 456.996 160.988 463.512 c 154.477 470.027
 154.477 480.625 160.988 487.141 c 161.141 487.293 161.277 487.453 161.418
 487.613 c 168.004 493.625 178.242 493.469 184.609 487.098 c h
66.727 344.121 m 53.105 344.121 42.023 355.203 42.023 368.824 c 42.023 
382.449 53.105 393.531 66.727 393.531 c 80.352 393.531 91.434 382.449 91.434
 368.824 c 91.434 355.203 80.352 344.121 66.727 344.121 c h
20 161.727 m 20 187.492 40.961 208.453 66.727 208.453 c 68.316 208.453 
69.891 208.371 71.449 208.215 c 69.121 204.695 67.27 200.836 66 196.723 
c 47.586 196.332 32.727 181.246 32.727 162.742 c 32.727 143.992 47.98 128.742
 66.727 128.742 c 77.141 128.742 86.773 133.445 93.152 141.344 c 98.086 
139.48 103.426 138.453 109 138.453 c 113.457 138.453 l 113.457 20.039 l 
20 20.039 l h
384 20.035 m 133.457 20.035 l 133.457 90.453 l 250.5 90.453 l 256.023 90.453
 260.5 94.934 260.5 100.453 c 260.5 105.977 256.023 110.453 250.5 110.453
 c 133.457 110.453 l 133.457 138.453 l 384 138.453 l h
440 20.035 m 440 147.477 l 447.488 153.113 453.168 161.023 456 170.176 
c 456 20.035 l h
492 215.391 m 492 206.008 485.027 198.242 476 196.949 c 476 281.973 l 476
 287.496 471.523 291.973 466 291.973 c 460.477 291.973 456 287.496 456 281.973
 c 456 196.73 l 450.32 215.082 433.191 228.453 413 228.453 c 404 228.453
 l 404 281.973 l 404 287.496 399.523 291.973 394 291.973 c 388.477 291.973
 384 287.496 384 281.973 c 384 228.453 l 372 228.453 l 372 290.453 l 372
 293.703 370.441 296.586 368.039 298.41 c 368.816 318.398 385.309 334.418
 405.484 334.418 c 429.461 334.418 l 429.641 334.418 429.82 334.406 430 
334.406 c 430.184 334.406 430.359 334.414 430.539 334.418 c 454.52 334.418
 l 475.188 334.418 492 317.605 492 296.938 c h
492 215.391 m f
32.02 267.035 m 34.648 267.035 37.23 268.105 39.09 269.969 c 40.961 271.828
 42.02 274.406 42.02 277.035 c 42.02 279.668 40.961 282.246 39.09 284.105
 c 37.23 285.969 34.66 287.035 32.02 287.035 c 29.391 287.035 26.809 285.969
 24.949 284.105 c 23.09 282.246 22.02 279.668 22.02 277.035 c 22.02 274.406
 23.09 271.828 24.949 269.969 c 26.809 268.105 29.391 267.035 32.02 267.035
 c h
32.02 267.035 m f
66.73 378.828 m 64.09 378.828 61.52 377.758 59.66 375.898 c 57.801 374.035
 56.73 371.457 56.73 368.828 c 56.73 366.188 57.801 363.617 59.66 361.758
 c 61.52 359.898 64.09 358.828 66.73 358.828 c 69.359 358.828 71.938 359.898
 73.801 361.758 c 75.66 363.617 76.73 366.195 76.73 368.828 c 76.73 371.457
 75.66 374.035 73.801 375.898 c 71.938 377.758 69.359 378.828 66.73 378.828
 c h
66.73 378.828 m f
165.73 468.258 m 167.598 466.398 170.168 465.328 172.801 465.328 c 175.438
 465.328 178.008 466.398 179.879 468.258 c 181.738 470.117 182.809 472.695
 182.809 475.328 c 182.809 477.957 181.738 480.535 179.879 482.398 c 178.008
 484.254 175.438 485.328 172.801 485.328 c 170.168 485.328 167.598 484.258
 165.73 482.398 c 163.871 480.535 162.809 477.957 162.809 475.328 c 162.809
 472.695 163.871 470.117 165.73 468.258 c h
165.73 468.258 m f
202 193.457 m 199.371 193.457 196.789 192.387 194.93 190.527 c 193.07 188.664
 192 186.086 192 183.457 c 192 180.828 193.07 178.246 194.93 176.387 c 196.789
 174.52 199.371 173.457 202 173.457 c 204.629 173.457 207.211 174.52 209.07
 176.387 c 210.93 178.246 212 180.828 212 183.457 c 212 186.086 210.93 188.668
 209.07 190.527 c 207.211 192.387 204.629 193.457 202 193.457 c h
202 193.457 m f
138 193.457 m 135.371 193.457 132.789 192.387 130.93 190.527 c 129.07 188.664
 128 186.086 128 183.457 c 128 180.816 129.07 178.246 130.93 176.387 c 132.789
 174.527 135.359 173.457 138 173.457 c 140.629 173.457 143.211 174.527 145.07
 176.387 c 146.93 178.246 148 180.816 148 183.457 c 148 186.086 146.93 188.668
 145.07 190.527 c 143.211 192.387 140.629 193.457 138 193.457 c h
138 193.457 m f
394 173.457 m 396.629 173.457 399.211 174.52 401.07 176.387 c 402.93 178.246
 404 180.816 404 183.457 c 404 186.086 402.93 188.668 401.07 190.527 c 399.211
 192.387 396.629 193.457 394 193.457 c 391.371 193.457 388.789 192.387 386.93
 190.527 c 385.07 188.664 384 186.086 384 183.457 c 384 180.816 385.07 178.246
 386.93 176.387 c 388.789 174.516 391.371 173.457 394 173.457 c h
394 173.457 m f
266 193.457 m 263.371 193.457 260.789 192.387 258.93 190.527 c 257.07 188.664
 256 186.086 256 183.457 c 256 180.828 257.07 178.246 258.93 176.387 c 260.789
 174.52 263.371 173.457 266 173.457 c 268.629 173.457 271.211 174.52 273.07
 176.387 c 274.93 178.246 276 180.816 276 183.457 c 276 186.086 274.93 188.668
 273.07 190.527 c 271.211 192.387 268.629 193.457 266 193.457 c h
266 193.457 m f
330 193.457 m 327.371 193.457 324.789 192.387 322.93 190.527 c 321.07 188.664
 320 186.086 320 183.457 c 320 180.828 321.07 178.246 322.93 176.387 c 324.789
 174.52 327.371 173.457 330 173.457 c 332.629 173.457 335.211 174.52 337.07
 176.387 c 338.93 178.246 340 180.828 340 183.457 c 340 186.086 338.93 188.668
 337.07 190.527 c 335.211 192.387 332.629 193.457 330 193.457 c h
330 193.457 m f
288.898 90.457 m 291.531 90.457 294.109 91.52 295.969 93.387 c 297.828 
95.246 298.898 97.816 298.898 100.457 c 298.898 103.086 297.828 105.668 
295.969 107.527 c 294.109 109.387 291.539 110.457 288.898 110.457 c 286.27
 110.457 283.688 109.387 281.828 107.527 c 279.969 105.668 278.898 103.086
 278.898 100.457 c 278.898 97.816 279.969 95.246 281.828 93.387 c 283.688
 91.516 286.27 90.457 288.898 90.457 c h
288.898 90.457 m f
Q Q
showpage
%%Trailer
end restore
%%EOF
