%!PS-Adobe-3.0 EPSF-3.0
%%Creator: cairo 1.14.2 (http://cairographics.org)
%%CreationDate: Mon Oct  8 09:05:16 2018
%%Pages: 1
%%DocumentData: Clean7Bit
%%LanguageLevel: 2
%%BoundingBox: 0 0 512 512
%%EndComments
%%BeginProlog
save
50 dict begin
/q { gsave } bind def
/Q { grestore } bind def
/cm { 6 array astore concat } bind def
/w { setlinewidth } bind def
/J { setlinecap } bind def
/j { setlinejoin } bind def
/M { setmiterlimit } bind def
/d { setdash } bind def
/m { moveto } bind def
/l { lineto } bind def
/c { curveto } bind def
/h { closepath } bind def
/re { exch dup neg 3 1 roll 5 3 roll moveto 0 rlineto
      0 exch rlineto 0 rlineto closepath } bind def
/S { stroke } bind def
/f { fill } bind def
/f* { eofill } bind def
/n { newpath } bind def
/W { clip } bind def
/W* { eoclip } bind def
/BT { } bind def
/ET { } bind def
/pdfmark where { pop globaldict /?pdfmark /exec load put }
    { globaldict begin /?pdfmark /pop load def /pdfmark
    /cleartomark load def end } ifelse
/BDC { mark 3 1 roll /BDC pdfmark } bind def
/EMC { mark /EMC pdfmark } bind def
/cairo_store_point { /cairo_point_y exch def /cairo_point_x exch def } def
/Tj { show currentpoint cairo_store_point } bind def
/TJ {
  {
    dup
    type /stringtype eq
    { show } { -0.001 mul 0 cairo_font_matrix dtransform rmoveto } ifelse
  } forall
  currentpoint cairo_store_point
} bind def
/cairo_selectfont { cairo_font_matrix aload pop pop pop 0 0 6 array astore
    cairo_font exch selectfont cairo_point_x cairo_point_y moveto } bind def
/Tf { pop /cairo_font exch def /cairo_font_matrix where
      { pop cairo_selectfont } if } bind def
/Td { matrix translate cairo_font_matrix matrix concatmatrix dup
      /cairo_font_matrix exch def dup 4 get exch 5 get cairo_store_point
      /cairo_font where { pop cairo_selectfont } if } bind def
/Tm { 2 copy 8 2 roll 6 array astore /cairo_font_matrix exch def
      cairo_store_point /cairo_font where { pop cairo_selectfont } if } bind def
/g { setgray } bind def
/rg { setrgbcolor } bind def
/d1 { setcachedevice } bind def
%%EndProlog
%%BeginSetup
%%EndSetup
%%Page: 1 1
%%BeginPageSetup
%%PageBoundingBox: 0 0 512 512
%%EndPageSetup
q 0 0 512 512 rectclip q
0 g
489.797 382.008 m 499.547 390.086 505.77 402.281 505.77 415.902 c 505.77
 451.5 l 505.77 475.762 486.031 495.5 461.77 495.5 c 437.508 495.5 417.77
 475.762 417.77 451.5 c 417.77 448.328 l 406.668 448.328 l 401.145 448.328
 396.668 443.848 396.668 438.328 c 396.668 432.805 401.145 428.328 406.668
 428.328 c 417.77 428.328 l 417.77 415.902 l 417.77 403.422 423.004 392.145
 431.379 384.129 c 416.168 374.805 406 358.027 406 338.914 c 406 334.902
 l 386.547 322.953 l 349.355 330.887 l 358.508 344.105 355.59 362.355 342.594
 372.023 c 329.32 381.895 310.488 379.125 300.617 365.852 c 295.836 359.422
 293.844 351.516 295.008 343.586 c 295.77 338.418 297.816 333.652 300.926
 329.629 c 295.695 325.336 292.094 319.449 290.66 312.734 c 288.988 304.895
 290.469 296.879 294.828 290.152 c 295.254 289.496 295.711 288.863 296.18
 288.246 c 288.266 265.871 l 285.469 265.871 l 247.879 503.562 l 247.109
 508.422 242.922 512 238 512 c 182 512 l 176.477 512 172 507.523 172 502
 c 172 225.949 l 45 225.949 l 20.188 225.949 0 205.762 0 180.949 c 0 159.574
 14.984 141.645 35 137.086 c 35 10 l 35 4.477 39.477 0 45 0 c 362.332 0 
l 367.855 0 372.332 4.477 372.332 10 c 372.332 255.871 l 372.332 261.395
 367.855 265.871 362.332 265.871 c 309.48 265.871 l 313.484 277.195 l 313.57
 277.176 313.656 277.152 313.742 277.137 c 385.766 261.773 l 387.816 261.332
 389.926 261.109 392.023 261.109 c 396.906 261.109 401.699 262.301 406 264.57
 c 406 10 l 406 4.477 410.48 0 416 0 c 502 0 l 507.523 0 512 4.477 512 10
 c 512 338.914 l 512 356.66 503.227 372.383 489.797 382.008 c h
20 180.949 m 20 194.734 31.215 205.949 45 205.949 c 289.691 205.949 l 303.477
 205.949 314.691 194.734 314.691 180.949 c 314.691 167.164 303.477 155.949
 289.691 155.949 c 45 155.949 l 31.215 155.949 20 167.164 20 180.949 c h
182 20 m 55 20 l 55 135.949 l 285.332 135.949 l 285.332 110.418 l 218 110.418
 l 212.477 110.418 208 105.938 208 100.418 c 208 94.895 212.477 90.418 218
 90.418 c 285.332 90.418 l 285.332 20 l h
352.332 20 m 305.332 20 l 305.332 138.758 l 322.457 145.129 334.691 161.633
 334.691 180.949 c 334.691 205.762 314.504 225.949 289.691 225.949 c 192
 225.949 l 192 492 l 229.457 492 l 267.047 254.309 l 267.816 249.453 272.004
 245.871 276.926 245.871 c 352.332 245.871 l h
437.77 428.328 m 485.77 428.328 l 485.77 415.902 l 485.77 402.668 475.004
 391.902 461.77 391.902 c 448.539 391.902 437.77 402.668 437.77 415.902 
c h
437.77 451.5 m 437.77 464.734 448.539 475.5 461.77 475.5 c 475.004 475.5
 485.77 464.734 485.77 451.5 c 485.77 448.328 l 437.77 448.328 l h
316.668 353.918 m 318.629 356.555 321.648 357.945 324.703 357.945 c 326.777
 357.945 328.871 357.305 330.66 355.973 c 335.082 352.684 336.008 346.406
 332.715 341.984 c 331.121 339.84 328.789 338.445 326.145 338.055 c 323.508
 337.668 320.867 338.332 318.723 339.926 c 314.301 343.215 313.375 349.492
 316.668 353.918 c h
389.938 281.332 m 317.914 296.695 l 312.523 297.844 309.07 303.168 310.223
 308.562 c 310.777 311.176 312.32 313.414 314.562 314.867 c 316.801 316.32
 319.473 316.816 322.086 316.254 c 386.285 302.559 l 388.797 302.023 391.418
 302.473 393.605 303.82 c 446.766 336.473 l 451.473 339.363 452.945 345.523
 450.055 350.227 c 447.164 354.93 441.008 356.406 436.297 353.512 c 427.273
 347.969 l 431.219 361.777 443.941 371.914 459 371.914 c 477.195 371.914
 492 357.113 492 338.914 c 492 256 l 426 256 l 426 276.773 l 440.684 285.789
 l 445.387 288.68 446.859 294.84 443.969 299.547 c 441.078 304.25 434.922
 305.723 430.215 302.832 c 397.258 282.59 l 395.086 281.258 392.434 280.797
 389.938 281.332 c h
469 20 m 469 182 l 469 187.523 464.523 192 459 192 c 453.477 192 449 187.523
 449 182 c 449 20 l 426 20 l 426 236 l 492 236 l 492 20 l h
469 20 m f
78.688 170.949 m 81.32 170.949 83.898 172.02 85.758 173.879 c 87.617 175.738
 88.688 178.32 88.688 180.949 c 88.688 183.578 87.621 186.16 85.758 188.02
 c 83.898 189.879 81.32 190.949 78.688 190.949 c 76.059 190.949 73.48 189.879
 71.621 188.02 c 69.762 186.16 68.688 183.578 68.688 180.949 c 68.688 178.32
 69.758 175.738 71.621 173.879 c 73.48 172.02 76.059 170.949 78.688 170.949
 c h
78.688 170.949 m f
270.688 170.949 m 273.32 170.949 275.898 172.02 277.758 173.879 c 279.617
 175.738 280.688 178.32 280.688 180.949 c 280.688 183.578 279.621 186.16
 277.758 188.02 c 275.898 189.879 273.32 190.949 270.688 190.949 c 268.059
 190.949 265.48 189.879 263.621 188.02 c 261.762 186.16 260.688 183.578 
260.688 180.949 c 260.688 178.32 261.758 175.738 263.621 173.879 c 265.48
 172.02 268.059 170.949 270.688 170.949 c h
270.688 170.949 m f
142.688 170.949 m 145.32 170.949 147.898 172.02 149.758 173.879 c 151.617
 175.738 152.688 178.32 152.688 180.949 c 152.688 183.578 151.621 186.16
 149.758 188.02 c 147.898 189.879 145.32 190.949 142.688 190.949 c 140.059
 190.949 137.48 189.879 135.621 188.02 c 133.762 186.16 132.688 183.578 
132.688 180.949 c 132.688 178.32 133.758 175.738 135.621 173.879 c 137.48
 172.02 140.059 170.949 142.688 170.949 c h
142.688 170.949 m f
206.688 170.949 m 209.32 170.949 211.898 172.02 213.758 173.879 c 215.617
 175.738 216.688 178.32 216.688 180.949 c 216.688 183.578 215.621 186.16
 213.758 188.02 c 211.898 189.879 209.32 190.949 206.688 190.949 c 204.059
 190.949 201.48 189.879 199.621 188.02 c 197.762 186.16 196.688 183.578 
196.688 180.949 c 196.688 178.32 197.758 175.738 199.621 173.879 c 201.48
 172.02 204.059 170.949 206.688 170.949 c h
206.688 170.949 m f
179.602 110.418 m 176.969 110.418 174.391 109.352 172.531 107.488 c 170.672
 105.629 169.602 103.051 169.602 100.418 c 169.602 97.781 170.672 95.211
 172.531 93.352 c 174.391 91.48 176.969 90.418 179.602 90.418 c 182.23 90.418
 184.801 91.48 186.672 93.352 c 188.527 95.211 189.602 97.781 189.602 100.418
 c 189.602 103.051 188.531 105.629 186.672 107.488 c 184.809 109.352 182.23
 110.418 179.602 110.418 c h
179.602 110.418 m f
18.895 285.457 m 18.895 255.871 l 18.895 250.352 23.375 245.871 28.895 
245.871 c 110.062 245.871 l 115.586 245.871 120.062 250.352 120.062 255.871
 c 120.062 282.609 l 120.195 282.816 120.34 283.016 120.461 283.234 c 139.344
 318.285 l 141.434 322.164 140.738 326.957 137.629 330.082 c 99.66 368.227
 l 99.66 467.332 l 99.66 472.855 95.184 477.332 89.66 477.332 c 84.141 477.332
 79.66 472.855 79.66 467.332 c 79.66 374.176 l 60.891 374.176 l 60.891 502
 l 60.891 507.523 56.414 512 50.891 512 c 45.367 512 40.891 507.523 40.891
 502 c 40.891 368.23 l 2.926 330.082 l -0.184 326.957 -0.883 322.164 1.211
 318.285 c h
100.062 265.871 m 38.895 265.871 l 38.895 298 l 100.062 298 l h
55.121 354.176 m 85.434 354.176 l 118.215 321.238 l 115.578 316.34 l 113.996
 317.387 112.102 318 110.062 318 c 28.895 318 l 27.359 318 25.91 317.641
 24.609 317.023 c 22.336 321.234 l h
55.121 354.176 m f
89.66 492 m 92.301 492 94.871 493.07 96.73 494.93 c 98.59 496.789 99.66
 499.371 99.66 502 c 99.66 504.629 98.59 507.211 96.73 509.07 c 94.871 510.93
 92.289 512 89.66 512 c 87.027 512 84.449 510.93 82.59 509.07 c 80.73 507.207
 79.66 504.629 79.66 502 c 79.66 499.371 80.73 496.789 82.59 494.93 c 84.449
 493.07 87.027 492 89.66 492 c h
89.66 492 m f
Q Q
showpage
%%Trailer
end restore
%%EOF
