%!PS-Adobe-3.0 EPSF-3.0
%%Creator: cairo 1.14.2 (http://cairographics.org)
%%CreationDate: Mon Oct  8 09:05:16 2018
%%Pages: 1
%%DocumentData: Clean7Bit
%%LanguageLevel: 2
%%BoundingBox: 0 0 512 512
%%EndComments
%%BeginProlog
save
50 dict begin
/q { gsave } bind def
/Q { grestore } bind def
/cm { 6 array astore concat } bind def
/w { setlinewidth } bind def
/J { setlinecap } bind def
/j { setlinejoin } bind def
/M { setmiterlimit } bind def
/d { setdash } bind def
/m { moveto } bind def
/l { lineto } bind def
/c { curveto } bind def
/h { closepath } bind def
/re { exch dup neg 3 1 roll 5 3 roll moveto 0 rlineto
      0 exch rlineto 0 rlineto closepath } bind def
/S { stroke } bind def
/f { fill } bind def
/f* { eofill } bind def
/n { newpath } bind def
/W { clip } bind def
/W* { eoclip } bind def
/BT { } bind def
/ET { } bind def
/pdfmark where { pop globaldict /?pdfmark /exec load put }
    { globaldict begin /?pdfmark /pop load def /pdfmark
    /cleartomark load def end } ifelse
/BDC { mark 3 1 roll /BDC pdfmark } bind def
/EMC { mark /EMC pdfmark } bind def
/cairo_store_point { /cairo_point_y exch def /cairo_point_x exch def } def
/Tj { show currentpoint cairo_store_point } bind def
/TJ {
  {
    dup
    type /stringtype eq
    { show } { -0.001 mul 0 cairo_font_matrix dtransform rmoveto } ifelse
  } forall
  currentpoint cairo_store_point
} bind def
/cairo_selectfont { cairo_font_matrix aload pop pop pop 0 0 6 array astore
    cairo_font exch selectfont cairo_point_x cairo_point_y moveto } bind def
/Tf { pop /cairo_font exch def /cairo_font_matrix where
      { pop cairo_selectfont } if } bind def
/Td { matrix translate cairo_font_matrix matrix concatmatrix dup
      /cairo_font_matrix exch def dup 4 get exch 5 get cairo_store_point
      /cairo_font where { pop cairo_selectfont } if } bind def
/Tm { 2 copy 8 2 roll 6 array astore /cairo_font_matrix exch def
      cairo_store_point /cairo_font where { pop cairo_selectfont } if } bind def
/g { setgray } bind def
/rg { setrgbcolor } bind def
/d1 { setcachedevice } bind def
%%EndProlog
%%BeginSetup
%%EndSetup
%%Page: 1 1
%%BeginPageSetup
%%PageBoundingBox: 0 0 512 512
%%EndPageSetup
q 0 0 512 512 rectclip q
0 g
502 177.969 m 485.441 177.969 l 482.934 186.695 479.465 195.086 475.078
 203.039 c 486.77 214.734 l 490.676 218.637 490.676 224.969 486.77 228.875
 c 452.875 262.77 l 448.973 266.676 442.637 266.676 438.734 262.77 c 427.078
 251.113 l 419.113 255.527 410.711 259.016 401.969 261.539 c 401.969 278
 l 401.969 283.523 397.488 288 391.969 288 c 351.945 288 l 356.016 302.094
 358.07 317.094 358.07 332.965 c 358.07 380.797 339.438 425.766 305.609 
459.582 c 271.797 493.387 226.848 512 179.035 512 c 178.973 512 l 80.285
 511.965 -0.004 431.648 0 332.961 c 0 287.746 16.602 249.555 49.344 219.449
 c 82.168 189.27 102.918 148.895 107.77 105.762 c 107.809 105.438 l 107.809
 26 l 107.809 11.664 119.473 0 133.809 0 c 224.262 0 l 238.598 0 250.262
 11.664 250.262 26 c 250.262 58.09 l 283.125 25.23 l 287.031 21.324 293.363
 21.324 297.266 25.23 c 308.961 36.922 l 316.914 32.535 325.305 29.066 334.031
 26.559 c 334.031 10 l 334.031 4.477 338.508 0 344.031 0 c 391.969 0 l 397.488
 0 401.969 4.477 401.969 10 c 401.969 26.598 l 410.68 29.113 419.051 32.582
 426.988 36.973 c 438.734 25.23 l 442.637 21.324 448.969 21.324 452.875 
25.23 c 486.77 59.125 l 490.676 63.027 490.676 69.359 486.77 73.266 c 475.027
 85.012 l 479.414 92.949 482.887 101.32 485.402 110.031 c 502 110.031 l 
507.523 110.031 512 114.508 512 120.031 c 512 167.969 l 512 173.488 507.523
 177.969 502 177.969 c h
62.879 234.172 m 34.426 260.336 20 293.57 20 332.961 c 19.996 420.625 91.316
 491.969 178.977 492 c 179.035 492 l 221.504 492 261.434 475.465 291.473
 445.438 c 321.52 415.398 338.07 375.453 338.07 332.965 c 338.07 293.57 
323.645 260.336 295.191 234.172 c 260.848 202.598 238.426 160.887 231.492
 116 c 213.035 116 l 213.035 137 l 213.035 142.523 208.559 147 203.035 147
 c 197.512 147 193.035 142.523 193.035 137 c 193.035 116 l 165.035 116 l
 165.035 240.332 l 165.035 241.23 164.914 242.121 164.676 242.988 c 142.914
 322.016 l 146.004 318.93 l 149.906 315.023 156.238 315.023 160.145 318.93
 c 176.43 335.215 l 192.715 318.93 l 196.621 315.023 202.953 315.023 206.855
 318.93 c 217.133 329.203 l 193.395 242.988 l 193.156 242.121 193.035 241.23
 193.035 240.332 c 193.035 209.234 l 193.035 203.715 197.512 199.234 203.035
 199.234 c 208.559 199.234 213.035 203.715 213.035 209.234 c 213.035 238.98
 l 235.992 322.363 l 239.43 318.93 l 241.383 316.977 243.941 316 246.5 316
 c 249.059 316 251.617 316.977 253.57 318.93 c 257.477 322.832 257.477 329.164
 253.57 333.07 c 230.215 356.426 l 226.309 360.332 219.977 360.332 216.07
 356.426 c 199.785 340.141 l 183.5 356.426 l 179.598 360.332 173.266 360.332
 169.359 356.426 c 153.074 340.141 l 136.789 356.426 l 132.883 360.332 126.551
 360.332 122.645 356.426 c 99.289 333.07 l 95.383 329.164 95.383 322.836
 99.289 318.93 c 103.195 315.023 109.527 315.023 113.43 318.93 c 120.949
 326.449 l 145.035 238.984 l 145.035 116 l 126.578 116 l 119.645 160.891
 97.223 202.598 62.879 234.172 c h
127.809 96 m 230.262 96 l 230.262 68 l 127.809 68 l h
224.262 20 m 133.809 20 l 130.5 20 127.809 22.691 127.809 26 c 127.809 
48 l 230.262 48 l 230.262 26 l 230.262 22.691 227.57 20 224.262 20 c h
250.262 74.301 m 250.262 105.438 l 250.301 105.766 l 250.426 106.902 250.57
 108.035 250.723 109.168 c 253.223 100.734 256.617 92.625 260.887 84.922
 c h
492 130.031 m 477.625 130.031 l 472.922 130.031 468.855 126.758 467.852
 122.164 c 465.266 110.289 460.617 99.082 454.039 88.852 c 451.496 84.895
 452.055 79.699 455.383 76.371 c 465.559 66.195 l 445.805 46.441 l 435.629
 56.621 l 432.301 59.945 427.105 60.504 423.148 57.961 c 412.918 51.383 
401.711 46.738 389.836 44.148 c 385.242 43.145 381.969 39.078 381.969 34.379
 c 381.969 20 l 354.031 20 l 354.031 34.348 l 354.031 39.055 350.75 43.121
 346.152 44.117 c 334.262 46.695 323.035 51.336 312.789 57.91 c 308.832 
60.449 303.641 59.891 300.316 56.566 c 290.195 46.441 l 270.441 66.195 l
 280.535 76.289 l 283.863 79.617 284.422 84.816 281.871 88.773 c 275.27 
99.031 270.602 110.266 268.008 122.164 c 267.008 126.758 262.938 130.035
 258.238 130.035 c 254.77 130.035 l 263.484 163.891 282.145 195.012 308.727
 219.449 c 314.816 225.055 320.348 230.934 325.32 237.09 c 325.383 237.117
 325.449 237.137 325.512 237.164 c 332.113 240.176 339.055 242.48 346.148
 244.02 c 350.75 245.016 354.031 249.086 354.031 253.793 c 354.031 268 l
 381.965 268 l 381.965 253.762 l 381.965 249.059 385.242 244.992 389.836
 243.992 c 401.734 241.395 412.969 236.73 423.227 230.129 c 427.184 227.578
 432.383 228.137 435.711 231.465 c 445.805 241.559 l 465.559 221.805 l 455.434
 211.68 l 452.109 208.355 451.551 203.168 454.09 199.211 c 460.66 188.965
 465.301 177.738 467.879 165.848 c 468.879 161.246 472.945 157.969 477.652
 157.969 c 492 157.969 l h
492 130.031 m f
368 218 m 327.195 218 294 184.805 294 144 c 294 103.195 327.195 70 368 
70 c 408.805 70 442 103.195 442 144 c 442 184.805 408.805 218 368 218 c 
h
368 90 m 338.223 90 314 114.223 314 144 c 314 173.777 338.223 198 368 198
 c 397.777 198 422 173.777 422 144 c 422 114.223 397.777 90 368 90 c h
368 90 m f
368 182 m 347.047 182 330 164.953 330 144 c 330 123.047 347.047 106 368
 106 c 388.953 106 406 123.047 406 144 c 406 164.953 388.953 182 368 182
 c h
368 126 m 358.074 126 350 134.074 350 144 c 350 153.926 358.074 162 368
 162 c 377.926 162 386 153.926 386 144 c 386 134.074 377.926 126 368 126
 c h
368 126 m f
203.039 181.672 m 200.398 181.672 197.82 180.602 195.961 178.738 c 194.102
 176.879 193.039 174.301 193.039 171.672 c 193.039 169.031 194.102 166.461
 195.961 164.602 c 197.82 162.73 200.398 161.672 203.039 161.672 c 205.672
 161.672 208.238 162.73 210.109 164.602 c 211.969 166.461 213.039 169.031
 213.039 171.672 c 213.039 174.301 211.969 176.879 210.109 178.738 c 208.238
 180.602 205.672 181.672 203.039 181.672 c h
203.039 181.672 m f
448 339.355 m 453.523 339.355 458 343.832 458 349.355 c 458 448 l 458 453.523
 453.523 458 448 458 c 442.477 458 438 453.523 438 448 c 438 349.355 l 438
 343.832 442.477 339.355 448 339.355 c h
448 339.355 m f
448 299 m 450.629 299 453.211 300.07 455.07 301.93 c 456.93 303.789 458
 306.371 458 309 c 458 311.629 456.93 314.211 455.07 316.07 c 453.211 317.93
 450.629 319 448 319 c 445.371 319 442.789 317.93 440.93 316.07 c 439.07
 314.211 438 311.629 438 309 c 438 306.371 439.07 303.789 440.93 301.93 
c 442.789 300.07 445.371 299 448 299 c h
448 299 m f
Q Q
showpage
%%Trailer
end restore
%%EOF
