%!PS-Adobe-3.0 EPSF-3.0
%%Creator: cairo 1.14.2 (http://cairographics.org)
%%CreationDate: Mon Oct  8 09:05:16 2018
%%Pages: 1
%%DocumentData: Clean7Bit
%%LanguageLevel: 2
%%BoundingBox: 0 0 512 512
%%EndComments
%%BeginProlog
save
50 dict begin
/q { gsave } bind def
/Q { grestore } bind def
/cm { 6 array astore concat } bind def
/w { setlinewidth } bind def
/J { setlinecap } bind def
/j { setlinejoin } bind def
/M { setmiterlimit } bind def
/d { setdash } bind def
/m { moveto } bind def
/l { lineto } bind def
/c { curveto } bind def
/h { closepath } bind def
/re { exch dup neg 3 1 roll 5 3 roll moveto 0 rlineto
      0 exch rlineto 0 rlineto closepath } bind def
/S { stroke } bind def
/f { fill } bind def
/f* { eofill } bind def
/n { newpath } bind def
/W { clip } bind def
/W* { eoclip } bind def
/BT { } bind def
/ET { } bind def
/pdfmark where { pop globaldict /?pdfmark /exec load put }
    { globaldict begin /?pdfmark /pop load def /pdfmark
    /cleartomark load def end } ifelse
/BDC { mark 3 1 roll /BDC pdfmark } bind def
/EMC { mark /EMC pdfmark } bind def
/cairo_store_point { /cairo_point_y exch def /cairo_point_x exch def } def
/Tj { show currentpoint cairo_store_point } bind def
/TJ {
  {
    dup
    type /stringtype eq
    { show } { -0.001 mul 0 cairo_font_matrix dtransform rmoveto } ifelse
  } forall
  currentpoint cairo_store_point
} bind def
/cairo_selectfont { cairo_font_matrix aload pop pop pop 0 0 6 array astore
    cairo_font exch selectfont cairo_point_x cairo_point_y moveto } bind def
/Tf { pop /cairo_font exch def /cairo_font_matrix where
      { pop cairo_selectfont } if } bind def
/Td { matrix translate cairo_font_matrix matrix concatmatrix dup
      /cairo_font_matrix exch def dup 4 get exch 5 get cairo_store_point
      /cairo_font where { pop cairo_selectfont } if } bind def
/Tm { 2 copy 8 2 roll 6 array astore /cairo_font_matrix exch def
      cairo_store_point /cairo_font where { pop cairo_selectfont } if } bind def
/g { setgray } bind def
/rg { setrgbcolor } bind def
/d1 { setcachedevice } bind def
%%EndProlog
%%BeginSetup
%%EndSetup
%%Page: 1 1
%%BeginPageSetup
%%PageBoundingBox: 0 0 512 512
%%EndPageSetup
q 0 0 512 512 rectclip q
0 g
256 48 m 258.629 48 261.211 49.07 263.07 50.93 c 264.93 52.789 266 55.371
 266 58 c 266 60.629 264.93 63.211 263.07 65.07 c 261.211 66.93 258.629 
68 256 68 c 253.371 68 250.789 66.93 248.93 65.07 c 247.07 63.211 246 60.629
 246 58 c 246 55.371 247.07 52.801 248.93 50.93 c 250.789 49.07 253.371 
48 256 48 c h
256 48 m f
446.93 65.07 m 445.07 63.211 444 60.629 444 58 c 444 55.371 445.07 52.789
 446.93 50.93 c 448.789 49.07 451.371 48 454 48 c 456.629 48 459.211 49.07
 461.07 50.93 c 462.93 52.789 464 55.371 464 58 c 464 60.629 462.93 63.211
 461.07 65.07 c 459.211 66.93 456.629 68 454 68 c 451.371 68 448.789 66.93
 446.93 65.07 c h
446.93 65.07 m f
65.07 50.93 m 66.93 52.789 68 55.371 68 58 c 68 60.629 66.93 63.211 65.07
 65.07 c 63.211 66.93 60.629 68 58 68 c 55.371 68 52.789 66.93 50.93 65.07
 c 49.07 63.211 48 60.629 48 58 c 48 55.371 49.07 52.789 50.93 50.93 c 52.789
 49.07 55.371 48 58 48 c 60.629 48 63.211 49.07 65.07 50.93 c h
65.07 50.93 m f
206.93 469.07 m 205.07 467.211 204.012 464.641 204.012 462 c 204.012 459.371
 205.07 456.789 206.93 454.93 c 208.789 453.07 211.371 452 214 452 c 216.641
 452 219.211 453.07 221.07 454.93 c 222.938 456.789 224.008 459.371 224.008
 462 c 224.008 464.629 222.938 467.211 221.07 469.07 c 219.211 470.93 216.641
 472 214 472 c 211.371 472 208.789 470.93 206.93 469.07 c h
206.93 469.07 m f
446.695 452 m 502 452 l 507.523 452 512 456.477 512 462 c 512 502 l 512
 507.523 507.523 512 502 512 c 10 512 l 4.477 512 0 507.523 0 502 c 0 462
 l 0 456.477 4.477 452 10 452 c 93.715 452 l 93.715 372.996 l 67.645 346.926
 l 65.77 345.047 64.715 342.504 64.715 339.852 c 64.715 316.367 l 64.715
 314.562 65.199 312.875 66.035 311.414 c 65.195 309.23 64.715 306.867 64.715
 304.395 c 64.715 252 l 32 252 l 28.406 252 25.09 250.07 23.312 246.949 
c 21.531 243.828 21.566 239.992 23.398 236.898 c 45.715 199.258 l 45.715
 114.68 l 19.617 109.027 0 85.766 0 58 c 0 26.02 26.02 0 58 0 c 454 0 l 
485.98 0 512 26.02 512 58 c 512 89.98 485.98 116 454 116 c 314 116 l 314
 202 l 314 207.523 309.523 212 304 212 c 208 212 l 202.477 212 198 207.523
 198 202 c 198 116 l 161.715 116 l 161.715 199.258 l 184.031 236.898 l 185.863
 239.992 185.898 243.828 184.117 246.949 c 182.34 250.07 179.023 252 175.43
 252 c 142.715 252 l 142.715 304.395 l 142.715 306.867 142.234 309.23 141.395
 311.41 c 142.23 312.875 142.715 314.562 142.715 316.367 c 142.715 339.852
 l 142.715 342.504 141.66 345.047 139.785 346.922 c 113.715 372.992 l 113.715
 452 l 160.699 452 l 166.223 452 170.699 456.477 170.699 462 c 170.699 467.523
 166.223 472 160.699 472 c 113.715 472 l 113.715 475 l 113.715 480.523 109.238
 485 103.715 485 c 98.191 485 93.715 480.523 93.715 475 c 93.715 472 l 20
 472 l 20 492 l 492 492 l 492 472 l 446.695 472 l 446.695 474.23 l 446.695
 479.75 442.215 484.23 436.695 484.23 c 431.172 484.23 426.695 479.75 426.695
 474.23 c 426.695 472 l 416.527 472 l 416.527 474.23 l 416.527 479.75 412.051
 484.23 406.527 484.23 c 401.004 484.23 396.527 479.75 396.527 474.23 c 
396.527 472 l 255.121 472 l 249.602 472 245.121 467.523 245.121 462 c 245.121
 456.477 249.602 452 255.121 452 c 396.527 452 l 396.527 401 l 396.527 397.758
 397.152 394.66 398.277 391.812 c 335.172 328.844 l 331.82 325.5 331.273
 320.27 333.859 316.305 c 364.137 269.844 l 364.137 256 l 293.664 256 l 
288.145 256 283.664 251.523 283.664 246 c 283.664 240.477 288.145 236 293.664
 236 c 364.137 236 l 364.137 204.918 l 364.137 199.395 368.613 194.918 374.137
 194.918 c 470.137 194.918 l 475.66 194.918 480.137 199.395 480.137 204.918
 c 480.137 269.906 l 510.379 316.305 l 512.977 320.297 512.402 325.562 509.008
 328.898 c 444.949 391.824 l 446.07 394.672 446.691 397.762 446.691 401 
c 446.691 452 l h
208 96 m 212.238 96 l 203.383 85.812 198 72.527 198 58 c 198 43.473 203.383
 30.188 212.238 20 c 101.762 20 l 110.617 30.188 116 43.473 116 58 c 116
 72.527 110.617 85.812 101.762 96 c h
410.238 96 m 401.383 85.812 396 72.527 396 58 c 396 43.473 401.383 30.188
 410.238 20 c 299.762 20 l 308.617 30.188 314 43.473 314 58 c 314 72.527
 308.617 85.812 299.762 96 c h
294 58 m 294 37.047 276.953 20 256 20 c 235.047 20 218 37.047 218 58 c 
218 78.953 235.047 96 256 96 c 276.953 96 294 78.953 294 58 c h
20 58 m 20 78.953 37.047 96 58 96 c 78.953 96 96 78.953 96 58 c 96 37.047
 78.953 20 58 20 c 37.047 20 20 37.047 20 58 c h
492 58 m 492 37.047 474.953 20 454 20 c 433.047 20 416 37.047 416 58 c 
416 78.953 433.047 96 454 96 c 474.953 96 492 78.953 492 58 c h
218 192 m 294 192 l 294 116 l 218 116 l h
65.715 116 m 65.715 192 l 141.715 192 l 141.715 116 l h
146.02 212 m 61.41 212 l 49.555 232 l 157.875 232 l h
84.715 252 m 84.715 304 l 122.715 304 l 122.715 252 l h
122.715 324 m 84.715 324 l 84.715 335.711 l 103.715 354.711 l 122.715 335.711
 l h
426.695 452 m 426.695 401 l 426.695 398.195 424.414 395.918 421.609 395.918
 c 418.809 395.918 416.527 398.195 416.527 401 c 416.527 452 l h
384.137 214.918 m 384.137 290.918 l 460.137 290.918 l 460.137 273.695 l
 460.09 273.141 460.094 272.59 460.137 272.039 c 460.137 214.918 l h
479.207 305.109 m 477.621 308.535 474.16 310.918 470.137 310.918 c 374.137
 310.918 l 370.102 310.918 366.629 308.52 365.051 305.074 c 355.047 320.422
 l 412.422 377.668 l 415.27 376.543 418.367 375.914 421.613 375.914 c 424.859
 375.914 427.965 376.543 430.816 377.672 c 489.152 320.367 l h
479.207 305.109 m f
315.473 277 m 320.992 277 325.473 281.477 325.473 287 c 325.473 292.523
 320.992 297 315.473 297 c 287 297 l 281.477 297 277 292.523 277 287 c 277
 281.477 281.477 277 287 277 c h
315.473 277 m f
248.051 294.07 m 246.191 292.211 245.121 289.629 245.121 287 c 245.121 
284.371 246.188 281.789 248.051 279.93 c 249.91 278.07 252.488 277 255.121
 277 c 257.75 277 260.328 278.07 262.188 279.93 c 264.051 281.789 265.121
 284.371 265.121 287 c 265.121 289.629 264.051 292.211 262.188 294.07 c 
260.328 295.93 257.75 297 255.121 297 c 252.488 297 249.91 295.93 248.051
 294.07 c h
248.051 294.07 m f
Q Q
showpage
%%Trailer
end restore
%%EOF
