%!PS-Adobe-3.0 EPSF-3.0
%%Creator: cairo 1.14.2 (http://cairographics.org)
%%CreationDate: Mon Oct  8 09:05:16 2018
%%Pages: 1
%%DocumentData: Clean7Bit
%%LanguageLevel: 2
%%BoundingBox: 0 18 511 491
%%EndComments
%%BeginProlog
save
50 dict begin
/q { gsave } bind def
/Q { grestore } bind def
/cm { 6 array astore concat } bind def
/w { setlinewidth } bind def
/J { setlinecap } bind def
/j { setlinejoin } bind def
/M { setmiterlimit } bind def
/d { setdash } bind def
/m { moveto } bind def
/l { lineto } bind def
/c { curveto } bind def
/h { closepath } bind def
/re { exch dup neg 3 1 roll 5 3 roll moveto 0 rlineto
      0 exch rlineto 0 rlineto closepath } bind def
/S { stroke } bind def
/f { fill } bind def
/f* { eofill } bind def
/n { newpath } bind def
/W { clip } bind def
/W* { eoclip } bind def
/BT { } bind def
/ET { } bind def
/pdfmark where { pop globaldict /?pdfmark /exec load put }
    { globaldict begin /?pdfmark /pop load def /pdfmark
    /cleartomark load def end } ifelse
/BDC { mark 3 1 roll /BDC pdfmark } bind def
/EMC { mark /EMC pdfmark } bind def
/cairo_store_point { /cairo_point_y exch def /cairo_point_x exch def } def
/Tj { show currentpoint cairo_store_point } bind def
/TJ {
  {
    dup
    type /stringtype eq
    { show } { -0.001 mul 0 cairo_font_matrix dtransform rmoveto } ifelse
  } forall
  currentpoint cairo_store_point
} bind def
/cairo_selectfont { cairo_font_matrix aload pop pop pop 0 0 6 array astore
    cairo_font exch selectfont cairo_point_x cairo_point_y moveto } bind def
/Tf { pop /cairo_font exch def /cairo_font_matrix where
      { pop cairo_selectfont } if } bind def
/Td { matrix translate cairo_font_matrix matrix concatmatrix dup
      /cairo_font_matrix exch def dup 4 get exch 5 get cairo_store_point
      /cairo_font where { pop cairo_selectfont } if } bind def
/Tm { 2 copy 8 2 roll 6 array astore /cairo_font_matrix exch def
      cairo_store_point /cairo_font where { pop cairo_selectfont } if } bind def
/g { setgray } bind def
/rg { setrgbcolor } bind def
/d1 { setcachedevice } bind def
%%EndProlog
%%BeginSetup
%%EndSetup
%%Page: 1 1
%%BeginPageSetup
%%PageBoundingBox: 0 18 511 491
%%EndPageSetup
q 0 18 511 473 rectclip q
0 g
162.637 350.543 m 135.641 357.777 l 130.316 359.203 124.848 356.043 123.418
 350.719 c 121.992 345.395 125.148 339.926 130.477 338.496 c 157.469 331.262
 l 158.332 331.031 159.199 330.922 160.059 330.922 c 164.465 330.922 168.496
 333.863 169.691 338.32 c 171.117 343.645 167.957 349.117 162.637 350.543
 c h
162.637 350.543 m f
444.535 275.02 m 417.547 282.258 l 412.219 283.684 406.75 280.52 405.324
 275.195 c 403.895 269.875 407.055 264.402 412.383 262.973 c 439.371 255.742
 l 440.238 255.512 441.105 255.398 441.961 255.398 c 446.367 255.398 450.402
 258.344 451.594 262.801 c 453.02 268.125 449.863 273.598 444.535 275.02
 c h
444.535 275.02 m f
501.008 38.879 m 471.07 38.879 l 471.07 131.598 l 476.582 132.555 481.949
 134.461 486.941 137.344 c 498.066 143.766 506.02 154.133 509.34 166.535
 c 512.664 178.938 510.957 191.898 504.535 203.016 c 498.117 214.141 487.75
 222.094 475.344 225.418 c 473.965 225.789 l 510.648 362.691 l 511.332 365.25
 510.973 367.977 509.652 370.27 c 508.328 372.555 506.148 374.234 503.59
 374.914 c 357.062 414.18 l 351.738 415.605 346.27 412.441 344.84 407.121
 c 308.156 270.215 l 192.062 301.32 l 228.742 438.215 l 230.172 443.539 
227.012 449.012 221.688 450.438 c 75.16 489.703 l 72.605 490.383 69.879 
490.031 67.586 488.703 c 65.293 487.383 63.621 485.203 62.938 482.645 c 
23.676 336.121 l 23.25 334.539 23.238 332.953 23.559 331.457 c 12.703 325.016
 4.934 314.785 1.66 302.57 c -1.664 290.168 0.039 277.211 6.465 266.09 c
 12.887 254.965 23.25 247.012 35.656 243.688 c 39.934 242.539 l 39.934 38.883
 l 10.117 38.883 l 4.609 38.883 0.137 34.418 0.137 28.902 c 0.137 23.391
 4.609 18.922 10.117 18.922 c 501.008 18.922 l 506.52 18.922 510.988 23.391
 510.988 28.902 c 510.988 34.418 506.52 38.879 501.008 38.879 c h
438.656 371.652 m 430.883 342.641 l 425.938 351.078 l 424.082 354.242 420.746
 356.012 417.32 356.012 c 415.648 356.012 413.953 355.59 412.398 354.703
 c 403.895 349.875 l 411.668 378.883 l h
361.539 392.32 m 392.387 384.055 l 378.441 331.996 l 377.395 328.109 378.789
 323.977 381.977 321.516 c 385.156 319.055 389.508 318.746 393.008 320.734
 c 413.699 332.488 l 425.742 311.965 l 427.551 308.883 430.84 307.035 434.348
 307.035 c 434.789 307.035 435.238 307.062 435.688 307.125 c 439.676 307.664
 442.945 310.543 443.992 314.43 c 457.941 366.488 l 488.785 358.223 l 454.688
 230.973 l 327.441 265.07 l h
156.758 447.172 m 148.98 418.164 l 144.031 426.598 l 142.176 429.766 138.84
 431.531 135.414 431.531 c 133.742 431.531 132.051 431.109 130.492 430.227
 c 121.988 425.395 l 129.762 454.406 l h
79.637 467.84 m 110.484 459.574 l 96.535 407.516 l 95.492 403.629 96.887
 399.5 100.07 397.039 c 103.254 394.574 107.602 394.27 111.102 396.258 c
 131.797 408.012 l 143.84 387.484 l 145.645 384.402 148.934 382.555 152.445
 382.555 c 152.887 382.555 153.332 382.582 153.781 382.645 c 157.77 383.184
 161.043 386.066 162.086 389.953 c 176.035 442.008 l 206.883 433.742 l 172.785
 306.492 l 45.539 340.59 l h
23.75 276.066 m 19.992 282.57 18.992 290.148 20.941 297.402 c 22.887 304.656
 27.535 310.719 34.043 314.473 c 40.547 318.234 48.125 319.227 55.375 317.285
 c 470.18 206.141 l 477.438 204.195 483.5 199.543 487.254 193.039 c 491.008
 186.535 492.008 178.957 490.062 171.703 c 488.121 164.449 483.465 158.387
 476.961 154.629 c 470.457 150.871 462.879 149.875 455.625 151.82 c 40.824
 262.965 l 33.566 264.91 27.504 269.562 23.75 276.066 c h
411.188 143.062 m 411.188 38.879 l 99.812 38.879 l 99.812 226.496 l h
59.891 38.879 m 59.891 237.191 l 79.852 231.844 l 79.852 38.879 l h
431.148 38.879 m 431.148 137.715 l 450.457 132.543 l 450.672 132.484 450.891
 132.445 451.109 132.391 c 451.109 38.879 l h
431.148 38.879 m f
461.09 169.004 m 463.715 169.004 466.289 170.07 468.145 171.93 c 470 173.785
 471.07 176.359 471.07 178.98 c 471.07 181.609 470.004 184.184 468.145 186.039
 c 466.289 187.895 463.715 188.961 461.09 188.961 c 458.461 188.961 455.891
 187.895 454.035 186.039 c 452.18 184.184 451.109 181.609 451.109 178.98
 c 451.109 176.352 452.176 173.785 454.035 171.93 c 455.891 170.07 458.461
 169.004 461.09 169.004 c h
461.09 169.004 m f
87.254 268.816 m 418.582 180.039 l 419.449 179.805 420.32 179.695 421.172
 179.695 c 425.578 179.695 429.613 182.633 430.805 187.094 c 432.234 192.422
 429.074 197.891 423.75 199.316 c 92.422 288.098 l 87.094 289.523 81.625
 286.363 80.199 281.039 c 78.773 275.715 81.93 270.242 87.254 268.816 c 
h
87.254 268.816 m f
50.34 279.062 m 52.965 279.062 55.539 280.121 57.395 281.988 c 59.25 283.844
 60.32 286.422 60.32 289.043 c 60.32 291.668 59.25 294.234 57.395 296.102
 c 55.539 297.957 52.965 299.023 50.34 299.023 c 47.707 299.023 45.141 297.957
 43.285 296.102 c 41.418 294.246 40.363 291.668 40.363 289.043 c 40.363 
286.422 41.418 283.844 43.285 281.988 c 45.141 280.121 47.715 279.062 50.34
 279.062 c h
50.34 279.062 m f
Q Q
showpage
%%Trailer
end restore
%%EOF
