%!PS-Adobe-3.0 EPSF-3.0
%%Creator: cairo 1.14.2 (http://cairographics.org)
%%CreationDate: Mon Oct  8 09:05:16 2018
%%Pages: 1
%%DocumentData: Clean7Bit
%%LanguageLevel: 2
%%BoundingBox: 0 0 512 512
%%EndComments
%%BeginProlog
save
50 dict begin
/q { gsave } bind def
/Q { grestore } bind def
/cm { 6 array astore concat } bind def
/w { setlinewidth } bind def
/J { setlinecap } bind def
/j { setlinejoin } bind def
/M { setmiterlimit } bind def
/d { setdash } bind def
/m { moveto } bind def
/l { lineto } bind def
/c { curveto } bind def
/h { closepath } bind def
/re { exch dup neg 3 1 roll 5 3 roll moveto 0 rlineto
      0 exch rlineto 0 rlineto closepath } bind def
/S { stroke } bind def
/f { fill } bind def
/f* { eofill } bind def
/n { newpath } bind def
/W { clip } bind def
/W* { eoclip } bind def
/BT { } bind def
/ET { } bind def
/pdfmark where { pop globaldict /?pdfmark /exec load put }
    { globaldict begin /?pdfmark /pop load def /pdfmark
    /cleartomark load def end } ifelse
/BDC { mark 3 1 roll /BDC pdfmark } bind def
/EMC { mark /EMC pdfmark } bind def
/cairo_store_point { /cairo_point_y exch def /cairo_point_x exch def } def
/Tj { show currentpoint cairo_store_point } bind def
/TJ {
  {
    dup
    type /stringtype eq
    { show } { -0.001 mul 0 cairo_font_matrix dtransform rmoveto } ifelse
  } forall
  currentpoint cairo_store_point
} bind def
/cairo_selectfont { cairo_font_matrix aload pop pop pop 0 0 6 array astore
    cairo_font exch selectfont cairo_point_x cairo_point_y moveto } bind def
/Tf { pop /cairo_font exch def /cairo_font_matrix where
      { pop cairo_selectfont } if } bind def
/Td { matrix translate cairo_font_matrix matrix concatmatrix dup
      /cairo_font_matrix exch def dup 4 get exch 5 get cairo_store_point
      /cairo_font where { pop cairo_selectfont } if } bind def
/Tm { 2 copy 8 2 roll 6 array astore /cairo_font_matrix exch def
      cairo_store_point /cairo_font where { pop cairo_selectfont } if } bind def
/g { setgray } bind def
/rg { setrgbcolor } bind def
/d1 { setcachedevice } bind def
%%EndProlog
%%BeginSetup
%%EndSetup
%%Page: 1 1
%%BeginPageSetup
%%PageBoundingBox: 0 0 512 512
%%EndPageSetup
q 0 0 512 512 rectclip q
0 g
78.738 446.93 m 80.598 448.789 81.672 451.371 81.672 454 c 81.672 456.629
 80.602 459.211 78.738 461.07 c 76.879 462.93 74.301 464 71.672 464 c 69.031
 464 66.461 462.93 64.602 461.07 c 62.742 459.211 61.672 456.629 61.672 
454 c 61.672 451.371 62.73 448.789 64.602 446.93 c 66.461 445.07 69.031 
444 71.672 444 c 74.301 444 76.879 445.07 78.738 446.93 c h
78.738 446.93 m f
502 512 m 10 512 l 4.477 512 0 507.523 0 502 c 0 454 l 0 448.477 4.477 
444 10 444 c 33.668 444 l 39.188 444 43.668 448.477 43.668 454 c 43.668 
459.523 39.188 464 33.668 464 c 20 464 l 20 492 l 368.172 492 l 368.172 
464 l 112.332 464 l 106.812 464 102.332 459.523 102.332 454 c 102.332 448.477
 106.812 444 112.332 444 c 368.371 444 l 369.301 439.438 373.336 436 378.172
 436 c 404.172 436 l 404.172 386.977 l 329.555 330.562 l 327.055 328.672
 325.586 325.719 325.586 322.586 c 325.586 257 l 325.586 253.012 327.953
 249.406 331.613 247.82 c 356.172 237.195 l 356.172 214 l 356.172 208.477
 360.648 204 366.172 204 c 462.172 204 l 467.691 204 472.172 208.477 472.172
 214 c 472.172 237.07 l 496.766 247.84 l 500.406 249.434 502.758 253.027
 502.758 257 c 502.758 322.586 l 502.758 325.719 501.285 328.672 498.785
 330.562 c 424.172 386.977 l 424.172 436 l 450.172 436 l 455.008 436 459.043
 439.434 459.969 444 c 502 444 l 507.523 444 512 448.477 512 454 c 512 502
 l 512 507.523 507.523 512 502 512 c h
376.172 285.855 m 400.027 262 l 376.172 238.145 l h
414.172 247.855 m 438.027 224 l 390.312 224 l h
428.312 262 m 452.172 285.855 l 452.172 238.141 l h
414.172 276.145 m 390.312 300 l 438.027 300 l h
482.758 263.539 m 472.172 258.906 l 472.172 310 l 472.172 315.523 467.691
 320 462.172 320 c 366.172 320 l 360.648 320 356.172 315.523 356.172 310
 c 356.172 258.988 l 345.586 263.57 l 345.586 317.609 l 414.172 369.465 
l 482.758 317.609 l h
388.172 492 m 440.172 492 l 440.172 456 l 388.172 456 l h
492 464 m 460.172 464 l 460.172 492 l 492 492 l h
492 464 m f
414.172 484 m 411.539 484 408.961 482.93 407.102 481.07 c 405.242 479.211
 404.172 476.629 404.172 474 c 404.172 471.371 405.238 468.789 407.102 466.93
 c 408.961 465.07 411.539 464 414.172 464 c 416.801 464 419.379 465.07 421.238
 466.93 c 423.098 468.789 424.172 471.371 424.172 474 c 424.172 476.629 
423.102 479.211 421.238 481.07 c 419.379 482.93 416.801 484 414.172 484 
c h
414.172 484 m f
502 116 m 499.371 116 496.789 114.93 494.93 113.07 c 493.07 111.211 492
 108.629 492 106 c 492 103.371 493.07 100.789 494.93 98.93 c 496.789 97.07
 499.371 96 502 96 c 504.629 96 507.211 97.07 509.07 98.93 c 510.93 100.789
 512 103.371 512 106 c 512 108.629 510.93 111.211 509.07 113.07 c 507.211
 114.93 504.629 116 502 116 c h
502 116 m f
502 20 m 415.762 20 l 424.617 30.188 430 43.473 430 58 c 430 72.527 424.617
 85.812 415.762 96 c 464.668 96 l 470.188 96 474.668 100.477 474.668 106
 c 474.668 111.523 470.188 116 464.668 116 c 314.129 116 l 314.129 202 l
 314.129 207.523 309.648 212 304.129 212 c 208.129 212 l 202.605 212 198.129
 207.523 198.129 202 c 198.129 116 l 156.082 116 l 156.082 202 l 156.082
 207.523 151.605 212 146.082 212 c 50.082 212 l 44.562 212 40.082 207.523
 40.082 202 c 40.082 116 l 10 116 l 4.477 116 0 111.523 0 106 c 0 100.477
 4.477 96 10 96 c 90.238 96 l 81.383 85.812 76 72.527 76 58 c 76 43.473 
81.383 30.188 90.238 20 c 10 20 l 4.477 20 0 15.523 0 10 c 0 4.477 4.477
 0 10 0 c 502 0 l 507.523 0 512 4.477 512 10 c 512 15.523 507.523 20 502
 20 c h
410 58 m 410 37.047 392.953 20 372 20 c 351.047 20 334 37.047 334 58 c 
334 78.953 351.047 96 372 96 c 392.953 96 410 78.953 410 58 c h
136.082 130.145 m 112.227 154 l 136.082 177.855 l h
98.082 168.145 m 74.227 192 l 121.941 192 l h
83.941 154 m 60.082 130.145 l 60.082 177.859 l h
98.082 139.855 m 121.941 116 l 74.227 116 l h
294.129 130.016 m 270.145 154 l 294.129 177.984 l h
279.855 116 m 232.141 116 l 256 139.855 l h
256 168.145 m 232.145 192 l 279.859 192 l h
241.855 154 m 218.129 130.27 l 218.129 177.73 l h
328.238 96 m 319.383 85.812 314 72.527 314 58 c 314 43.473 319.383 30.188
 328.238 20 c 177.762 20 l 186.617 30.188 192 43.473 192 58 c 192 72.527
 186.617 85.812 177.762 96 c h
96 58 m 96 78.953 113.047 96 134 96 c 154.953 96 172 78.953 172 58 c 172
 37.047 154.953 20 134 20 c 113.047 20 96 37.047 96 58 c h
96 58 m f
134 68 m 131.371 68 128.789 66.93 126.93 65.07 c 125.07 63.211 124 60.629
 124 58 c 124 55.371 125.07 52.789 126.93 50.93 c 128.789 49.07 131.371 
48 134 48 c 136.629 48 139.211 49.07 141.07 50.93 c 142.93 52.789 144 55.371
 144 58 c 144 60.629 142.93 63.211 141.07 65.07 c 139.211 66.93 136.629 
68 134 68 c h
134 68 m f
372 48 m 374.629 48 377.211 49.07 379.07 50.93 c 380.93 52.789 382 55.371
 382 58 c 382 60.629 380.93 63.211 379.07 65.07 c 377.211 66.93 374.629 
68 372 68 c 369.371 68 366.789 66.93 364.93 65.07 c 363.07 63.211 362 60.629
 362 58 c 362 55.371 363.07 52.789 364.93 50.93 c 366.789 49.07 369.371 
48 372 48 c h
372 48 m f
Q Q
showpage
%%Trailer
end restore
%%EOF
