%!PS-Adobe-3.0 EPSF-3.0
%%Creator: cairo 1.14.2 (http://cairographics.org)
%%CreationDate: Mon Oct  8 09:05:16 2018
%%Pages: 1
%%DocumentData: Clean7Bit
%%LanguageLevel: 2
%%BoundingBox: 0 0 512 512
%%EndComments
%%BeginProlog
save
50 dict begin
/q { gsave } bind def
/Q { grestore } bind def
/cm { 6 array astore concat } bind def
/w { setlinewidth } bind def
/J { setlinecap } bind def
/j { setlinejoin } bind def
/M { setmiterlimit } bind def
/d { setdash } bind def
/m { moveto } bind def
/l { lineto } bind def
/c { curveto } bind def
/h { closepath } bind def
/re { exch dup neg 3 1 roll 5 3 roll moveto 0 rlineto
      0 exch rlineto 0 rlineto closepath } bind def
/S { stroke } bind def
/f { fill } bind def
/f* { eofill } bind def
/n { newpath } bind def
/W { clip } bind def
/W* { eoclip } bind def
/BT { } bind def
/ET { } bind def
/pdfmark where { pop globaldict /?pdfmark /exec load put }
    { globaldict begin /?pdfmark /pop load def /pdfmark
    /cleartomark load def end } ifelse
/BDC { mark 3 1 roll /BDC pdfmark } bind def
/EMC { mark /EMC pdfmark } bind def
/cairo_store_point { /cairo_point_y exch def /cairo_point_x exch def } def
/Tj { show currentpoint cairo_store_point } bind def
/TJ {
  {
    dup
    type /stringtype eq
    { show } { -0.001 mul 0 cairo_font_matrix dtransform rmoveto } ifelse
  } forall
  currentpoint cairo_store_point
} bind def
/cairo_selectfont { cairo_font_matrix aload pop pop pop 0 0 6 array astore
    cairo_font exch selectfont cairo_point_x cairo_point_y moveto } bind def
/Tf { pop /cairo_font exch def /cairo_font_matrix where
      { pop cairo_selectfont } if } bind def
/Td { matrix translate cairo_font_matrix matrix concatmatrix dup
      /cairo_font_matrix exch def dup 4 get exch 5 get cairo_store_point
      /cairo_font where { pop cairo_selectfont } if } bind def
/Tm { 2 copy 8 2 roll 6 array astore /cairo_font_matrix exch def
      cairo_store_point /cairo_font where { pop cairo_selectfont } if } bind def
/g { setgray } bind def
/rg { setrgbcolor } bind def
/d1 { setcachedevice } bind def
%%EndProlog
%%BeginSetup
%%EndSetup
%%Page: 1 1
%%BeginPageSetup
%%PageBoundingBox: 0 0 512 512
%%EndPageSetup
q 0 0 512 512 rectclip q
0 g
502.004 178.18 m 485.461 178.18 l 482.953 186.906 479.488 195.289 475.102
 203.238 c 486.789 214.922 l 488.66 216.797 489.715 219.34 489.715 221.988
 c 489.715 224.641 488.66 227.184 486.789 229.055 c 452.914 262.93 l 449.012
 266.832 442.688 266.832 438.781 262.93 c 427.133 251.281 l 419.172 255.691
 410.777 259.176 402.039 261.699 c 402.039 278.148 l 402.039 283.668 397.562
 288.141 392.047 288.141 c 344.141 288.141 l 338.621 288.141 334.148 283.668
 334.148 278.148 c 334.148 261.738 l 325.391 259.223 316.98 255.742 309.004
 251.332 c 297.406 262.93 l 295.531 264.805 292.992 265.855 290.34 265.855
 c 289.48 265.855 288.633 265.734 287.812 265.52 c 287.812 312.34 l 287.812
 317.859 283.34 322.336 277.82 322.336 c 261.273 322.336 l 258.766 331.059
 255.301 339.441 250.914 347.391 c 262.602 359.078 l 266.504 362.98 266.504
 369.309 262.602 373.211 c 228.727 407.082 l 224.824 410.984 218.5 410.984
 214.594 407.082 c 202.945 395.434 l 194.984 399.844 186.59 403.332 177.852
 405.852 c 177.852 422.305 l 177.852 427.824 173.375 432.297 167.859 432.297
 c 119.953 432.297 l 114.438 432.297 109.961 427.824 109.961 422.305 c 109.961
 405.895 l 101.203 403.379 92.793 399.895 84.816 395.484 c 73.219 407.082
 l 71.344 408.957 68.805 410.012 66.152 410.012 c 63.504 410.012 60.961 
408.957 59.086 407.082 c 25.211 373.211 l 21.309 369.309 21.309 362.98 25.211
 359.078 c 36.809 347.48 l 32.402 339.504 28.918 331.09 26.402 322.336 c
 9.992 322.336 l 4.477 322.336 0 317.859 0 312.34 c 0 264.438 l 0 258.918
 4.477 254.445 9.992 254.445 c 26.441 254.445 l 28.965 245.707 32.449 237.309
 36.859 229.352 c 25.211 217.703 l 23.34 215.828 22.285 213.285 22.285 210.637
 c 22.285 207.984 23.34 205.445 25.211 203.57 c 59.086 169.695 l 62.988 
165.793 69.316 165.793 73.219 169.695 c 84.906 181.383 l 92.855 176.996 
101.238 173.531 109.961 171.023 c 109.961 154.477 l 109.961 148.957 114.438
 144.484 119.953 144.484 c 167.859 144.484 l 173.379 144.484 177.852 148.957
 177.852 154.477 c 177.852 171.062 l 186.559 173.578 194.926 177.047 202.859
 181.434 c 214.594 169.695 l 216.469 167.824 219.012 166.77 221.66 166.77
 c 222.523 166.77 223.367 166.891 224.188 167.105 c 224.188 120.285 l 224.188
 114.766 228.664 110.289 234.18 110.289 c 250.629 110.289 l 253.152 101.551
 256.637 93.156 261.047 85.195 c 249.398 73.547 l 247.527 71.676 246.473
 69.133 246.473 66.48 c 246.473 63.832 247.527 61.289 249.398 59.414 c 283.273
 25.543 l 287.176 21.641 293.504 21.641 297.406 25.543 c 309.094 37.23 l
 317.043 32.844 325.426 29.379 334.148 26.871 c 334.148 10.324 l 334.148
 4.805 338.625 0.332 344.141 0.332 c 392.047 0.332 l 397.566 0.332 402.039
 4.805 402.039 10.324 c 402.039 26.91 l 410.746 29.422 419.113 32.891 427.047
 37.277 c 438.781 25.543 l 442.684 21.641 449.012 21.637 452.914 25.543 
c 486.789 59.414 l 488.664 61.289 489.715 63.832 489.715 66.48 c 489.715
 69.133 488.664 71.676 486.789 73.547 c 475.055 85.285 l 479.441 93.219 
482.906 101.586 485.422 110.289 c 502.004 110.289 l 507.523 110.289 512 
114.766 512 120.285 c 512 168.188 l 511.996 173.707 507.52 178.18 502.004
 178.18 c h
259.438 200.406 m 255.758 193.305 252.801 185.875 250.59 178.18 c 237.211
 178.18 l h
252.105 231.766 m 255.906 239.004 258.961 246.586 261.23 254.445 c 274.789
 254.445 l h
211.492 201.066 m 208.164 204.391 202.977 204.949 199.02 202.406 c 188.797
 195.836 177.594 191.191 165.727 188.602 c 161.137 187.602 157.863 183.535
 157.863 178.84 c 157.863 164.473 l 129.949 164.473 l 129.949 178.809 l 
129.949 183.512 126.668 187.578 122.07 188.574 c 110.188 191.152 98.969 
195.789 88.73 202.355 c 84.777 204.895 79.59 204.336 76.266 201.012 c 66.152
 190.895 l 46.41 210.637 l 56.5 220.723 l 59.824 224.047 60.383 229.246 
57.836 233.199 c 51.234 243.445 46.574 254.672 43.98 266.566 c 42.977 271.156
 38.914 274.43 34.215 274.43 c 19.988 274.43 l 19.988 302.348 l 34.188 302.348
 l 38.891 302.348 42.957 305.629 43.953 310.223 c 46.535 322.133 51.188 
333.379 57.785 343.641 c 60.324 347.598 59.766 352.785 56.441 356.109 c 
46.41 366.145 l 66.152 385.883 l 76.184 375.852 l 79.508 372.527 84.699 
371.973 88.656 374.512 c 98.918 381.109 110.16 385.762 122.07 388.344 c 
126.668 389.34 129.949 393.406 129.949 398.113 c 129.949 412.309 l 157.863
 412.309 l 157.863 398.082 l 157.863 393.383 161.137 389.316 165.727 388.316
 c 177.621 385.723 188.848 381.062 199.098 374.461 c 203.051 371.918 208.246
 372.473 211.574 375.797 c 221.66 385.883 l 241.402 366.145 l 231.285 356.027
 l 227.965 352.707 227.402 347.52 229.938 343.566 c 236.508 333.324 241.145
 322.109 243.723 310.227 c 244.719 305.629 248.785 302.348 253.488 302.348
 c 267.824 302.348 l 267.824 274.434 l 253.457 274.434 l 248.762 274.434
 244.695 271.16 243.695 266.566 c 241.105 254.699 236.461 243.5 229.891 
233.277 c 227.348 229.324 227.906 224.129 231.23 220.805 c 241.402 210.637
 l 221.66 190.895 l h
492.012 130.277 m 477.645 130.277 l 472.949 130.277 468.883 127.004 467.883
 122.414 c 465.293 110.547 460.648 99.348 454.078 89.121 c 451.535 85.168
 452.094 79.977 455.418 76.652 c 465.59 66.48 l 445.848 46.742 l 435.676
 56.91 l 432.352 60.234 427.164 60.793 423.207 58.25 c 412.98 51.68 401.781
 47.035 389.914 44.449 c 385.324 43.445 382.051 39.383 382.051 34.684 c 
382.051 20.316 l 354.133 20.316 l 354.133 34.652 l 354.133 39.355 350.855
 43.422 346.258 44.418 c 334.375 46.996 323.156 51.633 312.918 58.203 c 
308.965 60.738 303.777 60.18 300.453 56.855 c 290.34 46.742 l 270.598 66.48
 l 280.684 76.566 l 284.012 79.895 284.566 85.09 282.02 89.047 c 275.422
 99.293 270.762 110.52 268.168 122.414 c 267.164 127.004 263.102 130.277
 258.402 130.277 c 244.172 130.277 l 244.172 158.195 l 258.371 158.195 l
 263.074 158.195 267.141 161.473 268.137 166.07 c 270.719 177.98 275.375
 189.227 281.969 199.488 c 284.512 203.441 283.953 208.637 280.629 211.957
 c 270.598 221.992 l 290.34 241.73 l 300.371 231.699 l 303.695 228.375 308.887
 227.816 312.84 230.359 c 323.102 236.953 334.348 241.609 346.258 244.191
 c 350.855 245.188 354.133 249.254 354.133 253.957 c 354.133 268.156 l 382.051
 268.156 l 382.051 253.926 l 382.051 249.227 385.324 245.164 389.914 244.164
 c 401.809 241.566 413.035 236.906 423.281 230.309 c 427.234 227.762 432.434
 228.316 435.758 231.645 c 445.848 241.73 l 465.586 221.988 l 455.473 211.875
 l 452.152 208.555 451.59 203.367 454.125 199.414 c 460.695 189.172 465.332
 177.953 467.91 166.07 c 468.906 161.473 472.973 158.195 477.676 158.195
 c 492.012 158.195 l h
492.012 130.277 m f
325.695 176.641 m 328.254 176.641 330.809 177.617 332.762 179.57 c 332.883
 179.691 l 336.805 183.574 336.832 189.902 332.949 193.824 c 329.062 197.746
 322.734 197.773 318.816 193.891 c 318.625 193.703 l 314.723 189.801 314.723
 183.473 318.625 179.566 c 320.578 177.617 323.137 176.641 325.695 176.641
 c h
325.695 176.641 m f
351.059 212.094 m 345.703 210.754 342.449 205.328 343.789 199.973 c 345.129
 194.617 350.559 191.367 355.906 192.703 c 373.129 197.016 390.895 192.102
 403.426 179.57 c 422.91 160.086 422.91 128.387 403.426 108.906 c 393.988
 99.465 381.441 94.27 368.094 94.27 c 354.75 94.27 342.199 99.465 332.762
 108.906 c 321.008 120.66 315.879 137.441 319.043 153.789 c 320.094 159.207
 316.551 164.453 311.129 165.5 c 305.711 166.547 300.469 163.008 299.422
 157.59 c 294.988 134.711 302.172 111.23 318.629 94.773 c 331.844 81.559
 349.41 74.281 368.094 74.281 c 386.781 74.281 404.348 81.559 417.559 94.773
 c 444.836 122.047 444.836 166.43 417.559 193.703 c 400.277 210.984 374.797
 218.031 351.059 212.094 c h
351.059 212.094 m f
398.074 144.238 m 398.074 160.77 384.625 174.219 368.094 174.219 c 351.562
 174.219 338.113 160.77 338.113 144.238 c 338.113 127.707 351.562 114.258
 368.094 114.258 c 384.625 114.258 398.074 127.707 398.074 144.238 c h
358.102 144.238 m 358.102 149.746 362.582 154.23 368.094 154.23 c 373.605
 154.23 378.086 149.746 378.086 144.238 c 378.086 138.727 373.605 134.242
 368.094 134.242 c 362.582 134.242 358.102 138.727 358.102 144.238 c h
358.102 144.238 m f
179.445 323.516 m 181.387 321.59 183.918 320.629 186.449 320.629 c 189.023
 320.629 191.598 321.621 193.555 323.598 c 197.441 327.516 197.395 333.867
 193.477 337.754 c 193.344 337.883 l 189.422 341.77 183.117 341.723 179.234
 337.805 c 175.344 333.887 175.395 327.535 179.312 323.648 c h
179.445 323.516 m f
202.262 305.453 m 196.781 304.801 192.867 299.828 193.52 294.348 c 195.348
 279.012 190.145 263.961 179.238 253.059 c 159.758 233.578 128.059 233.574
 108.574 253.059 c 99.137 262.496 93.938 275.043 93.938 288.391 c 93.938
 301.738 99.137 314.285 108.574 323.723 c 119.871 335.02 136.043 340.254
 151.852 337.727 c 157.301 336.855 162.426 340.566 163.297 346.016 c 164.168
 351.465 160.457 356.59 155.008 357.465 c 132.902 361 110.258 353.672 94.441
 337.855 c 81.227 324.645 73.953 307.074 73.953 288.391 c 73.953 269.703
 81.227 252.137 94.441 238.926 c 108.078 225.285 125.988 218.469 143.906
 218.469 c 161.816 218.473 179.734 225.289 193.371 238.926 c 208.637 254.191
 215.926 275.254 213.367 296.715 c 212.711 302.195 207.723 306.102 202.262
 305.453 c h
202.262 305.453 m f
113.926 288.391 m 113.926 271.859 127.375 258.41 143.906 258.41 c 160.438
 258.41 173.887 271.859 173.887 288.391 c 173.887 304.922 160.438 318.371
 143.906 318.371 c 127.375 318.371 113.926 304.922 113.926 288.391 c h
153.898 288.391 m 153.898 282.879 149.418 278.398 143.906 278.398 c 138.395
 278.398 133.914 282.879 133.914 288.391 c 133.914 293.902 138.395 298.383
 143.906 298.383 c 149.418 298.383 153.898 293.902 153.898 288.391 c h
153.898 288.391 m f
502.004 435.32 m 482.301 435.32 l 479.379 442.266 475.613 448.777 471.039
 454.789 c 480.902 471.871 l 483.664 476.652 482.023 482.766 477.246 485.523
 c 433.711 510.656 l 431.414 511.984 428.688 512.344 426.129 511.656 c 423.566
 510.969 421.387 509.297 420.059 507 c 410.199 489.918 l 402.75 490.844 
395.16 490.844 387.715 489.918 c 377.855 507 l 375.094 511.781 368.98 513.418
 364.203 510.66 c 320.668 485.523 l 318.375 484.199 316.699 482.016 316.012
 479.457 c 315.328 476.895 315.688 474.168 317.012 471.875 c 326.875 454.793
 l 322.305 448.777 318.539 442.266 315.617 435.324 c 295.906 435.324 l 290.391
 435.324 285.914 430.848 285.914 425.328 c 285.914 375.062 l 285.914 369.543
 290.391 365.066 295.906 365.066 c 315.617 365.066 l 318.539 358.125 322.305
 351.613 326.875 345.598 c 317.012 328.516 l 315.688 326.223 315.328 323.492
 316.012 320.934 c 316.699 318.375 318.375 316.191 320.668 314.867 c 364.203
 289.73 l 365.777 288.824 367.496 288.391 369.191 288.391 c 372.645 288.391
 376.004 290.184 377.855 293.391 c 387.715 310.469 l 395.16 309.547 402.754
 309.547 410.199 310.469 c 420.062 293.391 l 421.387 291.094 423.57 289.418
 426.129 288.734 c 428.688 288.047 431.418 288.406 433.711 289.73 c 477.246
 314.867 l 482.027 317.625 483.664 323.738 480.902 328.516 c 471.043 345.598
 l 475.613 351.613 479.379 358.125 482.301 365.066 c 502.004 365.066 l 507.523
 365.066 511.996 369.543 511.996 375.062 c 511.996 425.328 l 511.996 430.848
 507.52 435.32 502.004 435.32 c h
492.012 385.055 m 475.375 385.055 l 471.059 385.055 467.23 382.281 465.883
 378.18 c 462.844 368.938 457.996 360.555 451.473 353.262 c 448.594 350.043
 448.109 345.344 450.27 341.602 c 458.598 327.176 l 432.375 312.035 l 424.055
 326.445 l 421.898 330.184 417.59 332.113 413.367 331.234 c 403.941 329.277
 393.977 329.277 384.551 331.234 c 380.328 332.109 376.02 330.18 373.863
 326.445 c 365.543 312.035 l 339.32 327.176 l 347.648 341.602 l 349.809 
345.34 349.324 350.043 346.445 353.262 c 339.922 360.555 335.074 368.938
 332.035 378.18 c 330.688 382.281 326.859 385.055 322.543 385.055 c 305.902
 385.055 l 305.902 415.332 l 322.543 415.332 l 326.859 415.332 330.688 418.105
 332.035 422.207 c 335.074 431.449 339.922 439.832 346.445 447.125 c 349.324
 450.344 349.809 455.043 347.648 458.785 c 339.32 473.211 l 365.543 488.352
 l 373.863 473.941 l 376.02 470.207 380.328 468.277 384.551 469.152 c 393.98
 471.109 403.941 471.109 413.367 469.152 c 417.594 468.277 421.898 470.207
 424.055 473.941 c 432.375 488.352 l 458.598 473.211 l 450.27 458.785 l 
448.109 455.047 448.594 450.344 451.473 447.125 c 457.996 439.832 462.844
 431.449 465.883 422.207 c 467.23 418.105 471.059 415.332 475.375 415.332
 c 492.012 415.332 l h
492.012 385.055 m f
398.957 446.297 m 373.535 446.297 352.855 425.613 352.855 400.195 c 352.855
 374.773 373.535 354.094 398.957 354.094 c 424.379 354.094 445.059 374.773
 445.059 400.195 c 445.059 425.613 424.379 446.297 398.957 446.297 c h
398.957 374.078 m 384.559 374.078 372.844 385.793 372.844 400.195 c 372.844
 414.594 384.559 426.309 398.957 426.309 c 413.355 426.309 425.074 414.594
 425.074 400.195 c 425.074 385.793 413.355 374.078 398.957 374.078 c h
398.957 374.078 m f
Q Q
showpage
%%Trailer
end restore
%%EOF
