%!PS-Adobe-3.0 EPSF-3.0
%%Creator: cairo 1.14.2 (http://cairographics.org)
%%CreationDate: Mon Oct  8 09:05:16 2018
%%Pages: 1
%%DocumentData: Clean7Bit
%%LanguageLevel: 2
%%BoundingBox: 0 62 512 449
%%EndComments
%%BeginProlog
save
50 dict begin
/q { gsave } bind def
/Q { grestore } bind def
/cm { 6 array astore concat } bind def
/w { setlinewidth } bind def
/J { setlinecap } bind def
/j { setlinejoin } bind def
/M { setmiterlimit } bind def
/d { setdash } bind def
/m { moveto } bind def
/l { lineto } bind def
/c { curveto } bind def
/h { closepath } bind def
/re { exch dup neg 3 1 roll 5 3 roll moveto 0 rlineto
      0 exch rlineto 0 rlineto closepath } bind def
/S { stroke } bind def
/f { fill } bind def
/f* { eofill } bind def
/n { newpath } bind def
/W { clip } bind def
/W* { eoclip } bind def
/BT { } bind def
/ET { } bind def
/pdfmark where { pop globaldict /?pdfmark /exec load put }
    { globaldict begin /?pdfmark /pop load def /pdfmark
    /cleartomark load def end } ifelse
/BDC { mark 3 1 roll /BDC pdfmark } bind def
/EMC { mark /EMC pdfmark } bind def
/cairo_store_point { /cairo_point_y exch def /cairo_point_x exch def } def
/Tj { show currentpoint cairo_store_point } bind def
/TJ {
  {
    dup
    type /stringtype eq
    { show } { -0.001 mul 0 cairo_font_matrix dtransform rmoveto } ifelse
  } forall
  currentpoint cairo_store_point
} bind def
/cairo_selectfont { cairo_font_matrix aload pop pop pop 0 0 6 array astore
    cairo_font exch selectfont cairo_point_x cairo_point_y moveto } bind def
/Tf { pop /cairo_font exch def /cairo_font_matrix where
      { pop cairo_selectfont } if } bind def
/Td { matrix translate cairo_font_matrix matrix concatmatrix dup
      /cairo_font_matrix exch def dup 4 get exch 5 get cairo_store_point
      /cairo_font where { pop cairo_selectfont } if } bind def
/Tm { 2 copy 8 2 roll 6 array astore /cairo_font_matrix exch def
      cairo_store_point /cairo_font where { pop cairo_selectfont } if } bind def
/g { setgray } bind def
/rg { setrgbcolor } bind def
/d1 { setcachedevice } bind def
%%EndProlog
%%BeginSetup
%%EndSetup
%%Page: 1 1
%%BeginPageSetup
%%PageBoundingBox: 0 62 512 449
%%EndPageSetup
q 0 62 512 387 rectclip q
0 g
330 338.742 m 327.371 338.742 324.789 337.672 322.93 335.812 c 321.07 333.953
 320 331.371 320 328.742 c 320 326.113 321.07 323.531 322.93 321.672 c 324.789
 319.812 327.371 318.742 330 318.742 c 332.629 318.742 335.211 319.812 337.07
 321.672 c 338.93 323.531 340 326.113 340 328.742 c 340 331.371 338.93 333.953
 337.07 335.812 c 335.211 337.672 332.629 338.742 330 338.742 c h
330 338.742 m f
502 255.367 m 370 255.367 l 364.477 255.367 360 250.891 360 245.367 c 360
 123.367 l 340 123.367 l 340 288.242 l 340 293.766 335.523 298.242 330 298.242
 c 324.477 298.242 320 293.766 320 288.242 c 320 123.367 l 300 123.367 l
 300 429 l 320 429 l 320 364.742 l 320 359.223 324.477 354.742 330 354.742
 c 335.523 354.742 340 359.223 340 364.742 c 340 439 l 340 444.523 335.523
 449 330 449 c 290 449 l 284.477 449 280 444.523 280 439 c 280 260.152 l
 220.973 409.023 l 216.551 420.168 205.949 427.367 193.957 427.367 c 109.059
 427.367 l 93.035 427.367 80 414.332 80 398.309 c 80 286.184 l 10 286.184
 l 4.477 286.184 0 281.707 0 276.184 c 0 154.988 l 0 149.469 4.477 144.988
 10 144.988 c 15.523 144.988 20 149.469 20 154.988 c 20 171.242 l 65.418
 171.242 l 101.746 124.137 l 103.641 121.684 106.566 120.242 109.668 120.242
 c 163.5 120.242 l 166.586 120.242 169.5 121.668 171.395 124.105 c 199.891
 160.742 l 280 160.742 l 280 113.367 l 280 107.844 284.477 103.367 290 103.367
 c 502 103.367 l 507.523 103.367 512 107.844 512 113.367 c 512 245.367 l
 512 250.891 507.523 255.367 502 255.367 c h
109.059 407.367 m 193.957 407.367 l 197.695 407.367 201 405.121 202.379
 401.648 c 272.688 224.332 l 251.305 224.332 l 210.965 264.676 l 215.402
 269.113 l 219.305 273.02 219.305 279.352 215.402 283.254 c 211.496 287.16
 205.164 287.16 201.258 283.254 c 179.23 261.227 l 175.324 257.32 175.324
 250.988 179.23 247.086 c 181.184 245.133 183.742 244.156 186.301 244.156
 c 188.859 244.156 191.422 245.133 193.371 247.086 c 196.82 250.531 l 223.02
 224.332 l 153.488 224.332 l 100 281.211 l 100 398.309 l 100 403.305 104.062
 407.367 109.059 407.367 c h
195 180.742 m 191.914 180.742 189 179.32 187.105 176.883 c 158.609 140.242
 l 114.582 140.242 l 78.254 187.352 l 76.359 189.805 73.434 191.242 70.332
 191.242 c 20 191.242 l 20 266.184 l 86.676 266.184 l 141.883 207.48 l 143.773
 205.473 146.406 204.332 149.168 204.332 c 280 204.332 l 280 180.742 l h
450.145 180.016 m 492 221.871 l 492 138.156 l h
380 221.871 m 421.855 180.016 l 380 138.156 l h
394.789 235.367 m 477.211 235.367 l 436 194.156 l h
393.496 123.367 m 436 165.871 l 478.504 123.367 l h
393.496 123.367 m f
228.059 118.402 m 225.422 118.402 222.84 117.332 220.98 115.473 c 219.121
 113.613 218.051 111.031 218.051 108.402 c 218.051 105.773 219.121 103.191
 220.98 101.332 c 222.84 99.473 225.422 98.402 228.059 98.402 c 230.691 
98.402 233.262 99.473 235.121 101.332 c 236.992 103.191 238.051 105.773 
238.051 108.402 c 238.051 111.031 236.992 113.613 235.121 115.473 c 233.262
 117.332 230.688 118.402 228.059 118.402 c h
228.059 118.402 m f
46 98.402 m 48.629 98.402 51.211 99.473 53.07 101.332 c 54.93 103.191 56
 105.773 56 108.402 c 56 111.031 54.93 113.613 53.07 115.473 c 51.211 117.332
 48.629 118.402 46 118.402 c 43.371 118.402 40.789 117.332 38.93 115.473
 c 37.07 113.613 36 111.043 36 108.402 c 36 105.773 37.07 103.191 38.93 
101.332 c 40.789 99.473 43.371 98.402 46 98.402 c h
46 98.402 m f
305 82.402 m 265.977 82.402 l 271.066 89.805 274.055 98.762 274.055 108.402
 c 274.055 133.766 253.418 154.402 228.055 154.402 c 202.691 154.402 182.055
 133.766 182.055 108.402 c 182.055 98.762 185.043 89.805 190.137 82.402 
c 83.922 82.402 l 89.012 89.805 92 98.762 92 108.402 c 92 133.766 71.363
 154.402 46 154.402 c 20.637 154.402 0 133.766 0 108.402 c 0 98.684 3.035
 89.668 8.199 82.234 c 3.539 81.387 0 77.312 0 72.402 c 0 66.879 4.477 62.402
 10 62.402 c 305 62.402 l 310.523 62.402 315 66.879 315 72.402 c 315 77.926
 310.523 82.402 305 82.402 c h
202.055 108.402 m 202.055 122.738 213.719 134.402 228.055 134.402 c 242.391
 134.402 254.055 122.738 254.055 108.402 c 254.055 94.066 242.391 82.402
 228.055 82.402 c 213.719 82.402 202.055 94.066 202.055 108.402 c h
46 134.402 m 60.336 134.402 72 122.738 72 108.402 c 72 94.066 60.336 82.402
 46 82.402 c 31.664 82.402 20 94.066 20 108.402 c 20 122.738 31.664 134.402
 46 134.402 c h
46 134.402 m f
345.059 82.402 m 342.422 82.402 339.852 81.332 337.98 79.473 c 336.121 
77.613 335.059 75.031 335.059 72.402 c 335.059 69.773 336.121 67.191 337.98
 65.332 c 339.84 63.473 342.422 62.402 345.059 62.402 c 347.691 62.402 350.27
 63.473 352.129 65.332 c 353.988 67.191 355.059 69.773 355.059 72.402 c 
355.059 75.031 353.992 77.613 352.129 79.473 c 350.262 81.332 347.688 82.402
 345.059 82.402 c h
345.059 82.402 m f
Q Q
showpage
%%Trailer
end restore
%%EOF
